[
    {
        "meta": 0.000984612006184298, 
        "tmglut_q": 4.797404247554303, 
        "tmglut_tauR": 102.8557976738891
    }, 
    {
        "meta": 0.0009871500735728438, 
        "tmglut_q": 4.996433836741544, 
        "tmglut_tauR": 62.526304856878085
    }, 
    {
        "meta": 0.0009890708205895695, 
        "tmglut_q": 4.556454322652433, 
        "tmglut_tauR": 160.23271987362546
    }, 
    {
        "meta": 0.0009327670679050535, 
        "tmglut_q": 4.8357651039198695, 
        "tmglut_tauR": 63.1182224174207
    }, 
    {
        "meta": 0.0008912368031777902, 
        "tmglut_q": 4.053093699891848, 
        "tmglut_tauR": 115.10566396698982
    }, 
    {
        "meta": 0.0009494910647887382, 
        "tmglut_q": 4.495435087091941, 
        "tmglut_tauR": 88.0575928313364
    }, 
    {
        "meta": 0.0009494910647887382, 
        "tmglut_q": 4.4419201604407, 
        "tmglut_tauR": 88.0575928313364
    }, 
    {
        "meta": 0.0010495098245174087, 
        "tmglut_q": 4.86822319771062, 
        "tmglut_tauR": 115.22891466292783
    }, 
    {
        "meta": 0.0009369108224237652, 
        "tmglut_q": 4.856439671455988, 
        "tmglut_tauR": 86.70139708973744
    }, 
    {
        "meta": 0.0009252924816805271, 
        "tmglut_q": 4.782702645694603, 
        "tmglut_tauR": 87.2810248233532
    }
]