TITLE Fast A-type potassium current (Kv4.2)

NEURON {
    THREADSAFE
    SUFFIX kaf
    USEION k READ ek WRITE ik
    RANGE gbar, gk, ik, base, maxDiff, factor, mod, I
    POINTER pka
}

UNITS {
    (S) = (siemens)
    (mV) = (millivolt)
    (mA) = (milliamp)
}

PARAMETER {
    gbar = 0.0 (S/cm2) 
    q = 2
    base    = 0.0     : set in simulation file 
    maxDiff     = 2000.0     : set in simulation file
	factor  = 0.0     : set in simulation file
} 

ASSIGNED {
    v (mV)
    ek (mV)
    ik 
    gk (S/cm2)
    minf
    mtau (ms)
    hinf
    htau (ms)
    pka (1)
    mod (1)
    I (mA/cm2)
}

STATE { m h }

BREAKPOINT {
    SOLVE states METHOD cnexp
    mod = modulation()
    gk = mod * gbar*m*m*h
    I  = gk*(v-ek)
    ik = I
}

DERIVATIVE states {
    rates()
    m' = (minf-m)/mtau*q
    h' = (hinf-h)/htau*q
}

INITIAL {
    rates()
    m = minf
    h = hinf
}

PROCEDURE rates() {
    LOCAL alpha, beta, sum
    UNITSOFF
    alpha = 1.5/(1+exp((v-4)/(-17)))
    beta = 0.6/(1+exp((v-10)/9))
    sum = alpha+beta
    minf = alpha/sum
    mtau = 1/sum

    alpha = 0.105/(1+exp((v-(-121))/22))
    beta = 0.065/(1+exp((v-(-55))/(-11)))
    sum = alpha+beta
    hinf = alpha/sum
    htau = 1/sum
    UNITSON
}


FUNCTION modulation() {
    
    : returns modulation factor
    
    modulation = 1 + factor * (pka - base) / maxDiff
    
}

COMMENT

Original data by Tkatch (2000), P4-6 rat, 22 C.

Genesis implementation by Kai Du <kai.du@ki.se>, MScell v9.5.

Revision by Robert Lindroos <robert.lindroos@ki.se>, q factor applied
to both m and h instead of h only.

NEURON implementation by Alexander Kozlov <akozlov@csc.kth.se>.

ENDCOMMENT
