TITLE Slow A-type potassium current (Kv1.2)

NEURON {
    THREADSAFE
    SUFFIX kas
    USEION k READ ek WRITE ik
    RANGE gbar, gk, ik, base, maxDiff, factor, mod, I
    POINTER pka
}

UNITS {
    (S) = (siemens)
    (mV) = (millivolt)
    (mA) = (milliamp)
}

PARAMETER {
    gbar = 0.0 (S/cm2) 
    q = 3
    a = 0.2
    base    = 0.0     : set in simulation file 
    maxDiff     = 2000.0     : set in simulation file
	factor  = 0.0     : set in simulation file
} 

ASSIGNED {
    v (mV)
    ek (mV)
    ik (mA/cm2)
    gk (S/cm2)
    minf
    mtau (ms)
    hinf
    htau (ms)
    pka (1)
    mod (1)
    I (mA/cm2)
}

STATE { m h }

BREAKPOINT {
    SOLVE states METHOD cnexp
    mod = modulation()
    gk = mod * gbar*m*m*h
    I  = gk*(v-ek)
    ik = I 
}

DERIVATIVE states {
    rates()
    m' = (minf-m)/mtau*q
    h' = (hinf-h)/htau*q
}

INITIAL {
    rates()
    m = minf
    h = hinf
}

PROCEDURE rates() {
    LOCAL alpha, beta, sum
    UNITSOFF
    alpha = 0.25/(1+exp((v-50)/(-20)))
    beta = 0.05/(1+exp((v-(-90))/35))
    sum = alpha+beta
    minf = alpha/sum
    mtau = 1/sum

    alpha = 0.0025/(1+exp((v-(-95))/16))
    beta = 0.002/(1+exp((v-50)/(-70)))
    sum = alpha+beta
    hinf = a+(alpha/sum)*(1-a)
    htau = 1/sum
    UNITSON
}

FUNCTION modulation() {
    
    : returns modulation factor
    
    modulation = 1 + factor * (pka - base) / maxDiff
    
}

COMMENT

Original data by Shen (2004), diss MSN, rat, room temp.

Genesis implementation by Kai Du <kai.du@ki.se>, MScell v9.5.

NEURON implementation by Alexander Kozlov <akozlov@csc.kth.se>.

ENDCOMMENT
