[
    {
        "param_name": "celsius", 
        "type": "global", 
        "value": 35
    }, 
    {
        "param_name": "v_init", 
        "type": "global", 
        "value": -80
    }, 
    {
        "dist_type": "uniform", 
        "param_name": "g_pas", 
        "sectionlist": "all", 
        "type": "section", 
        "value": 1.25e-05
    }, 
    {
        "dist_type": "uniform", 
        "param_name": "e_pas", 
        "sectionlist": "all", 
        "type": "section", 
        "value": -70
    }, 
    {
        "dist_type": "uniform", 
        "param_name": "cm", 
        "sectionlist": "all", 
        "type": "section", 
        "value": 1
    }, 
    {
        "dist_type": "uniform", 
        "param_name": "Ra", 
        "sectionlist": "all", 
        "type": "section", 
        "value": 150
    }, 
    {
        "dist_type": "uniform", 
        "param_name": "ek", 
        "sectionlist": "all", 
        "type": "section", 
        "value": -85
    }, 
    {
        "dist_type": "uniform", 
        "mech": "naf", 
        "mech_param": "gbar", 
        "param_name": "gbar_naf", 
        "sectionlist": "somatic", 
        "type": "range", 
        "value": 12.0
    }, 
    {
        "dist_type": "uniform", 
        "mech": "kaf", 
        "mech_param": "gbar", 
        "param_name": "gbar_kaf", 
        "sectionlist": "somatic", 
        "type": "range", 
        "value": 0.15
    }, 
    {
        "dist_type": "uniform", 
        "mech": "kas", 
        "mech_param": "gbar", 
        "param_name": "gbar_kas", 
        "sectionlist": "somatic", 
        "type": "range", 
        "value": 0.016
    }, 
    {
        "dist_type": "uniform", 
        "mech": "kdr", 
        "mech_param": "gbar", 
        "param_name": "gbar_kdr", 
        "sectionlist": "somatic", 
        "type": "range", 
        "value": 0.00094
    }, 
    {
        "dist_type": "uniform", 
        "mech": "bk", 
        "mech_param": "gbar", 
        "param_name": "gbar_bk", 
        "sectionlist": "somatic", 
        "type": "range", 
        "value": 0.00013
    }, 
    {
        "dist_type": "uniform", 
        "mech": "cal12", 
        "mech_param": "pbar", 
        "param_name": "pbar_cal12", 
        "sectionlist": "somatic", 
        "type": "range", 
        "value": 1.34e-05
    }, 
    {
        "dist_type": "uniform", 
        "mech": "cal13", 
        "mech_param": "pbar", 
        "param_name": "pbar_cal13", 
        "sectionlist": "somatic", 
        "type": "range", 
        "value": 1.34e-06
    }, 
    {
        "dist_type": "uniform", 
        "mech": "car", 
        "mech_param": "pbar", 
        "param_name": "pbar_car", 
        "sectionlist": "somatic", 
        "type": "range", 
        "value": 0.000134
    }, 
    {
        "dist_type": "uniform", 
        "mech": "can", 
        "mech_param": "pbar", 
        "param_name": "pbar_can", 
        "sectionlist": "somatic", 
        "type": "range", 
        "value": 4e-05
    }, 
    {
        "dist_type": "uniform", 
        "mech": "kir", 
        "mech_param": "gbar", 
        "param_name": "gbar_kir", 
        "sectionlist": "somatic", 
        "type": "range", 
        "value": 0.0004342855581910647
    }, 
    {
        "dist_type": "uniform", 
        "mech": "sk", 
        "mech_param": "gbar", 
        "param_name": "gbar_sk", 
        "sectionlist": "somatic", 
        "type": "range", 
        "value": 1.0518743345617914e-05
    }, 
    {
        "dist_type": "uniform", 
        "mech": "kdr", 
        "mech_param": "gbar", 
        "param_name": "gbar_kdr", 
        "sectionlist": "basal", 
        "type": "range", 
        "value": 0.0007
    }, 
    {
        "dist_type": "uniform", 
        "mech": "bk", 
        "mech_param": "gbar", 
        "param_name": "gbar_bk", 
        "sectionlist": "basal", 
        "type": "range", 
        "value": 0.0001
    }, 
    {
        "dist_type": "uniform", 
        "mech": "cal12", 
        "mech_param": "pbar", 
        "param_name": "pbar_cal12", 
        "sectionlist": "basal", 
        "type": "range", 
        "value": 1e-05
    }, 
    {
        "dist_type": "uniform", 
        "mech": "cal13", 
        "mech_param": "pbar", 
        "param_name": "pbar_cal13", 
        "sectionlist": "basal", 
        "type": "range", 
        "value": 1e-06
    }, 
    {
        "dist_type": "uniform", 
        "mech": "car", 
        "mech_param": "pbar", 
        "param_name": "pbar_car", 
        "sectionlist": "basal", 
        "type": "range", 
        "value": 0.0001
    }, 
    {
        "dist_type": "uniform", 
        "mech": "sk", 
        "mech_param": "gbar", 
        "param_name": "gbar_sk", 
        "sectionlist": "basal", 
        "type": "range", 
        "value": 1.0518743345617914e-05
    }, 
    {
        "bounds": [
            2.2348814373422607, 
            2.2368814373422605
        ], 
        "dist": "(1-{naf_v1} + {naf_v1}/(1+math.exp(({distance}-{naf_v2}+6.1)/{naf_v3}) ))*{value}", 
        "dist_type": "exp", 
        "mech": "naf", 
        "mech_param": "gbar", 
        "param_list": [
            0.001367466461451583, 
            0.9986325335385484, 
            48.289236039096984, 
            6.000750429482659
        ], 
        "param_name": "gbar_naf", 
        "sectionlist": "basal", 
        "type": "range"
    }, 
    {
        "bounds": [
            0.12110456129406856, 
            0.12310456129406856
        ], 
        "dist": "(1-{kaf_v1} + {kaf_v1}/(1+math.exp(({distance}-{kaf_v2}+6.1)/{kaf_v3}) ))*{value}", 
        "dist_type": "exp", 
        "mech": "kaf", 
        "mech_param": "gbar", 
        "param_list": [
            1.0, 
            0.8102975570596093, 
            40.23902852982299, 
            -49.0780819896046
        ], 
        "param_name": "gbar_kaf", 
        "sectionlist": "basal", 
        "type": "range"
    }, 
    {
        "dist": "(0.1 + 0.9/(1+math.exp(({distance}-46.2002315826+6.1)/63.7738904022) ))*{value}", 
        "dist_type": "exp", 
        "mech": "kas", 
        "mech_param": "gbar", 
        "param_name": "gbar_kas", 
        "sectionlist": "basal", 
        "type": "range", 
        "value": 0.005068472679297267
    }, 
    {
        "dist_type": "uniform", 
        "mech": "kir", 
        "mech_param": "gbar", 
        "param_name": "gbar_kir", 
        "sectionlist": "basal", 
        "type": "range", 
        "value": 0.0004342855581910647
    }, 
    {
        "dist": "(0.0723929438622 + 0.927607056138/(1+math.exp(({distance}-29.2382633871+6.1)/10.6313988531) ))*{value}", 
        "dist_type": "exp", 
        "mech": "can", 
        "mech_param": "pbar", 
        "param_name": "pbar_can", 
        "sectionlist": "basal", 
        "type": "range", 
        "value": 4.892781636228088e-06
    }, 
    {
        "dist": "(0 + 1/(1+math.exp(({distance}-99.914540093+6.1)/-15.5729223684) ))*{value}", 
        "dist_type": "exp", 
        "mech": "cav32", 
        "mech_param": "pbar", 
        "param_name": "pbar_cav32", 
        "sectionlist": "basal", 
        "type": "range", 
        "value": 3.217681236450632e-07
    }, 
    {
        "dist": "(0 + 1/(1+math.exp(({distance}-12.3758384834+6.1)/-61.2012865746) ))*{value}", 
        "dist_type": "exp", 
        "mech": "cav33", 
        "mech_param": "pbar", 
        "param_name": "pbar_cav33", 
        "sectionlist": "basal", 
        "type": "range", 
        "value": 6.128270057223547e-09
    }, 
    {
        "dist_type": "uniform", 
        "mech": "kas", 
        "mech_param": "gbar", 
        "param_name": "gbar_kas", 
        "sectionlist": "axonal", 
        "type": "range", 
        "value": 0.007
    }, 
    {
        "dist": "(1 + 0.1/(1+math.exp(({distance}-30+6.1)/1) ))*{value}", 
        "dist_type": "exp", 
        "mech": "naf", 
        "mech_param": "gbar", 
        "param_name": "gbar_naf", 
        "sectionlist": "axonal", 
        "type": "range", 
        "value": 9.0
    }
]