[
    {
        "param_name": "celsius", 
        "type": "global", 
        "value": 35
    }, 
    {
        "param_name": "v_init", 
        "type": "global", 
        "value": -80
    }, 
    {
        "dist_type": "uniform", 
        "param_name": "g_pas", 
        "sectionlist": "all", 
        "type": "section", 
        "value": 1.25e-05
    }, 
    {
        "dist_type": "uniform", 
        "param_name": "e_pas", 
        "sectionlist": "all", 
        "type": "section", 
        "value": -70
    }, 
    {
        "dist_type": "uniform", 
        "param_name": "cm", 
        "sectionlist": "all", 
        "type": "section", 
        "value": 1
    }, 
    {
        "dist_type": "uniform", 
        "param_name": "Ra", 
        "sectionlist": "all", 
        "type": "section", 
        "value": 150
    }, 
    {
        "dist_type": "uniform", 
        "param_name": "ek", 
        "sectionlist": "all", 
        "type": "section", 
        "value": -85
    }, 
    {
        "dist_type": "uniform", 
        "mech": "kir", 
        "mech_param": "gbar", 
        "param_name": "gbar_kir", 
        "sectionlist": "somatic", 
        "type": "range", 
        "value": 0.0009674850438197101
    }, 
    {
        "dist_type": "uniform", 
        "mech": "kir", 
        "mech_param": "gbar", 
        "param_name": "gbar_kir", 
        "sectionlist": "basal", 
        "type": "range", 
        "value": 0.0009674850438197101
    }, 
    {
        "dist_type": "uniform", 
        "mech": "kdr", 
        "mech_param": "gbar", 
        "param_name": "gbar_kdr", 
        "sectionlist": "somatic", 
        "type": "range", 
        "value": 0.00094
    }, 
    {
        "dist_type": "uniform", 
        "mech": "kdr", 
        "mech_param": "gbar", 
        "param_name": "gbar_kdr", 
        "sectionlist": "basal", 
        "type": "range", 
        "value": 0.0007
    }, 
    {
        "dist_type": "uniform", 
        "mech": "kas", 
        "mech_param": "gbar", 
        "param_name": "gbar_kas", 
        "sectionlist": "somatic", 
        "type": "range", 
        "value": 0.016
    }, 
    {
        "dist_type": "uniform", 
        "mech": "kas", 
        "mech_param": "gbar", 
        "param_name": "gbar_kas", 
        "sectionlist": "axonal", 
        "type": "range", 
        "value": 0.007
    }, 
    {
        "dist": "(1.000000 + 0.900000/(1+math.exp(({distance}-46.374779)/26.278854) ))*{value}", 
        "dist_type": "exp", 
        "mech": "kas", 
        "mech_param": "gbar", 
        "param_name": "gbar_kas", 
        "sectionlist": "basal", 
        "type": "range", 
        "value": 0.006249779323931847
    }, 
    {
        "dist_type": "uniform", 
        "mech": "kaf", 
        "mech_param": "gbar", 
        "param_name": "gbar_kaf", 
        "sectionlist": "somatic", 
        "type": "range", 
        "value": 0.15
    }, 
    {
        "dist": "(1.000000 + 0.397918/(1+math.exp(({distance}-18.548812)/-8.429223) ))*{value}", 
        "dist_type": "exp", 
        "mech": "kaf", 
        "mech_param": "gbar", 
        "param_name": "gbar_kaf", 
        "sectionlist": "basal", 
        "type": "range", 
        "value": 0.08591106800329203
    }, 
    {
        "dist_type": "uniform", 
        "mech": "naf", 
        "mech_param": "gbar", 
        "param_name": "gbar_naf", 
        "sectionlist": "somatic", 
        "type": "range", 
        "value": 12
    }, 
    {
        "dist": "(1.000000 + 0.100000/(1+math.exp(({distance}-30.000000)/-1.000000) ))*{value}", 
        "dist_type": "exp", 
        "mech": "naf", 
        "mech_param": "gbar", 
        "param_name": "gbar_naf", 
        "sectionlist": "axonal", 
        "type": "range", 
        "value": 9.0
    }, 
    {
        "dist": "(1.000000 + 0.100000/(1+math.exp(({distance}-30.000000)/-1.000000) ))*{value}", 
        "dist_type": "exp", 
        "mech": "naf", 
        "mech_param": "gbar", 
        "param_name": "gbar_naf", 
        "sectionlist": "basal", 
        "type": "range", 
        "value": 9.0
    }, 
    {
        "dist": "(0.028059 + 0.971941/(1+math.exp(({distance}-28.970527)/16.760326) ))*{value}", 
        "dist_type": "exp", 
        "mech": "can", 
        "mech_param": "pbar", 
        "param_name": "pbar_can", 
        "sectionlist": "basal", 
        "type": "range", 
        "value": 1.6822059716609194e-07
    }, 
    {
        "dist_type": "uniform", 
        "mech": "can", 
        "mech_param": "pbar", 
        "param_name": "pbar_can", 
        "sectionlist": "somatic", 
        "type": "range", 
        "value": 4e-05
    }, 
    {
        "dist_type": "uniform", 
        "mech": "car", 
        "mech_param": "pbar", 
        "param_name": "pbar_car", 
        "sectionlist": "somatic", 
        "type": "range", 
        "value": 0.000134
    }, 
    {
        "dist_type": "uniform", 
        "mech": "car", 
        "mech_param": "pbar", 
        "param_name": "pbar_car", 
        "sectionlist": "basal", 
        "type": "range", 
        "value": 0.0001
    }, 
    {
        "dist_type": "uniform", 
        "mech": "cal12", 
        "mech_param": "pbar", 
        "param_name": "pbar_cal12", 
        "sectionlist": "somatic", 
        "type": "range", 
        "value": 1.34e-05
    }, 
    {
        "dist_type": "uniform", 
        "mech": "cal12", 
        "mech_param": "pbar", 
        "param_name": "pbar_cal12", 
        "sectionlist": "basal", 
        "type": "range", 
        "value": 1e-05
    }, 
    {
        "dist_type": "uniform", 
        "mech": "cal13", 
        "mech_param": "pbar", 
        "param_name": "pbar_cal13", 
        "sectionlist": "somatic", 
        "type": "range", 
        "value": 1.34e-06
    }, 
    {
        "dist_type": "uniform", 
        "mech": "cal13", 
        "mech_param": "pbar", 
        "param_name": "pbar_cal13", 
        "sectionlist": "basal", 
        "type": "range", 
        "value": 1e-06
    }, 
    {
        "dist": "(0.000000 + 1.000000/(1+math.exp(({distance}-101.979636)/-53.577113) ))*{value}", 
        "dist_type": "exp", 
        "mech": "cav32", 
        "mech_param": "pbar", 
        "param_name": "pbar_cav32", 
        "sectionlist": "basal", 
        "type": "range", 
        "value": 1.2905297524798475e-08
    }, 
    {
        "dist": "(0.000000 + 1.000000/(1+math.exp(({distance}-99.469287)/-45.428915) ))*{value}", 
        "dist_type": "exp", 
        "mech": "cav33", 
        "mech_param": "pbar", 
        "param_name": "pbar_cav33", 
        "sectionlist": "basal", 
        "type": "range", 
        "value": 2.0599131569187685e-09
    }, 
    {
        "dist_type": "uniform", 
        "mech": "sk", 
        "mech_param": "gbar", 
        "param_name": "gbar_sk", 
        "sectionlist": "somatic", 
        "type": "range", 
        "value": 6.6033462821777676e-06
    }, 
    {
        "dist_type": "uniform", 
        "mech": "sk", 
        "mech_param": "gbar", 
        "param_name": "gbar_sk", 
        "sectionlist": "basal", 
        "type": "range", 
        "value": 6.6033462821777676e-06
    }, 
    {
        "dist_type": "uniform", 
        "mech": "bk", 
        "mech_param": "gbar", 
        "param_name": "gbar_bk", 
        "sectionlist": "somatic", 
        "type": "range", 
        "value": 0.00013
    }, 
    {
        "dist_type": "uniform", 
        "mech": "bk", 
        "mech_param": "gbar", 
        "param_name": "gbar_bk", 
        "sectionlist": "basal", 
        "type": "range", 
        "value": 0.0001
    }
]