[
    {
        "param_name": "celsius", 
        "type": "global", 
        "value": 35
    }, 
    {
        "param_name": "v_init", 
        "type": "global", 
        "value": -80
    }, 
    {
        "dist_type": "uniform", 
        "param_name": "g_pas", 
        "sectionlist": "all", 
        "type": "section", 
        "value": 1.25e-05
    }, 
    {
        "dist_type": "uniform", 
        "param_name": "e_pas", 
        "sectionlist": "all", 
        "type": "section", 
        "value": -70
    }, 
    {
        "dist_type": "uniform", 
        "param_name": "cm", 
        "sectionlist": "all", 
        "type": "section", 
        "value": 1
    }, 
    {
        "dist_type": "uniform", 
        "param_name": "Ra", 
        "sectionlist": "all", 
        "type": "section", 
        "value": 150
    }, 
    {
        "dist_type": "uniform", 
        "param_name": "ek", 
        "sectionlist": "all", 
        "type": "section", 
        "value": -85
    }, 
    {
        "dist_type": "uniform", 
        "mech": "naf", 
        "mech_param": "gbar", 
        "param_list": [
            1, 
            0, 
            0, 
            0
        ], 
        "param_name": "gbar_naf", 
        "sectionlist": "somatic", 
        "type": "range", 
        "value": 12.0
    }, 
    {
        "dist_type": "uniform", 
        "mech": "kaf", 
        "mech_param": "gbar", 
        "param_list": [
            1, 
            0, 
            0, 
            0
        ], 
        "param_name": "gbar_kaf", 
        "sectionlist": "somatic", 
        "type": "range", 
        "value": 0.15
    }, 
    {
        "dist_type": "uniform", 
        "mech": "kas", 
        "mech_param": "gbar", 
        "param_list": [
            1, 
            0, 
            0, 
            0
        ], 
        "param_name": "gbar_kas", 
        "sectionlist": "somatic", 
        "type": "range", 
        "value": 0.016
    }, 
    {
        "dist_type": "uniform", 
        "mech": "kdr", 
        "mech_param": "gbar", 
        "param_list": [
            1, 
            0, 
            0, 
            0
        ], 
        "param_name": "gbar_kdr", 
        "sectionlist": "somatic", 
        "type": "range", 
        "value": 0.00094
    }, 
    {
        "dist_type": "uniform", 
        "mech": "bk", 
        "mech_param": "gbar", 
        "param_list": [
            1, 
            0, 
            0, 
            0
        ], 
        "param_name": "gbar_bk", 
        "sectionlist": "somatic", 
        "type": "range", 
        "value": 0.00013
    }, 
    {
        "dist_type": "uniform", 
        "mech": "cal12", 
        "mech_param": "pbar", 
        "param_list": [
            1, 
            0, 
            0, 
            0
        ], 
        "param_name": "pbar_cal12", 
        "sectionlist": "somatic", 
        "type": "range", 
        "value": 1.34e-05
    }, 
    {
        "dist_type": "uniform", 
        "mech": "cal13", 
        "mech_param": "pbar", 
        "param_list": [
            1, 
            0, 
            0, 
            0
        ], 
        "param_name": "pbar_cal13", 
        "sectionlist": "somatic", 
        "type": "range", 
        "value": 1.34e-06
    }, 
    {
        "dist_type": "uniform", 
        "mech": "car", 
        "mech_param": "pbar", 
        "param_list": [
            1, 
            0, 
            0, 
            0
        ], 
        "param_name": "pbar_car", 
        "sectionlist": "somatic", 
        "type": "range", 
        "value": 0.000134
    }, 
    {
        "dist_type": "uniform", 
        "mech": "can", 
        "mech_param": "pbar", 
        "param_list": [
            1, 
            0, 
            0, 
            0
        ], 
        "param_name": "pbar_can", 
        "sectionlist": "somatic", 
        "type": "range", 
        "value": 4e-05
    }, 
    {
        "dist_type": "uniform", 
        "mech": "kir", 
        "mech_param": "gbar", 
        "param_list": [
            1, 
            0, 
            0, 
            0
        ], 
        "param_name": "gbar_kir", 
        "sectionlist": "somatic", 
        "type": "range", 
        "value": 0.0006336468480369085
    }, 
    {
        "dist_type": "uniform", 
        "mech": "sk", 
        "mech_param": "gbar", 
        "param_list": [
            1, 
            0, 
            0, 
            0
        ], 
        "param_name": "gbar_sk", 
        "sectionlist": "somatic", 
        "type": "range", 
        "value": 7.057404276616331e-06
    }, 
    {
        "dist_type": "uniform", 
        "mech": "kdr", 
        "mech_param": "gbar", 
        "param_list": [
            1, 
            0, 
            0, 
            0
        ], 
        "param_name": "gbar_kdr", 
        "sectionlist": "basal", 
        "type": "range", 
        "value": 0.0007
    }, 
    {
        "dist_type": "uniform", 
        "mech": "bk", 
        "mech_param": "gbar", 
        "param_list": [
            1, 
            0, 
            0, 
            0
        ], 
        "param_name": "gbar_bk", 
        "sectionlist": "basal", 
        "type": "range", 
        "value": 0.0001
    }, 
    {
        "dist_type": "uniform", 
        "mech": "cal12", 
        "mech_param": "pbar", 
        "param_list": [
            1, 
            0, 
            0, 
            0
        ], 
        "param_name": "pbar_cal12", 
        "sectionlist": "basal", 
        "type": "range", 
        "value": 1e-05
    }, 
    {
        "dist_type": "uniform", 
        "mech": "cal13", 
        "mech_param": "pbar", 
        "param_list": [
            1, 
            0, 
            0, 
            0
        ], 
        "param_name": "pbar_cal13", 
        "sectionlist": "basal", 
        "type": "range", 
        "value": 1e-06
    }, 
    {
        "dist_type": "uniform", 
        "mech": "car", 
        "mech_param": "pbar", 
        "param_list": [
            1, 
            0, 
            0, 
            0
        ], 
        "param_name": "pbar_car", 
        "sectionlist": "basal", 
        "type": "range", 
        "value": 0.0001
    }, 
    {
        "dist_type": "uniform", 
        "mech": "sk", 
        "mech_param": "gbar", 
        "param_list": [
            1, 
            0, 
            0, 
            0
        ], 
        "param_name": "gbar_sk", 
        "sectionlist": "basal", 
        "type": "range", 
        "value": 7.057404276616331e-06
    }, 
    {
        "dist": "(0.0640345006104 + 0.93596549939/(1+math.exp(({distance}-46.8984965834+6.1)/3.2580386943) ))*{value}", 
        "dist_type": "exp", 
        "mech": "naf", 
        "mech_param": "gbar", 
        "param_name": "gbar_naf", 
        "sectionlist": "basal", 
        "type": "range", 
        "value": 0.8236892952072769
    }, 
    {
        "dist": "(1 + 0.177362920255/(1+math.exp(({distance}-75.1234578442+6.1)/-29.817043262) ))*{value}", 
        "dist_type": "exp", 
        "mech": "kaf", 
        "mech_param": "gbar", 
        "param_name": "gbar_kaf", 
        "sectionlist": "basal", 
        "type": "range", 
        "value": 0.11119701128346089
    }, 
    {
        "dist": "(0.1 + 0.9/(1+math.exp(({distance}-48.0367668647+6.1)/61.3285814603) ))*{value}", 
        "dist_type": "exp", 
        "mech": "kas", 
        "mech_param": "gbar", 
        "param_name": "gbar_kas", 
        "sectionlist": "basal", 
        "type": "range", 
        "value": 0.014772298237890478
    }, 
    {
        "dist_type": "uniform", 
        "mech": "kir", 
        "mech_param": "gbar", 
        "param_list": [
            1, 
            0, 
            0, 
            0
        ], 
        "param_name": "gbar_kir", 
        "sectionlist": "basal", 
        "type": "range", 
        "value": 0.0006336468480369085
    }, 
    {
        "dist": "(0.0984548088423 + 0.901545191158/(1+math.exp(({distance}-57.9895053897+6.1)/1.09426019766) ))*{value}", 
        "dist_type": "exp", 
        "mech": "can", 
        "mech_param": "pbar", 
        "param_name": "pbar_can", 
        "sectionlist": "basal", 
        "type": "range", 
        "value": 1.5929160291872456e-06
    }, 
    {
        "dist": "(0 + 1/(1+math.exp(({distance}-18.4070724492+6.1)/-16.046740792) ))*{value}", 
        "dist_type": "exp", 
        "mech": "cav32", 
        "mech_param": "pbar", 
        "param_name": "pbar_cav32", 
        "sectionlist": "basal", 
        "type": "range", 
        "value": 1.7361701563023702e-09
    }, 
    {
        "dist": "(0 + 1/(1+math.exp(({distance}-115.307908152+6.1)/-58.3113853039) ))*{value}", 
        "dist_type": "exp", 
        "mech": "cav33", 
        "mech_param": "pbar", 
        "param_name": "pbar_cav33", 
        "sectionlist": "basal", 
        "type": "range", 
        "value": 1.5983591070366331e-09
    }, 
    {
        "dist_type": "uniform", 
        "mech": "kas", 
        "mech_param": "gbar", 
        "param_list": [
            1, 
            0, 
            0, 
            0
        ], 
        "param_name": "gbar_kas", 
        "sectionlist": "axonal", 
        "type": "range", 
        "value": 0.007
    }, 
    {
        "dist": "(1 + 0.1/(1+math.exp(({distance}-30+6.1)/1) ))*{value}", 
        "dist_type": "exp", 
        "mech": "naf", 
        "mech_param": "gbar", 
        "param_name": "gbar_naf", 
        "sectionlist": "axonal", 
        "type": "range", 
        "value": 9.0
    }
]