[
    {
        "param_name": "celsius", 
        "type": "global", 
        "value": 35
    }, 
    {
        "param_name": "v_init", 
        "type": "global", 
        "value": -80
    }, 
    {
        "dist_type": "uniform", 
        "param_name": "g_pas", 
        "sectionlist": "all", 
        "type": "section", 
        "value": 1.25e-05
    }, 
    {
        "dist_type": "uniform", 
        "param_name": "e_pas", 
        "sectionlist": "all", 
        "type": "section", 
        "value": -70
    }, 
    {
        "dist_type": "uniform", 
        "param_name": "cm", 
        "sectionlist": "all", 
        "type": "section", 
        "value": 1
    }, 
    {
        "dist_type": "uniform", 
        "param_name": "Ra", 
        "sectionlist": "all", 
        "type": "section", 
        "value": 150
    }, 
    {
        "dist_type": "uniform", 
        "param_name": "ek", 
        "sectionlist": "all", 
        "type": "section", 
        "value": -85
    }, 
    {
        "dist_type": "uniform", 
        "mech": "naf", 
        "mech_param": "gbar", 
        "param_list": [
            1, 
            0, 
            0, 
            0
        ], 
        "param_name": "gbar_naf", 
        "sectionlist": "somatic", 
        "type": "range", 
        "value": 12.0
    }, 
    {
        "dist_type": "uniform", 
        "mech": "kaf", 
        "mech_param": "gbar", 
        "param_list": [
            1, 
            0, 
            0, 
            0
        ], 
        "param_name": "gbar_kaf", 
        "sectionlist": "somatic", 
        "type": "range", 
        "value": 0.15
    }, 
    {
        "dist_type": "uniform", 
        "mech": "kas", 
        "mech_param": "gbar", 
        "param_list": [
            1, 
            0, 
            0, 
            0
        ], 
        "param_name": "gbar_kas", 
        "sectionlist": "somatic", 
        "type": "range", 
        "value": 0.016
    }, 
    {
        "dist_type": "uniform", 
        "mech": "kdr", 
        "mech_param": "gbar", 
        "param_list": [
            1, 
            0, 
            0, 
            0
        ], 
        "param_name": "gbar_kdr", 
        "sectionlist": "somatic", 
        "type": "range", 
        "value": 0.00094
    }, 
    {
        "dist_type": "uniform", 
        "mech": "bk", 
        "mech_param": "gbar", 
        "param_list": [
            1, 
            0, 
            0, 
            0
        ], 
        "param_name": "gbar_bk", 
        "sectionlist": "somatic", 
        "type": "range", 
        "value": 0.00013
    }, 
    {
        "dist_type": "uniform", 
        "mech": "cal12", 
        "mech_param": "pbar", 
        "param_list": [
            1, 
            0, 
            0, 
            0
        ], 
        "param_name": "pbar_cal12", 
        "sectionlist": "somatic", 
        "type": "range", 
        "value": 1.34e-05
    }, 
    {
        "dist_type": "uniform", 
        "mech": "cal13", 
        "mech_param": "pbar", 
        "param_list": [
            1, 
            0, 
            0, 
            0
        ], 
        "param_name": "pbar_cal13", 
        "sectionlist": "somatic", 
        "type": "range", 
        "value": 1.34e-06
    }, 
    {
        "dist_type": "uniform", 
        "mech": "car", 
        "mech_param": "pbar", 
        "param_list": [
            1, 
            0, 
            0, 
            0
        ], 
        "param_name": "pbar_car", 
        "sectionlist": "somatic", 
        "type": "range", 
        "value": 0.000134
    }, 
    {
        "dist_type": "uniform", 
        "mech": "can", 
        "mech_param": "pbar", 
        "param_list": [
            1, 
            0, 
            0, 
            0
        ], 
        "param_name": "pbar_can", 
        "sectionlist": "somatic", 
        "type": "range", 
        "value": 4e-05
    }, 
    {
        "dist_type": "uniform", 
        "mech": "kir", 
        "mech_param": "gbar", 
        "param_list": [
            1, 
            0, 
            0, 
            0
        ], 
        "param_name": "gbar_kir", 
        "sectionlist": "somatic", 
        "type": "range", 
        "value": 0.0006872693512291491
    }, 
    {
        "dist_type": "uniform", 
        "mech": "sk", 
        "mech_param": "gbar", 
        "param_list": [
            1, 
            0, 
            0, 
            0
        ], 
        "param_name": "gbar_sk", 
        "sectionlist": "somatic", 
        "type": "range", 
        "value": 8.308938928723146e-06
    }, 
    {
        "dist_type": "uniform", 
        "mech": "kdr", 
        "mech_param": "gbar", 
        "param_list": [
            1, 
            0, 
            0, 
            0
        ], 
        "param_name": "gbar_kdr", 
        "sectionlist": "basal", 
        "type": "range", 
        "value": 0.0007
    }, 
    {
        "dist_type": "uniform", 
        "mech": "bk", 
        "mech_param": "gbar", 
        "param_list": [
            1, 
            0, 
            0, 
            0
        ], 
        "param_name": "gbar_bk", 
        "sectionlist": "basal", 
        "type": "range", 
        "value": 0.0001
    }, 
    {
        "dist_type": "uniform", 
        "mech": "cal12", 
        "mech_param": "pbar", 
        "param_list": [
            1, 
            0, 
            0, 
            0
        ], 
        "param_name": "pbar_cal12", 
        "sectionlist": "basal", 
        "type": "range", 
        "value": 1e-05
    }, 
    {
        "dist_type": "uniform", 
        "mech": "cal13", 
        "mech_param": "pbar", 
        "param_list": [
            1, 
            0, 
            0, 
            0
        ], 
        "param_name": "pbar_cal13", 
        "sectionlist": "basal", 
        "type": "range", 
        "value": 1e-06
    }, 
    {
        "dist_type": "uniform", 
        "mech": "car", 
        "mech_param": "pbar", 
        "param_list": [
            1, 
            0, 
            0, 
            0
        ], 
        "param_name": "pbar_car", 
        "sectionlist": "basal", 
        "type": "range", 
        "value": 0.0001
    }, 
    {
        "dist_type": "uniform", 
        "mech": "sk", 
        "mech_param": "gbar", 
        "param_list": [
            1, 
            0, 
            0, 
            0
        ], 
        "param_name": "gbar_sk", 
        "sectionlist": "basal", 
        "type": "range", 
        "value": 8.308938928723146e-06
    }, 
    {
        "dist": "(0.137013770092 + 0.862986229908/(1+math.exp(({distance}-24.7734357911+6.1)/19.0469792718) ))*{value}", 
        "dist_type": "exp", 
        "mech": "naf", 
        "mech_param": "gbar", 
        "param_name": "gbar_naf", 
        "sectionlist": "basal", 
        "type": "range", 
        "value": 0.4083858332240253
    }, 
    {
        "dist": "(1 + 0.836448234907/(1+math.exp(({distance}-32.2843297169+6.1)/-67.2285634765) ))*{value}", 
        "dist_type": "exp", 
        "mech": "kaf", 
        "mech_param": "gbar", 
        "param_name": "gbar_kaf", 
        "sectionlist": "basal", 
        "type": "range", 
        "value": 0.09723345012328673
    }, 
    {
        "dist": "(0.1 + 0.9/(1+math.exp(({distance}-4.39956403761+6.1)/13.5699528898) ))*{value}", 
        "dist_type": "exp", 
        "mech": "kas", 
        "mech_param": "gbar", 
        "param_name": "gbar_kas", 
        "sectionlist": "basal", 
        "type": "range", 
        "value": 0.018735129833660366
    }, 
    {
        "dist_type": "uniform", 
        "mech": "kir", 
        "mech_param": "gbar", 
        "param_list": [
            1, 
            0, 
            0, 
            0
        ], 
        "param_name": "gbar_kir", 
        "sectionlist": "basal", 
        "type": "range", 
        "value": 0.0006872693512291491
    }, 
    {
        "dist": "(0.0748106120777 + 0.925189387922/(1+math.exp(({distance}-22.6205351984+6.1)/10.222778828) ))*{value}", 
        "dist_type": "exp", 
        "mech": "can", 
        "mech_param": "pbar", 
        "param_name": "pbar_can", 
        "sectionlist": "basal", 
        "type": "range", 
        "value": 1.105255329525232e-07
    }, 
    {
        "dist": "(0 + 1/(1+math.exp(({distance}-4.94740904315+6.1)/-45.2464098996) ))*{value}", 
        "dist_type": "exp", 
        "mech": "cav32", 
        "mech_param": "pbar", 
        "param_name": "pbar_cav32", 
        "sectionlist": "basal", 
        "type": "range", 
        "value": 1.1707622003375645e-08
    }, 
    {
        "dist": "(0 + 1/(1+math.exp(({distance}-49.0102259125+6.1)/-66.6398930239) ))*{value}", 
        "dist_type": "exp", 
        "mech": "cav33", 
        "mech_param": "pbar", 
        "param_name": "pbar_cav33", 
        "sectionlist": "basal", 
        "type": "range", 
        "value": 1.1054367953192176e-09
    }, 
    {
        "dist_type": "uniform", 
        "mech": "kas", 
        "mech_param": "gbar", 
        "param_list": [
            1, 
            0, 
            0, 
            0
        ], 
        "param_name": "gbar_kas", 
        "sectionlist": "axonal", 
        "type": "range", 
        "value": 0.007
    }, 
    {
        "dist": "(1 + 0.1/(1+math.exp(({distance}-30+6.1)/1) ))*{value}", 
        "dist_type": "exp", 
        "mech": "naf", 
        "mech_param": "gbar", 
        "param_name": "gbar_naf", 
        "sectionlist": "axonal", 
        "type": "range", 
        "value": 9.0
    }
]