[
    {
        "param_name": "celsius", 
        "type": "global", 
        "value": 35
    }, 
    {
        "param_name": "v_init", 
        "type": "global", 
        "value": -80
    }, 
    {
        "dist_type": "uniform", 
        "param_name": "g_pas", 
        "sectionlist": "all", 
        "type": "section", 
        "value": 1.25e-05
    }, 
    {
        "dist_type": "uniform", 
        "param_name": "e_pas", 
        "sectionlist": "all", 
        "type": "section", 
        "value": -70
    }, 
    {
        "dist_type": "uniform", 
        "param_name": "cm", 
        "sectionlist": "all", 
        "type": "section", 
        "value": 1
    }, 
    {
        "dist_type": "uniform", 
        "param_name": "Ra", 
        "sectionlist": "all", 
        "type": "section", 
        "value": 150
    }, 
    {
        "dist_type": "uniform", 
        "param_name": "ek", 
        "sectionlist": "all", 
        "type": "section", 
        "value": -85
    }, 
    {
        "dist_type": "uniform", 
        "mech": "naf", 
        "mech_param": "gbar", 
        "param_list": [
            1, 
            0, 
            0, 
            0
        ], 
        "param_name": "gbar_naf", 
        "sectionlist": "somatic", 
        "type": "range", 
        "value": 12.0
    }, 
    {
        "dist_type": "uniform", 
        "mech": "kaf", 
        "mech_param": "gbar", 
        "param_list": [
            1, 
            0, 
            0, 
            0
        ], 
        "param_name": "gbar_kaf", 
        "sectionlist": "somatic", 
        "type": "range", 
        "value": 0.15
    }, 
    {
        "dist_type": "uniform", 
        "mech": "kas", 
        "mech_param": "gbar", 
        "param_list": [
            1, 
            0, 
            0, 
            0
        ], 
        "param_name": "gbar_kas", 
        "sectionlist": "somatic", 
        "type": "range", 
        "value": 0.016
    }, 
    {
        "dist_type": "uniform", 
        "mech": "kdr", 
        "mech_param": "gbar", 
        "param_list": [
            1, 
            0, 
            0, 
            0
        ], 
        "param_name": "gbar_kdr", 
        "sectionlist": "somatic", 
        "type": "range", 
        "value": 0.00094
    }, 
    {
        "dist_type": "uniform", 
        "mech": "bk", 
        "mech_param": "gbar", 
        "param_list": [
            1, 
            0, 
            0, 
            0
        ], 
        "param_name": "gbar_bk", 
        "sectionlist": "somatic", 
        "type": "range", 
        "value": 0.00013
    }, 
    {
        "dist_type": "uniform", 
        "mech": "cal12", 
        "mech_param": "pbar", 
        "param_list": [
            1, 
            0, 
            0, 
            0
        ], 
        "param_name": "pbar_cal12", 
        "sectionlist": "somatic", 
        "type": "range", 
        "value": 1.34e-05
    }, 
    {
        "dist_type": "uniform", 
        "mech": "cal13", 
        "mech_param": "pbar", 
        "param_list": [
            1, 
            0, 
            0, 
            0
        ], 
        "param_name": "pbar_cal13", 
        "sectionlist": "somatic", 
        "type": "range", 
        "value": 1.34e-06
    }, 
    {
        "dist_type": "uniform", 
        "mech": "car", 
        "mech_param": "pbar", 
        "param_list": [
            1, 
            0, 
            0, 
            0
        ], 
        "param_name": "pbar_car", 
        "sectionlist": "somatic", 
        "type": "range", 
        "value": 0.000134
    }, 
    {
        "dist_type": "uniform", 
        "mech": "can", 
        "mech_param": "pbar", 
        "param_list": [
            1, 
            0, 
            0, 
            0
        ], 
        "param_name": "pbar_can", 
        "sectionlist": "somatic", 
        "type": "range", 
        "value": 4e-05
    }, 
    {
        "dist_type": "uniform", 
        "mech": "kir", 
        "mech_param": "gbar", 
        "param_list": [
            1, 
            0, 
            0, 
            0
        ], 
        "param_name": "gbar_kir", 
        "sectionlist": "somatic", 
        "type": "range", 
        "value": 0.0009114537435428399
    }, 
    {
        "dist_type": "uniform", 
        "mech": "sk", 
        "mech_param": "gbar", 
        "param_list": [
            1, 
            0, 
            0, 
            0
        ], 
        "param_name": "gbar_sk", 
        "sectionlist": "somatic", 
        "type": "range", 
        "value": 1.5849460860323055e-05
    }, 
    {
        "dist_type": "uniform", 
        "mech": "kdr", 
        "mech_param": "gbar", 
        "param_list": [
            1, 
            0, 
            0, 
            0
        ], 
        "param_name": "gbar_kdr", 
        "sectionlist": "basal", 
        "type": "range", 
        "value": 0.0007
    }, 
    {
        "dist_type": "uniform", 
        "mech": "bk", 
        "mech_param": "gbar", 
        "param_list": [
            1, 
            0, 
            0, 
            0
        ], 
        "param_name": "gbar_bk", 
        "sectionlist": "basal", 
        "type": "range", 
        "value": 0.0001
    }, 
    {
        "dist_type": "uniform", 
        "mech": "cal12", 
        "mech_param": "pbar", 
        "param_list": [
            1, 
            0, 
            0, 
            0
        ], 
        "param_name": "pbar_cal12", 
        "sectionlist": "basal", 
        "type": "range", 
        "value": 1e-05
    }, 
    {
        "dist_type": "uniform", 
        "mech": "cal13", 
        "mech_param": "pbar", 
        "param_list": [
            1, 
            0, 
            0, 
            0
        ], 
        "param_name": "pbar_cal13", 
        "sectionlist": "basal", 
        "type": "range", 
        "value": 1e-06
    }, 
    {
        "dist_type": "uniform", 
        "mech": "car", 
        "mech_param": "pbar", 
        "param_list": [
            1, 
            0, 
            0, 
            0
        ], 
        "param_name": "pbar_car", 
        "sectionlist": "basal", 
        "type": "range", 
        "value": 0.0001
    }, 
    {
        "dist_type": "uniform", 
        "mech": "sk", 
        "mech_param": "gbar", 
        "param_list": [
            1, 
            0, 
            0, 
            0
        ], 
        "param_name": "gbar_sk", 
        "sectionlist": "basal", 
        "type": "range", 
        "value": 1.5849460860323055e-05
    }, 
    {
        "dist": "(0.0339121616768 + 0.966087838323/(1+math.exp(({distance}-48.8140572844+6.1)/1.26520494709) ))*{value}", 
        "dist_type": "exp", 
        "mech": "naf", 
        "mech_param": "gbar", 
        "param_name": "gbar_naf", 
        "sectionlist": "basal", 
        "type": "range", 
        "value": 0.9172247960068933
    }, 
    {
        "dist": "(1 + 0.546199847665/(1+math.exp(({distance}-76.9114353487+6.1)/-24.7804483294) ))*{value}", 
        "dist_type": "exp", 
        "mech": "kaf", 
        "mech_param": "gbar", 
        "param_name": "gbar_kaf", 
        "sectionlist": "basal", 
        "type": "range", 
        "value": 0.11144358608670543
    }, 
    {
        "dist": "(0.1 + 0.9/(1+math.exp(({distance}-57.6198543053+6.1)/65.1472380285) ))*{value}", 
        "dist_type": "exp", 
        "mech": "kas", 
        "mech_param": "gbar", 
        "param_name": "gbar_kas", 
        "sectionlist": "basal", 
        "type": "range", 
        "value": 0.003921771788359396
    }, 
    {
        "dist_type": "uniform", 
        "mech": "kir", 
        "mech_param": "gbar", 
        "param_list": [
            1, 
            0, 
            0, 
            0
        ], 
        "param_name": "gbar_kir", 
        "sectionlist": "basal", 
        "type": "range", 
        "value": 0.0009114537435428399
    }, 
    {
        "dist": "(0.0287939825946 + 0.971206017405/(1+math.exp(({distance}-46.0051266776+6.1)/19.9963841927) ))*{value}", 
        "dist_type": "exp", 
        "mech": "can", 
        "mech_param": "pbar", 
        "param_name": "pbar_can", 
        "sectionlist": "basal", 
        "type": "range", 
        "value": 9.37068617640343e-06
    }, 
    {
        "dist": "(0 + 1/(1+math.exp(({distance}-87.2910167987+6.1)/-39.1051450982) ))*{value}", 
        "dist_type": "exp", 
        "mech": "cav32", 
        "mech_param": "pbar", 
        "param_name": "pbar_cav32", 
        "sectionlist": "basal", 
        "type": "range", 
        "value": 1.2778217428400673e-07
    }, 
    {
        "dist": "(0 + 1/(1+math.exp(({distance}-44.4814358132+6.1)/-24.5368828746) ))*{value}", 
        "dist_type": "exp", 
        "mech": "cav33", 
        "mech_param": "pbar", 
        "param_name": "pbar_cav33", 
        "sectionlist": "basal", 
        "type": "range", 
        "value": 7.78164415751102e-09
    }, 
    {
        "dist_type": "uniform", 
        "mech": "kas", 
        "mech_param": "gbar", 
        "param_list": [
            1, 
            0, 
            0, 
            0
        ], 
        "param_name": "gbar_kas", 
        "sectionlist": "axonal", 
        "type": "range", 
        "value": 0.007
    }, 
    {
        "dist": "(1 + 0.1/(1+math.exp(({distance}-30+6.1)/1) ))*{value}", 
        "dist_type": "exp", 
        "mech": "naf", 
        "mech_param": "gbar", 
        "param_name": "gbar_naf", 
        "sectionlist": "axonal", 
        "type": "range", 
        "value": 9.0
    }
]