{
    "ad_idhigh": 0.0030514551129686104, 
    "ad_idlow": 0.03293864053081699, 
    "ad_idmid": -0.0050479066782595575, 
    "ahp_depth": 31.282257237726203, 
    "ahp_depth_abs": -52.769238428940355, 
    "ahp_depth_abs_slow": -51.85232514440904, 
    "ahp_min_voltage": -52.78665035284966, 
    "ahp_slow_time": 0.3169594677516106, 
    "ahp_time_from_peak": 2.29862258952997, 
    "ap_amplitude": 68.81771503087121, 
    "ap_avg_thresh": -44.423311160381, 
    "ap_delay_idhigh": 28.100000000096998, 
    "ap_delay_idlow": 584.9999999999268, 
    "ap_delay_idmid": 139.70000000012237, 
    "ap_fall_rate": -28.729808339827585, 
    "ap_half_width": 1.1471795011238024, 
    "ap_peak": 24.384031535736696, 
    "ap_rise_rate": 49.07923960486154, 
    "ap_threshold": -45.34379999445466, 
    "fi_1st_fitbaserate": 6.380546887454251, 
    "fi_1st_fitslope": 0.13459291193263245, 
    "fi_1st_minstim": 335.34898619931, 
    "fi_1st_rate_idhigh": 30.120481927703995, 
    "fi_1st_rate_idlow": 5.321979776481689, 
    "fi_1st_rate_idmid": 11.198208286671585, 
    "fi_avg_fitbaserate": 7.5018299736019785, 
    "fi_avg_fitslope": 0.12697109994460423, 
    "fi_avg_minstim": 335.34898619931, 
    "fi_avg_rate_idhigh": 28.676359611630872, 
    "fi_avg_rate_idlow": 3.6584091146674442, 
    "fi_avg_rate_idmid": 13.321036991504014, 
    "fi_rheobase": 335.34898619931, 
    "ir_depol": 140.76008755369898, 
    "ir_fitmax": 169.37323131269096, 
    "ir_fitmin": 32.924381050258766, 
    "ir_fitrest": 54.5306635622097, 
    "ir_hyperpol": 24.506788147318893, 
    "ir_rest": 49.52829776856564, 
    "tau_delta": 4.299423415002319, 
    "tau_depol": 15.176039112175078, 
    "tau_hyperpol": 2.0036179898398614, 
    "tau_rest": 6.712923501363768, 
    "vm_rest": -83.14442294343202
}