[
    {
        "Ra.all": 289.2845302870935, 
        "e_pas.all": -65.44050993089836, 
        "g_pas.all": 7.919196822411337e-05, 
        "gbar_bk.somatic": 0.00017200498690494743, 
        "gbar_kaf.basal": 0.018782438780665163, 
        "gbar_kaf.somatic": 1.4189572262095145, 
        "gbar_kas.basal": 2.30038158779528e-06, 
        "gbar_kas.somatic": 0.0224798187639293, 
        "gbar_kir.basal": 0.00030854151310435193, 
        "gbar_kir.somatic": 0.000438220812161039, 
        "gbar_naf.basal": 0.2412834671023702, 
        "gbar_naf.somatic": 24.374875600607485, 
        "gbar_sk.somatic": 0.024257490255229427
    }, 
    {
        "Ra.all": 297.8744865511247, 
        "e_pas.all": -61.643272041423174, 
        "g_pas.all": 9.10402405817613e-05, 
        "gbar_bk.somatic": 0.024352371756589202, 
        "gbar_kaf.basal": 0.013300610296769641, 
        "gbar_kaf.somatic": 1.7622738843798558, 
        "gbar_kas.basal": 2.6260846381124315e-06, 
        "gbar_kas.somatic": 0.008468779541769885, 
        "gbar_kir.basal": 0.00032550853298905726, 
        "gbar_kir.somatic": 0.00023898551660949465, 
        "gbar_naf.basal": 0.13386161800291155, 
        "gbar_naf.somatic": 23.409904928971027, 
        "gbar_sk.somatic": 0.09608878313360703
    }, 
    {
        "Ra.all": 297.43367928670403, 
        "e_pas.all": -62.93828321773226, 
        "g_pas.all": 4.5288619476199074e-05, 
        "gbar_bk.somatic": 0.01073077941533716, 
        "gbar_kaf.basal": 0.036098184664223876, 
        "gbar_kaf.somatic": 1.8177570752205354, 
        "gbar_kas.basal": 0.00011867218219236298, 
        "gbar_kas.somatic": 0.019541208746012964, 
        "gbar_kir.basal": 0.0002060086231200523, 
        "gbar_kir.somatic": 0.0005427653072112616, 
        "gbar_naf.basal": 0.20913651717094295, 
        "gbar_naf.somatic": 22.857760231564853, 
        "gbar_sk.somatic": 0.056382699194084715
    }, 
    {
        "Ra.all": 297.1763747058335, 
        "e_pas.all": -60.31326288689095, 
        "g_pas.all": 7.385213347594586e-05, 
        "gbar_bk.somatic": 0.022857001309942386, 
        "gbar_kaf.basal": 0.012466922467059452, 
        "gbar_kaf.somatic": 1.9012059481055719, 
        "gbar_kas.basal": 0.0004647602699258638, 
        "gbar_kas.somatic": 0.02544375615019835, 
        "gbar_kir.basal": 0.00025365850095010695, 
        "gbar_kir.somatic": 0.0007011781778979997, 
        "gbar_naf.basal": 0.19199380806094207, 
        "gbar_naf.somatic": 25.21621329548408, 
        "gbar_sk.somatic": 0.03202073100616121
    }, 
    {
        "Ra.all": 268.14969609598666, 
        "e_pas.all": -68.64804470881928, 
        "g_pas.all": 8.986856871109937e-05, 
        "gbar_bk.somatic": 0.007669979978516118, 
        "gbar_kaf.basal": 0.006426602541739341, 
        "gbar_kaf.somatic": 1.5745390464333398, 
        "gbar_kas.basal": 6.838275406597706e-06, 
        "gbar_kas.somatic": 0.029371190860238962, 
        "gbar_kir.basal": 0.0002485641946420341, 
        "gbar_kir.somatic": 0.0003670755673792008, 
        "gbar_naf.basal": 0.16801492475267765, 
        "gbar_naf.somatic": 22.58787376319829, 
        "gbar_sk.somatic": 0.28439654862684605
    }
]