TITLE Mod file for component: Component(id=D1_Neuron_Model_0 type=D1_Neuron_Model)

COMMENT

    This NEURON file has been generated by org.neuroml.export (see https://github.com/NeuroML/org.neuroml.export)
         org.neuroml.export  v1.4.2
         org.neuroml.model   v1.4.2
         jLEMS               v0.9.7.3

ENDCOMMENT

NEURON {
    POINT_PROCESS D1_Neuron_Model_0
    RANGE krM4R_Gi: parameter
    RANGE kfM4R_Gi: parameter
    RANGE krPP2B_CaMCa2: parameter
    RANGE kfPP2B_CaMCa2: parameter
    RANGE krPP2BCaMCa2_2Ca: parameter
    RANGE kfPP2BCaMCa2_2Ca: parameter
    RANGE krPP2BCaM_2Ca: parameter
    RANGE kfPP2BCaM_2Ca: parameter
    RANGE kfPP1_D32p34: parameter
    RANGE krPP1_D32p34: parameter
    RANGE kfPP2B_CaMCa4: parameter
    RANGE krPP2B_CaMCa4: parameter
    RANGE kfB72PP2A_Ca: parameter
    RANGE krB72PP2A_Ca: parameter
    RANGE kfPP2B_CaM: parameter
    RANGE krPP2B_CaM: parameter
    RANGE kcatPKAc_D32: parameter
    RANGE kGaolfGTPase: parameter
    RANGE kfPP2Bc_D32p34: parameter
    RANGE krPP2Bc_D32p34: parameter
    RANGE kfB56PP2A_D32p75: parameter
    RANGE krB56PP2A_D32p75: parameter
    RANGE kfB56PP2Ap_D32p75: parameter
    RANGE krB56PP2Ap_D32p75: parameter
    RANGE kcatB56PP2Ap_D32p75: parameter
    RANGE kcatB56PP2A_D32p75: parameter
    RANGE kcatB72PP2ACa_D32p75: parameter
    RANGE kcatB72PP2A_D32p75: parameter
    RANGE kfB72PP2A_D32p75: parameter
    RANGE krB72PP2A_D32p75: parameter
    RANGE kfB72PP2ACa_D32p75: parameter
    RANGE krB72PP2ACa_D32p75: parameter
    RANGE kcatPP2Bc_D32p34: parameter
    RANGE kcatCDK5_D32: parameter
    RANGE kactGi: parameter
    RANGE kGiGTPase: parameter
    RANGE kGiback: parameter
    RANGE kfM4RACh_Gi: parameter
    RANGE krM4RACh_Gi: parameter
    RANGE kfPKA_2cAMP: parameter
    RANGE krPKA_2cAMP: parameter
    RANGE krPKAc_PKAr: parameter
    RANGE kfPKAc_PKAr: parameter
    RANGE kfPKA2cAMP_2cAMP: parameter
    RANGE krPKA2cAMP_2cAMP: parameter
    RANGE kfCDK5_D32: parameter
    RANGE krCDK5_D32: parameter
    RANGE kactGolf: parameter
    RANGE kcatPDE4_cAMP: parameter
    RANGE kfPKAc_D32: parameter
    RANGE krPKAc_D32: parameter
    RANGE kfPDE4_cAMP: parameter
    RANGE krPDE4_cAMP: parameter
    RANGE krPDE10_cAMP: parameter
    RANGE kcatPDE10c_cAMP: parameter
    RANGE kfPDE10_cAMP: parameter
    RANGE kfcAMP_PDE10: parameter
    RANGE krcAMP_PDE10: parameter
    RANGE kcatcAMP_PDE10: parameter
    RANGE kcatAC5GaolfGTP_ATP: parameter
    RANGE kicatAC5GaolfGTP_ATP: parameter
    RANGE kcatAC5_ATP: parameter
    RANGE kicatAC5_ATP: parameter
    RANGE kcatAC5GaiGTP_ATP: parameter
    RANGE kicatAC5GaiGTP_ATP: parameter
    RANGE kcatAC5CaGaiGTP_ATP: parameter
    RANGE kicatAC5CaGaiGTP_ATP: parameter
    RANGE kcatAC5Ca_ATP: parameter
    RANGE kicatAC5Ca_ATP: parameter
    RANGE kcatAC5CaGaolfGTP_ATP: parameter
    RANGE kicatAC5CaGaolfGTP_ATP: parameter
    RANGE kfM4R_ACh: parameter
    RANGE kfM4RGi_ACh: parameter
    RANGE krM4RGi_ACh: parameter
    RANGE krM4R_ACh: parameter
    RANGE kcatAC5GaolfGTPGaiGTP_ATP: parameter
    RANGE kicatAC5GaolfGTPGaiGTP_ATP: parameter
    RANGE kicatAC5CaGaolfGTPGaiGTP_ATP: parameter
    RANGE kcatAC5CaGaolfGTPGaiGTP_ATP: parameter
    RANGE kfAC5_ATP: parameter
    RANGE kfAC5CaGaolfGTP_ATP: parameter
    RANGE kfAC5CaGaiGTP_ATP: parameter
    RANGE kfAC5CaGaolfGTPGaiGTP_ATP: parameter
    RANGE kfCaM_2Ca: parameter
    RANGE kGolfback: parameter
    RANGE krCaM_2Ca: parameter
    RANGE kdpB56PP2Ap: parameter
    RANGE krCaMCa2_2Ca: parameter
    RANGE krPKAc_D32p75: parameter
    RANGE kfPKAc_B56PP2A: parameter
    RANGE krPKAc_B56PP2A: parameter
    RANGE kfCaMCa2_2Ca: parameter
    RANGE kcatPKAc_B56PP2A: parameter
    RANGE kfPKAc_D32p75: parameter
    RANGE kfAC5GaolfGTP_ATP: parameter
    RANGE kfAC5GaiGTP_ATP: parameter
    RANGE kfAC5GaolfGTPGaiGTP_ATP: parameter
    RANGE kfAC5Ca_ATP: parameter
    RANGE kfD1R_Golf: parameter
    RANGE krD1R_Golf: parameter
    RANGE kfD1RDA_Golf: parameter
    RANGE krD1RDA_Golf: parameter
    RANGE kfB72PP2A_D32p34: parameter
    RANGE krB72PP2A_D32p34: parameter
    RANGE krAC5X_ATP: parameter
    RANGE kcatB72PP2A_D32p34: parameter
    RANGE kfAC5XGaolfGTP: parameter
    RANGE kfAC5Ca: parameter
    RANGE kfAC5XGaiGTP: parameter
    RANGE kfAC5XNCGaiGTP: parameter
    RANGE kfAC5XNCGaolfGTP: parameter
    RANGE krAC5XGaolfGTP: parameter
    RANGE krAC5Ca: parameter
    RANGE krAC5XGaiGTP: parameter
    RANGE krAC5XNCGaiGTP: parameter
    RANGE krAC5XNCGaolfGTP: parameter
    RANGE krgso: parameter
    RANGE krgsi: parameter
    RANGE kcatPP1_AKAR3p: parameter
    RANGE kfPP1_AKAR3p: parameter
    RANGE krPP1_AKAR3p: parameter
    RANGE kcatPKAc_AKAR3: parameter
    RANGE kfPKAc_AKAR3: parameter
    RANGE krPKAc_AKAR3: parameter
    RANGE kfPDE10c_cAMP: parameter
    RANGE krPDE10c_cAMP: parameter
    RANGE kfD1R_DA: parameter
    RANGE kfD1RGolf_DA: parameter
    RANGE krD1R_DA: parameter
    RANGE krD1RGolf_DA: parameter
    RANGE tscale                            : parameter
    RANGE Spine: parameter
    RANGE init_GaiGTP: parameter
    RANGE init_GaolfGDP: parameter
    RANGE init_Gbgolf: parameter
    RANGE init_GaolfGTP: parameter
    RANGE init_D1RDAGolf: parameter
    RANGE init_Golf: parameter
    RANGE init_D1RGolf: parameter
    RANGE init_D1RDA: parameter
    RANGE init_D1R: parameter
    RANGE init_cAMP: parameter
    RANGE init_Ca: parameter
    RANGE init_AC5: parameter
    RANGE init_AC5GaolfGTP: parameter
    RANGE init_CaM: parameter
    RANGE init_CaMCa2: parameter
    RANGE init_CaMCa4: parameter
    RANGE init_PDE4: parameter
    RANGE init_PKA: parameter
    RANGE init_PKAcAMP2: parameter
    RANGE init_PKAcAMP4: parameter
    RANGE init_PKAreg: parameter
    RANGE init_PKAc: parameter
    RANGE init_PP2B: parameter
    RANGE init_PP2Bc: parameter
    RANGE init_PP2BCaM: parameter
    RANGE init_PP2BCaMCa2: parameter
    RANGE init_DARPP32: parameter
    RANGE init_PKAc_D32: parameter
    RANGE init_D32p34: parameter
    RANGE init_B72PP2A: parameter
    RANGE init_PKAc_B56PP2A: parameter
    RANGE init_B56PP2Ap: parameter
    RANGE init_CDK5: parameter
    RANGE init_PP1: parameter
    RANGE init_CDK5_D32: parameter
    RANGE init_D32p75: parameter
    RANGE init_PKAcD32p75: parameter
    RANGE init_B72PPA2Ca: parameter
    RANGE init_B56PP2Ap_D32p75: parameter
    RANGE init_B72PP2A_D32p75: parameter
    RANGE init_B72PP2ACa_D32p75: parameter
    RANGE init_PP1D32p34: parameter
    RANGE init_PP2Bc_D32p34: parameter
    RANGE init_B72PP2A_D32p34: parameter
    RANGE init_DA: parameter
    RANGE init_AMP: parameter
    RANGE init_AC5Ca: parameter
    RANGE init_AC5CaGaolfGTP: parameter
    RANGE init_AC5GaiGTP: parameter
    RANGE init_AC5CaGaiGTP: parameter
    RANGE init_B56PP2A: parameter
    RANGE init_B56PP2A_D32p75: parameter
    RANGE init_B72PP2ACa_D32p34: parameter
    RANGE init_PDE4_cAMP: parameter
    RANGE init_AC5GaolfGTPGaiGTP: parameter
    RANGE init_AC5CaGaolfGTPGaiGTP: parameter
    RANGE init_M4R: parameter
    RANGE init_M4RACh: parameter
    RANGE init_M4RGi: parameter
    RANGE init_Gi: parameter
    RANGE init_M4RAChGi: parameter
    RANGE init_Gbgi: parameter
    RANGE init_GaiGDP: parameter
    RANGE init_ACh: parameter
    RANGE init_PDE10c: parameter
    RANGE init_PDE10: parameter
    RANGE init_PDE10_cAMP: parameter
    RANGE init_PDE10c_cAMP: parameter
    RANGE init_ATP: parameter
    RANGE init_AC5GaolfGTPGaiGTP_ATP: parameter
    RANGE init_AC5GaiGTP_ATP: parameter
    RANGE init_AC5GaolfGTP_ATP: parameter
    RANGE init_AC5_ATP: parameter
    RANGE init_AC5CaGaolfGTP_ATP: parameter
    RANGE init_AC5CaGaiGTP_ATP: parameter
    RANGE init_AC5CaGaolfGTPGaiGTP_ATP: parameter
    RANGE init_AC5Ca_ATP: parameter
    RANGE init_PP1_AKAR3p: parameter
    RANGE init_PKAc_AKAR3: parameter
    RANGE init_totalActivePKA               : parameter
    RANGE r_r_1               : derived variable
    RANGE r_r_2               : derived variable
    RANGE r_r_3               : derived variable
    RANGE r_r_4               : derived variable
    RANGE r_r_5               : derived variable
    RANGE r_r_6               : derived variable
    RANGE r_r_7               : derived variable
    RANGE r_r_8               : derived variable
    RANGE r_r_9               : derived variable
    RANGE r_r_10              : derived variable
    RANGE r_r_11              : derived variable
    RANGE r_r_12              : derived variable
    RANGE r_r_13              : derived variable
    RANGE r_r_14              : derived variable
    RANGE r_r_15              : derived variable
    RANGE r_r_16              : derived variable
    RANGE r_r_17              : derived variable
    RANGE r_r_18              : derived variable
    RANGE r_r_19              : derived variable
    RANGE r_r_20              : derived variable
    RANGE r_r_21              : derived variable
    RANGE r_r_22              : derived variable
    RANGE r_r_23              : derived variable
    RANGE r_r_24              : derived variable
    RANGE r_r_25              : derived variable
    RANGE r_r_26              : derived variable
    RANGE r_r_27              : derived variable
    RANGE r_r_28              : derived variable
    RANGE r_r_29              : derived variable
    RANGE r_r_30              : derived variable
    RANGE r_r_31              : derived variable
    RANGE r_r_32              : derived variable
    RANGE r_r_33              : derived variable
    RANGE r_r_34              : derived variable
    RANGE r_r_35              : derived variable
    RANGE r_r_36              : derived variable
    RANGE r_r_37              : derived variable
    RANGE r_r_38              : derived variable
    RANGE r_r_39              : derived variable
    RANGE r_r_40              : derived variable
    RANGE r_r_41              : derived variable
    RANGE r_r_42              : derived variable
    RANGE r_r_43              : derived variable
    RANGE r_r_44              : derived variable
    RANGE r_r_45              : derived variable
    RANGE r_r_46              : derived variable
    RANGE r_r_47              : derived variable
    RANGE r_r_48              : derived variable
    RANGE r_r_49              : derived variable
    RANGE r_r_50              : derived variable
    RANGE r_r_51              : derived variable
    RANGE r_r_52              : derived variable
    RANGE r_r_53              : derived variable
    RANGE r_r_54              : derived variable
    RANGE r_r_55              : derived variable
    RANGE r_r_56              : derived variable
    RANGE r_r_57              : derived variable
    RANGE r_r_58              : derived variable
    RANGE r_r_59              : derived variable
    RANGE r_r_60              : derived variable
    RANGE r_r_61              : derived variable
    RANGE r_ir_1             : derived variable
    RANGE r_ir_2             : derived variable
    RANGE r_ir_3             : derived variable
    RANGE r_ir_4             : derived variable
    RANGE r_ir_5             : derived variable
    RANGE r_ir_6             : derived variable
    RANGE r_ir_7             : derived variable
    RANGE r_ir_8             : derived variable
    RANGE r_ir_9             : derived variable
    RANGE r_ir_10            : derived variable
    RANGE r_ir_11            : derived variable
    RANGE r_ir_12            : derived variable
    RANGE r_ir_13            : derived variable
    RANGE r_ir_14            : derived variable
    RANGE r_ir_15            : derived variable
    RANGE r_ir_16            : derived variable
    RANGE r_ir_17            : derived variable
    RANGE r_ir_18            : derived variable
    RANGE r_ir_19            : derived variable
    RANGE r_ir_20            : derived variable
    RANGE r_ir_21            : derived variable
    RANGE r_ir_22            : derived variable
    RANGE r_ir_23            : derived variable
    RANGE r_ir_24            : derived variable
    RANGE r_ir_25            : derived variable
    RANGE r_ir_26            : derived variable
    RANGE r_ir_27            : derived variable
    RANGE r_ir_28            : derived variable
    RANGE r_ir_29            : derived variable
    RANGE r_ir_30            : derived variable
    RANGE r_ir_31            : derived variable
    RANGE r_ir_32            : derived variable
    RANGE r_ir_33            : derived variable
    RANGE r_ir_34            : derived variable
    RANGE r_ir_35            : derived variable
    RANGE r_ir_36            : derived variable
    RANGE r_ir_37            : derived variable
    RANGE r_ir_38            : derived variable
    RANGE r_ir_39            : derived variable
    RANGE r_ir_40            : derived variable
    RANGE r_ir_41            : derived variable
    RANGE r_ir_42            : derived variable
    RANGE r_ir_43            : derived variable
    RANGE r_ir_44            : derived variable
    RANGE r_ir_45            : derived variable
    RANGE r_ir_46            : derived variable
    RANGE r_ir_47            : derived variable
    RANGE r_ir_48            : derived variable
    RANGE r_ir_49            : derived variable
    RANGE r_ir_50            : derived variable
    RANGE r_ir_51            : derived variable
    RANGE r_ir_52            : derived variable
    
}

UNITS {
    
    (nA) = (nanoamp)
    (uA) = (microamp)
    (mA) = (milliamp)
    (A) = (amp)
    (mV) = (millivolt)
    (mS) = (millisiemens)
    (uS) = (microsiemens)
    (molar) = (1/liter)
    (kHz) = (kilohertz)
    (mM) = (millimolar)
    (um) = (micrometer)
    (umol) = (micromole)
    (S) = (siemens)
    
}

PARAMETER {
    
    krM4R_Gi = 90 
    kfM4R_Gi = 0.012 
    krPP2B_CaMCa2 = 3 
    kfPP2B_CaMCa2 = 1 
    krPP2BCaMCa2_2Ca = 10 
    kfPP2BCaMCa2_2Ca = 0.1 
    krPP2BCaM_2Ca = 0.91 
    kfPP2BCaM_2Ca = 0.006 
    kfPP1_D32p34 = 0.04 
    krPP1_D32p34 = 0.08 
    kfPP2B_CaMCa4 = 1 
    krPP2B_CaMCa4 = 3 
    kfB72PP2A_Ca = 1.0E-4 
    krB72PP2A_Ca = 0.1 
    kfPP2B_CaM = 1 
    krPP2B_CaM = 30 
    kcatPKAc_D32 = 10 
    kGaolfGTPase = 30 
    kfPP2Bc_D32p34 = 0.002 
    krPP2Bc_D32p34 = 1 
    kfB56PP2A_D32p75 = 8.0E-4 
    krB56PP2A_D32p75 = 6.4 
    kfB56PP2Ap_D32p75 = 0.0015 
    krB56PP2Ap_D32p75 = 10 
    kcatB56PP2Ap_D32p75 = 8 
    kcatB56PP2A_D32p75 = 2.3 
    kcatB72PP2ACa_D32p75 = 5 
    kcatB72PP2A_D32p75 = 1 
    kfB72PP2A_D32p75 = 8.0E-4 
    krB72PP2A_D32p75 = 6.4 
    kfB72PP2ACa_D32p75 = 0.0015 
    krB72PP2ACa_D32p75 = 10 
    kcatPP2Bc_D32p34 = 10 
    kcatCDK5_D32 = 3 
    kactGi = 60 
    kGiGTPase = 30 
    kGiback = 100 
    kfM4RACh_Gi = 1.2 
    krM4RACh_Gi = 90 
    kfPKA_2cAMP = 2.6E-4 
    krPKA_2cAMP = 1 
    krPKAc_PKAr = 10 
    kfPKAc_PKAr = 0.01 
    kfPKA2cAMP_2cAMP = 3.46E-4 
    krPKA2cAMP_2cAMP = 1 
    kfCDK5_D32 = 9.0E-4 
    krCDK5_D32 = 2 
    kactGolf = 15 
    kcatPDE4_cAMP = 2 
    kfPKAc_D32 = 3.0E-4 
    krPKAc_D32 = 8 
    kfPDE4_cAMP = 0.01 
    krPDE4_cAMP = 1 
    krPDE10_cAMP = 9 
    kcatPDE10c_cAMP = 10 
    kfPDE10_cAMP = 1.0E-6 
    kfcAMP_PDE10 = 0.1 
    krcAMP_PDE10 = 2 
    kcatcAMP_PDE10 = 3 
    kcatAC5GaolfGTP_ATP = 20 
    kicatAC5GaolfGTP_ATP = 0.084 
    kcatAC5_ATP = 1 
    kicatAC5_ATP = 4.0E-4 
    kcatAC5GaiGTP_ATP = 0.25 
    kicatAC5GaiGTP_ATP = 0.00105 
    kcatAC5CaGaiGTP_ATP = 0.125 
    kicatAC5CaGaiGTP_ATP = 2.8125E-5 
    kcatAC5Ca_ATP = 0.5 
    kicatAC5Ca_ATP = 1.5E-4 
    kcatAC5CaGaolfGTP_ATP = 10 
    kicatAC5CaGaolfGTP_ATP = 0.022 
    kfM4R_ACh = 0.01 
    kfM4RGi_ACh = 1 
    krM4RGi_ACh = 90 
    krM4R_ACh = 90 
    kcatAC5GaolfGTPGaiGTP_ATP = 5 
    kicatAC5GaolfGTPGaiGTP_ATP = 0.006 
    kicatAC5CaGaolfGTPGaiGTP_ATP = 0.00175 
    kcatAC5CaGaolfGTPGaiGTP_ATP = 2.5 
    kfAC5_ATP = 1.0E-4 
    kfAC5CaGaolfGTP_ATP = 5.5E-4 
    kfAC5CaGaiGTP_ATP = 5.625E-5 
    kfAC5CaGaolfGTPGaiGTP_ATP = 1.75E-4 
    kfCaM_2Ca = 0.006 
    kGolfback = 100 
    krCaM_2Ca = 9.1 
    kdpB56PP2Ap = 0.008 
    krCaMCa2_2Ca = 1000 
    krPKAc_D32p75 = 1 
    kfPKAc_B56PP2A = 0.001 
    krPKAc_B56PP2A = 0.3 
    kfCaMCa2_2Ca = 0.1 
    kcatPKAc_B56PP2A = 0.2 
    kfPKAc_D32p75 = 3.7E-4 
    kfAC5GaolfGTP_ATP = 0.00105 
    kfAC5GaiGTP_ATP = 6.25E-5 
    kfAC5GaolfGTPGaiGTP_ATP = 3.0E-4 
    kfAC5Ca_ATP = 7.5E-5 
    kfD1R_Golf = 0.003 
    krD1R_Golf = 5 
    kfD1RDA_Golf = 0.003 
    krD1RDA_Golf = 5 
    kfB72PP2A_D32p34 = 0.5 
    krB72PP2A_D32p34 = 1 
    krAC5X_ATP = 1 
    kcatB72PP2A_D32p34 = 0.3 
    kfAC5XGaolfGTP = 0.2 
    kfAC5Ca = 0.001 
    kfAC5XGaiGTP = 50 
    kfAC5XNCGaiGTP = 0.01 
    kfAC5XNCGaolfGTP = 0.002 
    krAC5XGaolfGTP = 0.1 
    krAC5Ca = 0.9 
    krAC5XGaiGTP = 5 
    krAC5XNCGaiGTP = 0.01 
    krAC5XNCGaolfGTP = 0.01 
    krgso = 0.2 
    krgsi = 30 
    kcatPP1_AKAR3p = 1.2 
    kfPP1_AKAR3p = 0 
    krPP1_AKAR3p = 10 
    kcatPKAc_AKAR3 = 3 
    kfPKAc_AKAR3 = 0 
    krPKAc_AKAR3 = 1 
    kfPDE10c_cAMP = 0.13 
    krPDE10c_cAMP = 2 
    kfD1R_DA = 0.005 
    kfD1RGolf_DA = 0.005 
    krD1R_DA = 5 
    krD1RGolf_DA = 5 
    tscale = 0.001 (kHz)
    Spine = 1.0E-15 
    init_GaiGTP = 2.356247 
    init_GaolfGDP = 0.005147448 
    init_Gbgolf = 107.87538 
    init_GaolfGTP = 1.1394042 
    init_D1RDAGolf = 3.701886 
    init_Golf = 1102.5281 
    init_D1RGolf = 785.8947 
    init_D1RDA = 16.100094 
    init_D1R = 1194.3033 
    init_cAMP = 91.64676 
    init_Ca = 60 
    init_AC5 = 0.5074936 
    init_AC5GaolfGTP = 0.397626 
    init_CaM = 7686.1577 
    init_CaMCa2 = 316.77606 
    init_CaMCa4 = 2.4708097 
    init_PDE4 = 1531.9928 
    init_PKA = 1100.8501 
    init_PKAcAMP2 = 26.231228 
    init_PKAcAMP4 = 0.8317864 
    init_PKAreg = 72.08693 
    init_PKAc = 11.538658 
    init_PP2B = 5.4047565 
    init_PP2Bc = 194.50252 
    init_PP2BCaM = 1380.8723 
    init_PP2BCaMCa2 = 419.19644 
    init_DARPP32 = 37271.656 
    init_PKAc_D32 = 7.167748 
    init_D32p34 = 0.67897856 
    init_B72PP2A = 860.232 
    init_PKAc_B56PP2A = 16.409716 
    init_B56PP2Ap = 410.2429 
    init_CDK5 = 233.49641 
    init_PP1 = 1493.1064 
    init_CDK5_D32 = 1566.5035 
    init_D32p75 = 8659.681 
    init_PKAcD32p75 = 36.970806 
    init_B72PPA2Ca = 51.613922 
    init_B56PP2Ap_D32p75 = 296.0477 
    init_B72PP2A_D32p75 = 805.3335 
    init_B72PP2ACa_D32p75 = 44.69601 
    init_PP1D32p34 = 506.89362 
    init_PP2Bc_D32p34 = 0.024011461 
    init_B72PP2A_D32p34 = 224.6458 
    init_DA = 10 
    init_AMP = 0 
    init_AC5Ca = 0.033835724 
    init_AC5CaGaolfGTP = 0.026527746 
    init_AC5GaiGTP = 1.7078534 
    init_AC5CaGaiGTP = 0.1138883 
    init_B56PP2A = 711.07556 
    init_B56PP2A_D32p75 = 566.2241 
    init_B72PP2ACa_D32p34 = 13.478748 
    init_PDE4_cAMP = 468.00723 
    init_AC5GaolfGTPGaiGTP = 4.3913574E-4 
    init_AC5CaGaolfGTPGaiGTP = 2.9281164E-5 
    init_M4R = 1529.7 
    init_M4RACh = 25.65012 
    init_M4RGi = 214.72266 
    init_Gi = 1095.1957 
    init_M4RAChGi = 229.92728 
    init_Gbgi = 460.15436 
    init_GaiGDP = 0.29980454 
    init_ACh = 100 
    init_PDE10c = 0.23044543 
    init_PDE10 = 246.93144 
    init_PDE10_cAMP = 452.6093 
    init_PDE10c_cAMP = 0.22879541 
    init_ATP = 5000000 
    init_AC5GaolfGTPGaiGTP_ATP = 0.109825805 
    init_AC5GaiGTP_ATP = 427.08655 
    init_AC5GaolfGTP_ATP = 99.55226 
    init_AC5_ATP = 126.887955 
    init_AC5CaGaolfGTP_ATP = 6.636798 
    init_AC5CaGaiGTP_ATP = 28.472404 
    init_AC5CaGaolfGTPGaiGTP_ATP = 0.007321715 
    init_AC5Ca_ATP = 8.459194 
    init_PP1_AKAR3p = 0 
    init_PKAc_AKAR3 = 0 
    init_totalActivePKA = 35.116123 
}

ASSIGNED {
    
    r_r_1                    : derived variable
    
    r_r_2                    : derived variable
    
    r_r_3                    : derived variable
    
    r_r_4                    : derived variable
    
    r_r_5                    : derived variable
    
    r_r_6                    : derived variable
    
    r_r_7                    : derived variable
    
    r_r_8                    : derived variable
    
    r_r_9                    : derived variable
    
    r_r_10                   : derived variable
    
    r_r_11                   : derived variable
    
    r_r_12                   : derived variable
    
    r_r_13                   : derived variable
    
    r_r_14                   : derived variable
    
    r_r_15                   : derived variable
    
    r_r_16                   : derived variable
    
    r_r_17                   : derived variable
    
    r_r_18                   : derived variable
    
    r_r_19                   : derived variable
    
    r_r_20                   : derived variable
    
    r_r_21                   : derived variable
    
    r_r_22                   : derived variable
    
    r_r_23                   : derived variable
    
    r_r_24                   : derived variable
    
    r_r_25                   : derived variable
    
    r_r_26                   : derived variable
    
    r_r_27                   : derived variable
    
    r_r_28                   : derived variable
    
    r_r_29                   : derived variable
    
    r_r_30                   : derived variable
    
    r_r_31                   : derived variable
    
    r_r_32                   : derived variable
    
    r_r_33                   : derived variable
    
    r_r_34                   : derived variable
    
    r_r_35                   : derived variable
    
    r_r_36                   : derived variable
    
    r_r_37                   : derived variable
    
    r_r_38                   : derived variable
    
    r_r_39                   : derived variable
    
    r_r_40                   : derived variable
    
    r_r_41                   : derived variable
    
    r_r_42                   : derived variable
    
    r_r_43                   : derived variable
    
    r_r_44                   : derived variable
    
    r_r_45                   : derived variable
    
    r_r_46                   : derived variable
    
    r_r_47                   : derived variable
    
    r_r_48                   : derived variable
    
    r_r_49                   : derived variable
    
    r_r_50                   : derived variable
    
    r_r_51                   : derived variable
    
    r_r_52                   : derived variable
    
    r_r_53                   : derived variable
    
    r_r_54                   : derived variable
    
    r_r_55                   : derived variable
    
    r_r_56                   : derived variable
    
    r_r_57                   : derived variable
    
    r_r_58                   : derived variable
    
    r_r_59                   : derived variable
    
    r_r_60                   : derived variable
    
    r_r_61                   : derived variable
    
    r_ir_1                  : derived variable
    
    r_ir_2                  : derived variable
    
    r_ir_3                  : derived variable
    
    r_ir_4                  : derived variable
    
    r_ir_5                  : derived variable
    
    r_ir_6                  : derived variable
    
    r_ir_7                  : derived variable
    
    r_ir_8                  : derived variable
    
    r_ir_9                  : derived variable
    
    r_ir_10                 : derived variable
    
    r_ir_11                 : derived variable
    
    r_ir_12                 : derived variable
    
    r_ir_13                 : derived variable
    
    r_ir_14                 : derived variable
    
    r_ir_15                 : derived variable
    
    r_ir_16                 : derived variable
    
    r_ir_17                 : derived variable
    
    r_ir_18                 : derived variable
    
    r_ir_19                 : derived variable
    
    r_ir_20                 : derived variable
    
    r_ir_21                 : derived variable
    
    r_ir_22                 : derived variable
    
    r_ir_23                 : derived variable
    
    r_ir_24                 : derived variable
    
    r_ir_25                 : derived variable
    
    r_ir_26                 : derived variable
    
    r_ir_27                 : derived variable
    
    r_ir_28                 : derived variable
    
    r_ir_29                 : derived variable
    
    r_ir_30                 : derived variable
    
    r_ir_31                 : derived variable
    
    r_ir_32                 : derived variable
    
    r_ir_33                 : derived variable
    
    r_ir_34                 : derived variable
    
    r_ir_35                 : derived variable
    
    r_ir_36                 : derived variable
    
    r_ir_37                 : derived variable
    
    r_ir_38                 : derived variable
    
    r_ir_39                 : derived variable
    
    r_ir_40                 : derived variable
    
    r_ir_41                 : derived variable
    
    r_ir_42                 : derived variable
    
    r_ir_43                 : derived variable
    
    r_ir_44                 : derived variable
    
    r_ir_45                 : derived variable
    
    r_ir_46                 : derived variable
    
    r_ir_47                 : derived variable
    
    r_ir_48                 : derived variable
    
    r_ir_49                 : derived variable
    
    r_ir_50                 : derived variable
    
    r_ir_51                 : derived variable
    
    r_ir_52                 : derived variable
    rate_AC5CaGaolfGTPGaiGTP (/ms)
    rate_AC5CaGaiGTP (/ms)
    rate_PKAreg (/ms)
    rate_AC5_ATP (/ms)
    rate_PP2B (/ms)
    rate_AC5CaGaolfGTP_ATP (/ms)
    rate_PP2Bc (/ms)
    rate_B56PP2A_D32p75 (/ms)
    rate_PKAcAMP4 (/ms)
    rate_AC5GaolfGTP (/ms)
    rate_PP1 (/ms)
    rate_PDE10 (/ms)
    rate_GaolfGTP (/ms)
    rate_AC5Ca (/ms)
    rate_M4R (/ms)
    rate_B72PP2A_D32p75 (/ms)
    rate_AC5 (/ms)
    rate_AC5GaiGTP (/ms)
    rate_D1RGolf (/ms)
    rate_PKAcD32p75 (/ms)
    rate_CDK5 (/ms)
    rate_B72PP2A_D32p34 (/ms)
    rate_D1R (/ms)
    rate_AC5GaolfGTPGaiGTP (/ms)
    rate_AC5Ca_ATP (/ms)
    rate_B56PP2A (/ms)
    rate_Golf (/ms)
    rate_PKAc (/ms)
    rate_PP1D32p34 (/ms)
    rate_CaMCa4 (/ms)
    rate_PP2BCaM (/ms)
    rate_PDE4_cAMP (/ms)
    rate_PKAcAMP2 (/ms)
    rate_Gi (/ms)
    rate_PP2Bc_D32p34 (/ms)
    rate_GaolfGDP (/ms)
    rate_D32p75 (/ms)
    rate_PP2BCaMCa2 (/ms)
    rate_AC5GaolfGTP_ATP (/ms)
    rate_CaMCa2 (/ms)
    rate_PKAc_B56PP2A (/ms)
    rate_B72PP2ACa_D32p34 (/ms)
    rate_AC5CaGaiGTP_ATP (/ms)
    rate_Gbgolf (/ms)
    rate_GaiGDP (/ms)
    rate_GaiGTP (/ms)
    rate_PDE10_cAMP (/ms)
    rate_Gbgi (/ms)
    rate_M4RGi (/ms)
    rate_AC5CaGaolfGTPGaiGTP_ATP (/ms)
    rate_PDE10c (/ms)
    rate_cAMP (/ms)
    rate_DARPP32 (/ms)
    rate_PDE10c_cAMP (/ms)
    rate_D1RDAGolf (/ms)
    rate_M4RACh (/ms)
    rate_CDK5_D32 (/ms)
    rate_AC5GaiGTP_ATP (/ms)
    rate_D1RDA (/ms)
    rate_CaM (/ms)
    rate_PKA (/ms)
    rate_B72PP2A (/ms)
    rate_AC5GaolfGTPGaiGTP_ATP (/ms)
    rate_B72PPA2Ca (/ms)
    rate_PKAc_D32 (/ms)
    rate_D32p34 (/ms)
    rate_B72PP2ACa_D32p75 (/ms)
    rate_PDE4 (/ms)
    rate_B56PP2Ap_D32p75 (/ms)
    rate_M4RAChGi (/ms)
    rate_AC5CaGaolfGTP (/ms)
    rate_B56PP2Ap (/ms)
    
}

STATE {
    GaiGTP 
    GaolfGDP 
    Gbgolf 
    GaolfGTP 
    D1RDAGolf 
    Golf 
    D1RGolf 
    D1RDA 
    D1R 
    cAMP 
    Ca 
    AC5 
    AC5GaolfGTP 
    CaM 
    CaMCa2 
    CaMCa4 
    PDE4 
    PKA 
    PKAcAMP2 
    PKAcAMP4 
    PKAreg 
    PKAc 
    PP2B 
    PP2Bc 
    PP2BCaM 
    PP2BCaMCa2 
    DARPP32 
    PKAc_D32 
    D32p34 
    B72PP2A 
    PKAc_B56PP2A 
    B56PP2Ap 
    CDK5 
    PP1 
    CDK5_D32 
    D32p75 
    PKAcD32p75 
    B72PPA2Ca 
    B56PP2Ap_D32p75 
    B72PP2A_D32p75 
    B72PP2ACa_D32p75 
    PP1D32p34 
    PP2Bc_D32p34 
    B72PP2A_D32p34 
    DA 
    AMP 
    AC5Ca 
    AC5CaGaolfGTP 
    AC5GaiGTP 
    AC5CaGaiGTP 
    B56PP2A 
    B56PP2A_D32p75 
    B72PP2ACa_D32p34 
    PDE4_cAMP 
    AC5GaolfGTPGaiGTP 
    AC5CaGaolfGTPGaiGTP 
    M4R 
    M4RACh 
    M4RGi 
    Gi 
    M4RAChGi 
    Gbgi 
    GaiGDP 
    ACh 
    PDE10c 
    PDE10 
    PDE10_cAMP 
    PDE10c_cAMP 
    ATP 
    AC5GaolfGTPGaiGTP_ATP 
    AC5GaiGTP_ATP 
    AC5GaolfGTP_ATP 
    AC5_ATP 
    AC5CaGaolfGTP_ATP 
    AC5CaGaiGTP_ATP 
    AC5CaGaolfGTPGaiGTP_ATP 
    AC5Ca_ATP 
    PP1_AKAR3p 
    PKAc_AKAR3 
    totalActivePKA 
    
}

INITIAL {
    rates()
    rates() ? To ensure correct initialisation.
    
    GaiGTP = init_GaiGTP
    
    GaolfGDP = init_GaolfGDP
    
    Gbgolf = init_Gbgolf
    
    GaolfGTP = init_GaolfGTP
    
    D1RDAGolf = init_D1RDAGolf
    
    Golf = init_Golf
    
    D1RGolf = init_D1RGolf
    
    D1RDA = init_D1RDA
    
    D1R = init_D1R
    
    cAMP = init_cAMP
    
    Ca = init_Ca
    
    AC5 = init_AC5
    
    AC5GaolfGTP = init_AC5GaolfGTP
    
    CaM = init_CaM
    
    CaMCa2 = init_CaMCa2
    
    CaMCa4 = init_CaMCa4
    
    PDE4 = init_PDE4
    
    PKA = init_PKA
    
    PKAcAMP2 = init_PKAcAMP2
    
    PKAcAMP4 = init_PKAcAMP4
    
    PKAreg = init_PKAreg
    
    PKAc = init_PKAc
    
    PP2B = init_PP2B
    
    PP2Bc = init_PP2Bc
    
    PP2BCaM = init_PP2BCaM
    
    PP2BCaMCa2 = init_PP2BCaMCa2
    
    DARPP32 = init_DARPP32
    
    PKAc_D32 = init_PKAc_D32
    
    D32p34 = init_D32p34
    
    B72PP2A = init_B72PP2A
    
    PKAc_B56PP2A = init_PKAc_B56PP2A
    
    B56PP2Ap = init_B56PP2Ap
    
    CDK5 = init_CDK5
    
    PP1 = init_PP1
    
    CDK5_D32 = init_CDK5_D32
    
    D32p75 = init_D32p75
    
    PKAcD32p75 = init_PKAcD32p75
    
    B72PPA2Ca = init_B72PPA2Ca
    
    B56PP2Ap_D32p75 = init_B56PP2Ap_D32p75
    
    B72PP2A_D32p75 = init_B72PP2A_D32p75
    
    B72PP2ACa_D32p75 = init_B72PP2ACa_D32p75
    
    PP1D32p34 = init_PP1D32p34
    
    PP2Bc_D32p34 = init_PP2Bc_D32p34
    
    B72PP2A_D32p34 = init_B72PP2A_D32p34
    
    DA = init_DA
    
    AMP = init_AMP
    
    AC5Ca = init_AC5Ca
    
    AC5CaGaolfGTP = init_AC5CaGaolfGTP
    
    AC5GaiGTP = init_AC5GaiGTP
    
    AC5CaGaiGTP = init_AC5CaGaiGTP
    
    B56PP2A = init_B56PP2A
    
    B56PP2A_D32p75 = init_B56PP2A_D32p75
    
    B72PP2ACa_D32p34 = init_B72PP2ACa_D32p34
    
    PDE4_cAMP = init_PDE4_cAMP
    
    AC5GaolfGTPGaiGTP = init_AC5GaolfGTPGaiGTP
    
    AC5CaGaolfGTPGaiGTP = init_AC5CaGaolfGTPGaiGTP
    
    M4R = init_M4R
    
    M4RACh = init_M4RACh
    
    M4RGi = init_M4RGi
    
    Gi = init_Gi
    
    M4RAChGi = init_M4RAChGi
    
    Gbgi = init_Gbgi
    
    GaiGDP = init_GaiGDP
    
    ACh = init_ACh
    
    PDE10c = init_PDE10c
    
    PDE10 = init_PDE10
    
    PDE10_cAMP = init_PDE10_cAMP
    
    PDE10c_cAMP = init_PDE10c_cAMP
    
    ATP = init_ATP
    
    AC5GaolfGTPGaiGTP_ATP = init_AC5GaolfGTPGaiGTP_ATP
    
    AC5GaiGTP_ATP = init_AC5GaiGTP_ATP
    
    AC5GaolfGTP_ATP = init_AC5GaolfGTP_ATP
    
    AC5_ATP = init_AC5_ATP
    
    AC5CaGaolfGTP_ATP = init_AC5CaGaolfGTP_ATP
    
    AC5CaGaiGTP_ATP = init_AC5CaGaiGTP_ATP
    
    AC5CaGaolfGTPGaiGTP_ATP = init_AC5CaGaolfGTPGaiGTP_ATP
    
    AC5Ca_ATP = init_AC5Ca_ATP
    
    PP1_AKAR3p = init_PP1_AKAR3p
    
    PKAc_AKAR3 = init_PKAc_AKAR3
    
    totalActivePKA = init_totalActivePKA
    
}

BREAKPOINT {
    
    SOLVE states METHOD cnexp
    
    
}

DERIVATIVE states {
    rates()
    AC5CaGaolfGTPGaiGTP' = rate_AC5CaGaolfGTPGaiGTP 
    AC5CaGaiGTP' = rate_AC5CaGaiGTP 
    PKAreg' = rate_PKAreg 
    AC5_ATP' = rate_AC5_ATP 
    PP2B' = rate_PP2B 
    AC5CaGaolfGTP_ATP' = rate_AC5CaGaolfGTP_ATP 
    PP2Bc' = rate_PP2Bc 
    B56PP2A_D32p75' = rate_B56PP2A_D32p75 
    PKAcAMP4' = rate_PKAcAMP4 
    AC5GaolfGTP' = rate_AC5GaolfGTP 
    PP1' = rate_PP1 
    PDE10' = rate_PDE10 
    GaolfGTP' = rate_GaolfGTP 
    AC5Ca' = rate_AC5Ca 
    M4R' = rate_M4R 
    B72PP2A_D32p75' = rate_B72PP2A_D32p75 
    AC5' = rate_AC5 
    AC5GaiGTP' = rate_AC5GaiGTP 
    D1RGolf' = rate_D1RGolf 
    PKAcD32p75' = rate_PKAcD32p75 
    CDK5' = rate_CDK5 
    B72PP2A_D32p34' = rate_B72PP2A_D32p34 
    D1R' = rate_D1R 
    AC5GaolfGTPGaiGTP' = rate_AC5GaolfGTPGaiGTP 
    AC5Ca_ATP' = rate_AC5Ca_ATP 
    B56PP2A' = rate_B56PP2A 
    Golf' = rate_Golf 
    PKAc' = rate_PKAc 
    PP1D32p34' = rate_PP1D32p34 
    CaMCa4' = rate_CaMCa4 
    PP2BCaM' = rate_PP2BCaM 
    PDE4_cAMP' = rate_PDE4_cAMP 
    PKAcAMP2' = rate_PKAcAMP2 
    Gi' = rate_Gi 
    PP2Bc_D32p34' = rate_PP2Bc_D32p34 
    GaolfGDP' = rate_GaolfGDP 
    D32p75' = rate_D32p75 
    PP2BCaMCa2' = rate_PP2BCaMCa2 
    AC5GaolfGTP_ATP' = rate_AC5GaolfGTP_ATP 
    CaMCa2' = rate_CaMCa2 
    PKAc_B56PP2A' = rate_PKAc_B56PP2A 
    B72PP2ACa_D32p34' = rate_B72PP2ACa_D32p34 
    AC5CaGaiGTP_ATP' = rate_AC5CaGaiGTP_ATP 
    Gbgolf' = rate_Gbgolf 
    GaiGDP' = rate_GaiGDP 
    GaiGTP' = rate_GaiGTP 
    PDE10_cAMP' = rate_PDE10_cAMP 
    Gbgi' = rate_Gbgi 
    M4RGi' = rate_M4RGi 
    AC5CaGaolfGTPGaiGTP_ATP' = rate_AC5CaGaolfGTPGaiGTP_ATP 
    PDE10c' = rate_PDE10c 
    cAMP' = rate_cAMP 
    DARPP32' = rate_DARPP32 
    PDE10c_cAMP' = rate_PDE10c_cAMP 
    D1RDAGolf' = rate_D1RDAGolf 
    M4RACh' = rate_M4RACh 
    CDK5_D32' = rate_CDK5_D32 
    AC5GaiGTP_ATP' = rate_AC5GaiGTP_ATP 
    D1RDA' = rate_D1RDA 
    CaM' = rate_CaM 
    PKA' = rate_PKA 
    B72PP2A' = rate_B72PP2A 
    AC5GaolfGTPGaiGTP_ATP' = rate_AC5GaolfGTPGaiGTP_ATP 
    B72PPA2Ca' = rate_B72PPA2Ca 
    PKAc_D32' = rate_PKAc_D32 
    D32p34' = rate_D32p34 
    B72PP2ACa_D32p75' = rate_B72PP2ACa_D32p75 
    PDE4' = rate_PDE4 
    B56PP2Ap_D32p75' = rate_B56PP2Ap_D32p75 
    M4RAChGi' = rate_M4RAChGi 
    AC5CaGaolfGTP' = rate_AC5CaGaolfGTP 
    B56PP2Ap' = rate_B56PP2Ap 
    
}

PROCEDURE rates() {
    
    r_r_1 = (  Spine   * (((  kfD1RGolf_DA   *    D1RGolf   ) *    DA   ) - (  krD1RGolf_DA   *    D1RDAGolf   ))) ? evaluable
    r_r_2 = (  Spine   * (((  kfD1RDA_Golf   *    D1RDA   ) *    Golf   ) - (  krD1RDA_Golf   *    D1RDAGolf   ))) ? evaluable
    r_r_3 = (  Spine   * (((  kfD1R_Golf   *    D1R   ) *    Golf   ) - (  krD1R_Golf   *    D1RGolf   ))) ? evaluable
    r_r_4 = (  Spine   * (((  kfD1R_DA   *    D1R   ) *    DA   ) - (  krD1R_DA   *    D1RDA   ))) ? evaluable
    r_r_5 = (  Spine   * (((  kfM4R_Gi   *    M4R   ) *    Gi   ) - (  krM4R_Gi   *    M4RGi   ))) ? evaluable
    r_r_6 = (  Spine   * (((  kfM4RACh_Gi   *    M4RACh   ) *    Gi   ) - (  krM4RACh_Gi   *    M4RAChGi   ))) ? evaluable
    r_r_7 = (  Spine   * (((  kfM4RGi_ACh   *    ACh   ) *    M4RGi   ) - (  krM4RGi_ACh   *    M4RAChGi   ))) ? evaluable
    r_r_8 = (  Spine   * (((  kfM4R_ACh   *    ACh   ) *    M4R   ) - (  krM4R_ACh   *    M4RACh   ))) ? evaluable
    r_r_9 = (  Spine   * (((  kfAC5XGaolfGTP   *    AC5   ) *    GaolfGTP   ) - (  krAC5XGaolfGTP   *    AC5GaolfGTP   ))) ? evaluable
    r_r_10 = (  Spine   * (((  kfAC5Ca   *    AC5   ) *    Ca   ) - (  krAC5Ca   *    AC5Ca   ))) ? evaluable
    r_r_11 = (  Spine   * (((  kfAC5XGaolfGTP   *    AC5Ca   ) *    GaolfGTP   ) - (  krAC5XGaolfGTP   *    AC5CaGaolfGTP   ))) ? evaluable
    r_r_12 = (  Spine   * (((  kfAC5XGaiGTP   *    GaiGTP   ) *    AC5Ca   ) - (  krAC5XGaiGTP   *    AC5CaGaiGTP   ))) ? evaluable
    r_r_13 = (  Spine   * (((  kfAC5XGaiGTP   *    GaiGTP   ) *    AC5   ) - (  krAC5XGaiGTP   *    AC5GaiGTP   ))) ? evaluable
    r_r_14 = (  Spine   * (((  kfAC5XNCGaiGTP   *    GaiGTP   ) *    AC5GaolfGTP   ) - (  krAC5XNCGaiGTP   *    AC5GaolfGTPGaiGTP   ))) ? evaluable
    r_r_15 = (  Spine   * (((  kfAC5XNCGaiGTP   *    GaiGTP   ) *    AC5CaGaolfGTP   ) - (  krAC5XNCGaiGTP   *    AC5CaGaolfGTPGaiGTP   ))) ? evaluable
    r_r_16 = (  Spine   * (((  kfAC5XNCGaolfGTP   *    AC5GaiGTP   ) *    GaolfGTP   ) - (  krAC5XNCGaolfGTP   *    AC5GaolfGTPGaiGTP   ))) ? evaluable
    r_r_17 = (  Spine   * (((  kfAC5XNCGaolfGTP   *    AC5CaGaiGTP   ) *    GaolfGTP   ) - (  krAC5XNCGaolfGTP   *    AC5CaGaolfGTPGaiGTP   ))) ? evaluable
    r_r_18 = (  Spine   * (((  kfAC5GaolfGTPGaiGTP_ATP   *    AC5GaolfGTPGaiGTP   ) *    ATP   ) - (  krAC5X_ATP   *    AC5GaolfGTPGaiGTP_ATP   ))) ? evaluable
    r_r_19 = (  Spine   * (((  kfAC5GaiGTP_ATP   *    ATP   ) *    AC5GaiGTP   ) - (  krAC5X_ATP   *    AC5GaiGTP_ATP   ))) ? evaluable
    r_r_20 = (  Spine   * (((  kfAC5GaolfGTP_ATP   *    AC5GaolfGTP   ) *    ATP   ) - (  krAC5X_ATP   *    AC5GaolfGTP_ATP   ))) ? evaluable
    r_r_21 = (  Spine   * (((  kfAC5_ATP   *    AC5   ) *    ATP   ) - (  krAC5X_ATP   *    AC5_ATP   ))) ? evaluable
    r_r_22 = (  Spine   * (((  kfAC5Ca_ATP   *    AC5Ca   ) *    ATP   ) - (  krAC5X_ATP   *    AC5Ca_ATP   ))) ? evaluable
    r_r_23 = (  Spine   * (((  kfAC5CaGaolfGTP_ATP   *    AC5CaGaolfGTP   ) *    ATP   ) - (  krAC5X_ATP   *    AC5CaGaolfGTP_ATP   ))) ? evaluable
    r_r_24 = (  Spine   * (((  kfAC5CaGaiGTP_ATP   *    AC5CaGaiGTP   ) *    ATP   ) - (  krAC5X_ATP   *    AC5CaGaiGTP_ATP   ))) ? evaluable
    r_r_25 = (  Spine   * (((  kfAC5CaGaolfGTPGaiGTP_ATP   *    AC5CaGaolfGTPGaiGTP   ) *    ATP   ) - (  krAC5X_ATP   *    AC5CaGaolfGTPGaiGTP_ATP   ))) ? evaluable
    r_r_26 = (  Spine   * (((  kfAC5XNCGaolfGTP   *    GaolfGTP   ) *    AC5GaiGTP_ATP   ) - (  krAC5XNCGaolfGTP   *    AC5GaolfGTPGaiGTP_ATP   ))) ? evaluable
    r_r_27 = (  Spine   * (((  kfAC5XNCGaolfGTP   *    GaolfGTP   ) *    AC5CaGaiGTP_ATP   ) - (  krAC5XNCGaolfGTP   *    AC5CaGaolfGTPGaiGTP_ATP   ))) ? evaluable
    r_r_28 = (  Spine   * (((  kfAC5XGaolfGTP   *    GaolfGTP   ) *    AC5_ATP   ) - (  krAC5XGaolfGTP   *    AC5GaolfGTP_ATP   ))) ? evaluable
    r_r_29 = (  Spine   * (((  kfAC5XGaolfGTP   *    GaolfGTP   ) *    AC5Ca_ATP   ) - (  krAC5XGaolfGTP   *    AC5CaGaolfGTP_ATP   ))) ? evaluable
    r_r_30 = (  Spine   * (((  kfAC5Ca   *    Ca   ) *    AC5_ATP   ) - (  krAC5Ca   *    AC5Ca_ATP   ))) ? evaluable
    r_r_31 = (  Spine   * (((  kfAC5XGaiGTP   *    AC5_ATP   ) *    GaiGTP   ) - (  krAC5XGaiGTP   *    AC5GaiGTP_ATP   ))) ? evaluable
    r_r_32 = (  Spine   * (((  kfAC5XNCGaiGTP   *    GaiGTP   ) *    AC5GaolfGTP_ATP   ) - (  krAC5XNCGaiGTP   *    AC5GaolfGTPGaiGTP_ATP   ))) ? evaluable
    r_r_33 = (  Spine   * (((  kfAC5XGaiGTP   *    AC5Ca_ATP   ) *    GaiGTP   ) - (  krAC5XGaiGTP   *    AC5CaGaiGTP_ATP   ))) ? evaluable
    r_r_34 = (  Spine   * (((  kfAC5XNCGaiGTP   *    GaiGTP   ) *    AC5CaGaolfGTP_ATP   ) - (  krAC5XNCGaiGTP   *    AC5CaGaolfGTPGaiGTP_ATP   ))) ? evaluable
    r_r_35 = (  Spine   * (((  kfPKA_2cAMP   *    cAMP   ) *    PKA   ) - (  krPKA_2cAMP   *    PKAcAMP2   ))) ? evaluable
    r_r_36 = (  Spine   * (((  kfPKA2cAMP_2cAMP   *    cAMP   ) *    PKAcAMP2   ) - (  krPKA2cAMP_2cAMP   *    PKAcAMP4   ))) ? evaluable
    r_r_37 = (  Spine   * ((  krPKAc_PKAr   *    PKAcAMP4   ) - ((  kfPKAc_PKAr   *    PKAc   ) *    PKAreg   ))) ? evaluable
    r_r_38 = (  Spine   * (((  kfPDE4_cAMP   *    cAMP   ) *    PDE4   ) - (  krPDE4_cAMP   *    PDE4_cAMP   ))) ? evaluable
    r_r_39 = (  Spine   * (((  kfPDE10_cAMP   *    PDE10   ) * (   cAMP    ^ 2.0)) - (  krPDE10_cAMP   *    PDE10c   ))) ? evaluable
    r_r_40 = (  Spine   * (((  kfcAMP_PDE10   *    cAMP   ) *    PDE10   ) - (  krcAMP_PDE10   *    PDE10_cAMP   ))) ? evaluable
    r_r_41 = (  Spine   * (((  kfPDE10c_cAMP   *    cAMP   ) *    PDE10c   ) - (  krPDE10c_cAMP   *    PDE10c_cAMP   ))) ? evaluable
    r_r_42 = (  Spine   * (((  kfCaM_2Ca   *    CaM   ) *    Ca   ) - (  krCaM_2Ca   *    CaMCa2   ))) ? evaluable
    r_r_43 = (  Spine   * (((  kfCaMCa2_2Ca   *    Ca   ) *    CaMCa2   ) - (  krCaMCa2_2Ca   *    CaMCa4   ))) ? evaluable
    r_r_44 = (  Spine   * (((  kfPP2B_CaM   *    PP2B   ) *    CaM   ) - (  krPP2B_CaM   *    PP2BCaM   ))) ? evaluable
    r_r_45 = (  Spine   * (((  kfPP2B_CaMCa4   *    PP2B   ) *    CaMCa4   ) - (  krPP2B_CaMCa4   *    PP2Bc   ))) ? evaluable
    r_r_46 = (  Spine   * (((  kfPKAc_D32   *    PKAc   ) *    DARPP32   ) - (  krPKAc_D32   *    PKAc_D32   ))) ? evaluable
    r_r_47 = (  Spine   * (((  kfPKAc_B56PP2A   *    PKAc   ) *    B56PP2A   ) - (  krPKAc_B56PP2A   *    PKAc_B56PP2A   ))) ? evaluable
    r_r_48 = (  Spine   * (((  kfPP1_D32p34   *    D32p34   ) *    PP1   ) - (  krPP1_D32p34   *    PP1D32p34   ))) ? evaluable
    r_r_49 = (  Spine   * (((  kfCDK5_D32   *    CDK5   ) *    DARPP32   ) - (  krCDK5_D32   *    CDK5_D32   ))) ? evaluable
    r_r_50 = (  Spine   * (((  kfPKAc_D32p75   *    D32p75   ) *    PKAc   ) - (  krPKAc_D32p75   *    PKAcD32p75   ))) ? evaluable
    r_r_51 = (  Spine   * (((  kfB72PP2A_Ca   *    B72PP2A   ) *    Ca   ) - (  krB72PP2A_Ca   *    B72PPA2Ca   ))) ? evaluable
    r_r_52 = (  Spine   * (((  kfB56PP2Ap_D32p75   *    B56PP2Ap   ) *    D32p75   ) - (  krB56PP2Ap_D32p75   *    B56PP2Ap_D32p75   ))) ? evaluable
    r_r_53 = (  Spine   * (((  kfB72PP2A_D32p75   *    B72PP2A   ) *    D32p75   ) - (  krB72PP2A_D32p75   *    B72PP2A_D32p75   ))) ? evaluable
    r_r_54 = (  Spine   * (((  kfB72PP2ACa_D32p75   *    D32p75   ) *    B72PPA2Ca   ) - (  krB72PP2ACa_D32p75   *    B72PP2ACa_D32p75   ))) ? evaluable
    r_r_55 = (  Spine   * (((  kfPP2Bc_D32p34   *    D32p34   ) *    PP2Bc   ) - (  krPP2Bc_D32p34   *    PP2Bc_D32p34   ))) ? evaluable
    r_r_56 = (  Spine   * (((  kfPP2BCaM_2Ca   *    PP2BCaM   ) *    Ca   ) - (  krPP2BCaM_2Ca   *    PP2BCaMCa2   ))) ? evaluable
    r_r_57 = (  Spine   * (((  kfPP2BCaMCa2_2Ca   *    PP2BCaMCa2   ) *    Ca   ) - (  krPP2BCaMCa2_2Ca   *    PP2Bc   ))) ? evaluable
    r_r_58 = (  Spine   * (((  kfPP2B_CaMCa2   *    PP2B   ) *    CaMCa2   ) - (  krPP2B_CaMCa2   *    PP2BCaMCa2   ))) ? evaluable
    r_r_59 = (  Spine   * (((  kfB56PP2A_D32p75   *    D32p75   ) *    B56PP2A   ) - (  krB56PP2A_D32p75   *    B56PP2A_D32p75   ))) ? evaluable
    r_r_60 = (  Spine   * (((  kfB72PP2A_D32p34   *    D32p34   ) *    B72PPA2Ca   ) - (  krB72PP2A_D32p34   *    B72PP2ACa_D32p34   ))) ? evaluable
    r_r_61 = (  Spine   * (((  kfB72PP2A_D32p34   *    D32p34   ) *    B72PP2A   ) - (  krB72PP2A_D32p34   *    B72PP2A_D32p34   ))) ? evaluable
    r_ir_1 = ((  Spine   *   kGaolfGTPase  ) *    GaolfGTP   ) ? evaluable
    r_ir_2 = ((  Spine   *   kactGolf  ) *    D1RDAGolf   ) ? evaluable
    r_ir_3 = (((  Spine   *   kGolfback  ) *    GaolfGDP   ) *    Gbgolf   ) ? evaluable
    r_ir_4 = ((  Spine   *   kGiGTPase  ) *    GaiGTP   ) ? evaluable
    r_ir_5 = (((  Spine   *   kGiback  ) *    Gbgi   ) *    GaiGDP   ) ? evaluable
    r_ir_6 = ((  Spine   *   kactGi  ) *    M4RAChGi   ) ? evaluable
    r_ir_7 = ((  Spine   *   kcatAC5GaolfGTP_ATP  ) *    AC5GaolfGTP_ATP   ) ? evaluable
    r_ir_8 = (((  Spine   *   kicatAC5GaolfGTP_ATP  ) *    cAMP   ) *    AC5GaolfGTP   ) ? evaluable
    r_ir_9 = ((  Spine   *   kcatAC5_ATP  ) *    AC5_ATP   ) ? evaluable
    r_ir_10 = (((  Spine   *   kicatAC5_ATP  ) *    cAMP   ) *    AC5   ) ? evaluable
    r_ir_11 = ((  Spine   *   kcatAC5GaiGTP_ATP  ) *    AC5GaiGTP_ATP   ) ? evaluable
    r_ir_12 = (((  Spine   *   kicatAC5GaiGTP_ATP  ) *    cAMP   ) *    AC5GaiGTP   ) ? evaluable
    r_ir_13 = ((  Spine   *   kcatAC5GaolfGTPGaiGTP_ATP  ) *    AC5GaolfGTPGaiGTP_ATP   ) ? evaluable
    r_ir_14 = (((  Spine   *   kicatAC5GaolfGTPGaiGTP_ATP  ) *    cAMP   ) *    AC5GaolfGTPGaiGTP   ) ? evaluable
    r_ir_15 = ((  Spine   *   kcatAC5CaGaolfGTPGaiGTP_ATP  ) *    AC5CaGaolfGTPGaiGTP_ATP   ) ? evaluable
    r_ir_16 = (((  Spine   *   kicatAC5CaGaolfGTPGaiGTP_ATP  ) *    cAMP   ) *    AC5CaGaolfGTPGaiGTP   ) ? evaluable
    r_ir_17 = ((  Spine   *   kcatAC5CaGaiGTP_ATP  ) *    AC5CaGaiGTP_ATP   ) ? evaluable
    r_ir_18 = (((  Spine   *   kicatAC5CaGaiGTP_ATP  ) *    cAMP   ) *    AC5CaGaiGTP   ) ? evaluable
    r_ir_19 = ((  Spine   *   kcatAC5Ca_ATP  ) *    AC5Ca_ATP   ) ? evaluable
    r_ir_20 = (((  Spine   *   kicatAC5Ca_ATP  ) *    cAMP   ) *    AC5Ca   ) ? evaluable
    r_ir_21 = ((  Spine   *   kcatAC5CaGaolfGTP_ATP  ) *    AC5CaGaolfGTP_ATP   ) ? evaluable
    r_ir_22 = (((  Spine   *   kicatAC5CaGaolfGTP_ATP  ) *    cAMP   ) *    AC5CaGaolfGTP   ) ? evaluable
    r_ir_23 = ((  Spine   *   krgso  ) *    AC5GaolfGTP   ) ? evaluable
    r_ir_24 = ((  Spine   *   krgso  ) *    AC5CaGaolfGTP   ) ? evaluable
    r_ir_25 = ((  Spine   *   krgsi  ) *    AC5CaGaiGTP   ) ? evaluable
    r_ir_26 = ((  Spine   *   krgsi  ) *    AC5GaiGTP   ) ? evaluable
    r_ir_27 = ((  Spine   *   krgso  ) *    AC5GaolfGTPGaiGTP   ) ? evaluable
    r_ir_28 = ((  Spine   *   krgsi  ) *    AC5GaolfGTPGaiGTP   ) ? evaluable
    r_ir_29 = ((  Spine   *   krgso  ) *    AC5CaGaolfGTPGaiGTP   ) ? evaluable
    r_ir_30 = ((  Spine   *   krgsi  ) *    AC5CaGaolfGTPGaiGTP   ) ? evaluable
    r_ir_31 = ((  Spine   *   krgsi  ) *    AC5GaolfGTPGaiGTP_ATP   ) ? evaluable
    r_ir_32 = ((  Spine   *   krgsi  ) *    AC5GaiGTP_ATP   ) ? evaluable
    r_ir_33 = ((  Spine   *   krgso  ) *    AC5GaolfGTPGaiGTP_ATP   ) ? evaluable
    r_ir_34 = ((  Spine   *   krgso  ) *    AC5GaolfGTP_ATP   ) ? evaluable
    r_ir_35 = ((  Spine   *   krgso  ) *    AC5CaGaolfGTP_ATP   ) ? evaluable
    r_ir_36 = ((  Spine   *   krgsi  ) *    AC5CaGaolfGTPGaiGTP_ATP   ) ? evaluable
    r_ir_37 = ((  Spine   *   krgsi  ) *    AC5CaGaiGTP_ATP   ) ? evaluable
    r_ir_38 = ((  Spine   *   krgso  ) *    AC5CaGaolfGTPGaiGTP_ATP   ) ? evaluable
    r_ir_39 = ((  Spine   *   kcatPDE4_cAMP  ) *    PDE4_cAMP   ) ? evaluable
    r_ir_40 = ((  Spine   *   kcatcAMP_PDE10  ) *    PDE10_cAMP   ) ? evaluable
    r_ir_41 = ((  Spine   *   kcatPDE10c_cAMP  ) *    PDE10c_cAMP   ) ? evaluable
    r_ir_42 = ((  Spine   *   kcatPKAc_D32  ) *    PKAc_D32   ) ? evaluable
    r_ir_43 = ((  Spine   *   kcatPKAc_B56PP2A  ) *    PKAc_B56PP2A   ) ? evaluable
    r_ir_44 = ((  Spine   *   kcatCDK5_D32  ) *    CDK5_D32   ) ? evaluable
    r_ir_45 = ((  Spine   *   kcatB56PP2Ap_D32p75  ) *    B56PP2Ap_D32p75   ) ? evaluable
    r_ir_46 = ((  Spine   *   kcatB72PP2A_D32p75  ) *    B72PP2A_D32p75   ) ? evaluable
    r_ir_47 = ((  Spine   *   kcatB72PP2ACa_D32p75  ) *    B72PP2ACa_D32p75   ) ? evaluable
    r_ir_48 = ((  Spine   *   kcatB56PP2A_D32p75  ) *    B56PP2A_D32p75   ) ? evaluable
    r_ir_49 = ((  Spine   *   kcatB72PP2A_D32p34  ) *    B72PP2ACa_D32p34   ) ? evaluable
    r_ir_50 = ((  Spine   *   kcatB72PP2A_D32p34  ) *    B72PP2A_D32p34   ) ? evaluable
    r_ir_51 = ((  Spine   *   kcatPP2Bc_D32p34  ) *    PP2Bc_D32p34   ) ? evaluable
    r_ir_52 = ((  Spine   *   kdpB56PP2Ap  ) *    B56PP2Ap   ) ? evaluable
    rate_PP2Bc = tscale  * (  r_r_45   -  r_r_55  +  r_r_57  +   r_ir_51  ) /  Spine ? Note units of all quantities used here need to be consistent!
    rate_AC5GaolfGTP = tscale  * (  r_r_9   -  r_r_14  -  r_r_20  +  r_ir_7  -  r_ir_8  -  r_ir_23  +   r_ir_28  ) /  Spine ? Note units of all quantities used here need to be consistent!
    rate_PP2B = tscale  * (-1*  r_r_44   -  r_r_45  -   r_r_58  ) /  Spine ? Note units of all quantities used here need to be consistent!
    rate_AC5CaGaolfGTPGaiGTP = tscale  * (  r_r_15   +  r_r_17  -  r_r_25  +  r_ir_15  -  r_ir_16  -  r_ir_29  -   r_ir_30  ) /  Spine ? Note units of all quantities used here need to be consistent!
    rate_B56PP2A_D32p75 = tscale  * (  r_r_59   -   r_ir_48  ) /  Spine ? Note units of all quantities used here need to be consistent!
    rate_AC5CaGaiGTP = tscale  * (  r_r_12   -  r_r_17  -  r_r_24  +  r_ir_17  -  r_ir_18  -  r_ir_25  +   r_ir_29  ) /  Spine ? Note units of all quantities used here need to be consistent!
    rate_PP1 = tscale  * (-1*  r_r_48  ) /  Spine ? Note units of all quantities used here need to be consistent!
    rate_PDE4 = tscale  * (-1*  r_r_38   +   r_ir_39  ) /  Spine ? Note units of all quantities used here need to be consistent!
    rate_AC5CaGaolfGTP_ATP = tscale  * (  r_r_23   +  r_r_29  -  r_r_34  -  r_ir_21  +  r_ir_22  -  r_ir_35  +   r_ir_36  ) /  Spine ? Note units of all quantities used here need to be consistent!
    rate_PKAreg = tscale  * (  r_r_37  ) /  Spine ? Note units of all quantities used here need to be consistent!
    rate_AC5 = tscale  * (-1*  r_r_9   -  r_r_10  -  r_r_13  -  r_r_21  +  r_ir_9  -  r_ir_10  +  r_ir_23  +   r_ir_26  ) /  Spine ? Note units of all quantities used here need to be consistent!
    rate_B72PP2A_D32p75 = tscale  * (  r_r_53   -   r_ir_46  ) /  Spine ? Note units of all quantities used here need to be consistent!
    rate_GaolfGTP = tscale  * (-1*  r_r_9   -  r_r_11  -  r_r_16  -  r_r_17  -  r_r_26  -  r_r_27  -  r_r_28  -  r_r_29  -  r_ir_1  +   r_ir_2  ) /  Spine ? Note units of all quantities used here need to be consistent!
    rate_AC5Ca = tscale  * (  r_r_10   -  r_r_11  -  r_r_12  -  r_r_22  +  r_ir_19  -  r_ir_20  +  r_ir_24  +   r_ir_25  ) /  Spine ? Note units of all quantities used here need to be consistent!
    rate_PKAcAMP4 = tscale  * (  r_r_36   -   r_r_37  ) /  Spine ? Note units of all quantities used here need to be consistent!
    rate_PDE10 = tscale  * (-1*  r_r_39   -  r_r_40  +   r_ir_40  ) /  Spine ? Note units of all quantities used here need to be consistent!
    rate_AC5GaiGTP = tscale  * (  r_r_13   -  r_r_16  -  r_r_19  +  r_ir_11  -  r_ir_12  -  r_ir_26  +   r_ir_27  ) /  Spine ? Note units of all quantities used here need to be consistent!
    rate_CDK5 = tscale  * (-1*  r_r_49   +   r_ir_44  ) /  Spine ? Note units of all quantities used here need to be consistent!
    rate_B56PP2A = tscale  * (-1*  r_r_47   -  r_r_59  +  r_ir_48  +   r_ir_52  ) /  Spine ? Note units of all quantities used here need to be consistent!
    rate_M4R = tscale  * (-1*  r_r_5   -   r_r_8  ) /  Spine ? Note units of all quantities used here need to be consistent!
    rate_PKAcD32p75 = tscale  * (  r_r_50  ) /  Spine ? Note units of all quantities used here need to be consistent!
    rate_D1R = tscale  * (-1*  r_r_3   -   r_r_4  ) /  Spine ? Note units of all quantities used here need to be consistent!
    rate_AC5GaolfGTPGaiGTP = tscale  * (  r_r_14   +  r_r_16  -  r_r_18  +  r_ir_13  -  r_ir_14  -  r_ir_27  -   r_ir_28  ) /  Spine ? Note units of all quantities used here need to be consistent!
    rate_Golf = tscale  * (-1*  r_r_2   -  r_r_3  +   r_ir_3  ) /  Spine ? Note units of all quantities used here need to be consistent!
    rate_PKAc = tscale  * (  r_r_37   -  r_r_46  -  r_r_47  -  r_r_50  +  r_ir_42  +   r_ir_43  ) /  Spine ? Note units of all quantities used here need to be consistent!
    rate_PP1D32p34 = tscale  * (  r_r_48  ) /  Spine ? Note units of all quantities used here need to be consistent!
    rate_AC5Ca_ATP = tscale  * (  r_r_22   -  r_r_29  +  r_r_30  -  r_r_33  -  r_ir_19  +  r_ir_20  +  r_ir_35  +   r_ir_37  ) /  Spine ? Note units of all quantities used here need to be consistent!
    rate_PKAcAMP2 = tscale  * (  r_r_35   -   r_r_36  ) /  Spine ? Note units of all quantities used here need to be consistent!
    rate_CaMCa4 = tscale  * (  r_r_43   -   r_r_45  ) /  Spine ? Note units of all quantities used here need to be consistent!
    rate_PP2BCaM = tscale  * (  r_r_44   -   r_r_56  ) /  Spine ? Note units of all quantities used here need to be consistent!
    rate_D1RGolf = tscale  * (-1*  r_r_1   +   r_r_3  ) /  Spine ? Note units of all quantities used here need to be consistent!
    rate_AC5_ATP = tscale  * (  r_r_21   -  r_r_28  -  r_r_30  -  r_r_31  -  r_ir_9  +  r_ir_10  +  r_ir_32  +   r_ir_34  ) /  Spine ? Note units of all quantities used here need to be consistent!
    rate_CaMCa2 = tscale  * (  r_r_42   -  r_r_43  -   r_r_58  ) /  Spine ? Note units of all quantities used here need to be consistent!
    rate_Gbgolf = tscale  * (  r_ir_2   -   r_ir_3  ) /  Spine ? Note units of all quantities used here need to be consistent!
    rate_Gi = tscale  * (-1*  r_r_5   -  r_r_6  +   r_ir_5  ) /  Spine ? Note units of all quantities used here need to be consistent!
    rate_PP2BCaMCa2 = tscale  * (  r_r_56   -  r_r_57  +   r_r_58  ) /  Spine ? Note units of all quantities used here need to be consistent!
    rate_B72PP2ACa_D32p34 = tscale  * (  r_r_60   -   r_ir_49  ) /  Spine ? Note units of all quantities used here need to be consistent!
    rate_PDE4_cAMP = tscale  * (  r_r_38   -   r_ir_39  ) /  Spine ? Note units of all quantities used here need to be consistent!
    rate_D32p75 = tscale  * (-1*  r_r_50   -  r_r_52  -  r_r_53  -  r_r_54  -  r_r_59  +   r_ir_44  ) /  Spine ? Note units of all quantities used here need to be consistent!
    rate_AC5CaGaiGTP_ATP = tscale  * (  r_r_24   -  r_r_27  +  r_r_33  -  r_ir_17  +  r_ir_18  -  r_ir_37  +   r_ir_38  ) /  Spine ? Note units of all quantities used here need to be consistent!
    rate_AC5GaolfGTP_ATP = tscale  * (  r_r_20   +  r_r_28  -  r_r_32  -  r_ir_7  +  r_ir_8  +  r_ir_31  -   r_ir_34  ) /  Spine ? Note units of all quantities used here need to be consistent!
    rate_PP2Bc_D32p34 = tscale  * (  r_r_55   -   r_ir_51  ) /  Spine ? Note units of all quantities used here need to be consistent!
    rate_PKAc_B56PP2A = tscale  * (  r_r_47   -   r_ir_43  ) /  Spine ? Note units of all quantities used here need to be consistent!
    rate_B72PPA2Ca = tscale  * (  r_r_51   -  r_r_54  -  r_r_60  +  r_ir_47  +   r_ir_49  ) /  Spine ? Note units of all quantities used here need to be consistent!
    rate_GaolfGDP = tscale  * (  r_ir_1   -  r_ir_3  +  r_ir_23  +  r_ir_24  +  r_ir_27  +  r_ir_29  +  r_ir_33  +  r_ir_34  +  r_ir_35  +   r_ir_38  ) /  Spine ? Note units of all quantities used here need to be consistent!
    rate_AC5CaGaolfGTPGaiGTP_ATP = tscale  * (  r_r_25   +  r_r_27  +  r_r_34  -  r_ir_15  +  r_ir_16  -  r_ir_36  -   r_ir_38  ) /  Spine ? Note units of all quantities used here need to be consistent!
    rate_CaM = tscale  * (-1*  r_r_42   -   r_r_44  ) /  Spine ? Note units of all quantities used here need to be consistent!
    rate_DARPP32 = tscale  * (-1*  r_r_46   -  r_r_49  +  r_ir_45  +  r_ir_46  +  r_ir_47  +  r_ir_48  +  r_ir_49  +  r_ir_50  +   r_ir_51  ) /  Spine ? Note units of all quantities used here need to be consistent!
    rate_GaiGDP = tscale  * (  r_ir_4   -  r_ir_5  +  r_ir_25  +  r_ir_26  +  r_ir_28  +  r_ir_30  +  r_ir_31  +  r_ir_32  +  r_ir_36  +   r_ir_37  ) /  Spine ? Note units of all quantities used here need to be consistent!
    rate_Gbgi = tscale  * (-1*  r_ir_5   +   r_ir_6  ) /  Spine ? Note units of all quantities used here need to be consistent!
    rate_M4RGi = tscale  * (  r_r_5   -   r_r_7  ) /  Spine ? Note units of all quantities used here need to be consistent!
    rate_cAMP = tscale  * (-1*  r_r_35   -  r_r_36  -  r_r_38  -  r_r_39  * 2.0 -  r_r_40  -  r_r_41  +  r_ir_7  -  r_ir_8  +  r_ir_9  -  r_ir_10  +  r_ir_11  -  r_ir_12  +  r_ir_13  -  r_ir_14  +  r_ir_15  -  r_ir_16  +  r_ir_17  -  r_ir_18  +  r_ir_19  -  r_ir_20  +  r_ir_21  -   r_ir_22  ) /  Spine ? Note units of all quantities used here need to be consistent!
    rate_PDE10_cAMP = tscale  * (  r_r_40   -   r_ir_40  ) /  Spine ? Note units of all quantities used here need to be consistent!
    rate_PDE10c = tscale  * (  r_r_39   -  r_r_41  +   r_ir_41  ) /  Spine ? Note units of all quantities used here need to be consistent!
    rate_B72PP2A_D32p34 = tscale  * (  r_r_61   -   r_ir_50  ) /  Spine ? Note units of all quantities used here need to be consistent!
    rate_PDE10c_cAMP = tscale  * (  r_r_41   -   r_ir_41  ) /  Spine ? Note units of all quantities used here need to be consistent!
    rate_GaiGTP = tscale  * (-1*  r_r_12   -  r_r_13  -  r_r_14  -  r_r_15  -  r_r_31  -  r_r_32  -  r_r_33  -  r_r_34  -  r_ir_4  +   r_ir_6  ) /  Spine ? Note units of all quantities used here need to be consistent!
    rate_CDK5_D32 = tscale  * (  r_r_49   -   r_ir_44  ) /  Spine ? Note units of all quantities used here need to be consistent!
    rate_B56PP2Ap = tscale  * (-1*  r_r_52   +  r_ir_43  +  r_ir_45  -   r_ir_52  ) /  Spine ? Note units of all quantities used here need to be consistent!
    rate_M4RACh = tscale  * (-1*  r_r_6   +  r_r_8  +   r_ir_6  ) /  Spine ? Note units of all quantities used here need to be consistent!
    rate_B72PP2ACa_D32p75 = tscale  * (  r_r_54   -   r_ir_47  ) /  Spine ? Note units of all quantities used here need to be consistent!
    rate_D1RDA = tscale  * (-1*  r_r_2   +  r_r_4  +   r_ir_2  ) /  Spine ? Note units of all quantities used here need to be consistent!
    rate_AC5GaiGTP_ATP = tscale  * (  r_r_19   -  r_r_26  +  r_r_31  -  r_ir_11  +  r_ir_12  -  r_ir_32  +   r_ir_33  ) /  Spine ? Note units of all quantities used here need to be consistent!
    rate_PKA = tscale  * (-1*  r_r_35  ) /  Spine ? Note units of all quantities used here need to be consistent!
    rate_PKAc_D32 = tscale  * (  r_r_46   -   r_ir_42  ) /  Spine ? Note units of all quantities used here need to be consistent!
    rate_B72PP2A = tscale  * (-1*  r_r_51   -  r_r_53  -  r_r_61  +  r_ir_46  +   r_ir_50  ) /  Spine ? Note units of all quantities used here need to be consistent!
    rate_AC5GaolfGTPGaiGTP_ATP = tscale  * (  r_r_18   +  r_r_26  +  r_r_32  -  r_ir_13  +  r_ir_14  -  r_ir_31  -   r_ir_33  ) /  Spine ? Note units of all quantities used here need to be consistent!
    rate_D32p34 = tscale  * (-1*  r_r_48   -  r_r_55  -  r_r_60  -  r_r_61  +   r_ir_42  ) /  Spine ? Note units of all quantities used here need to be consistent!
    rate_AC5CaGaolfGTP = tscale  * (  r_r_11   -  r_r_15  -  r_r_23  +  r_ir_21  -  r_ir_22  -  r_ir_24  +   r_ir_30  ) /  Spine ? Note units of all quantities used here need to be consistent!
    rate_D1RDAGolf = tscale  * (  r_r_1   +  r_r_2  -   r_ir_2  ) /  Spine ? Note units of all quantities used here need to be consistent!
    rate_M4RAChGi = tscale  * (  r_r_6   +  r_r_7  -   r_ir_6  ) /  Spine ? Note units of all quantities used here need to be consistent!
    rate_B56PP2Ap_D32p75 = tscale  * (  r_r_52   -   r_ir_45  ) /  Spine ? Note units of all quantities used here need to be consistent!
    
     
    
}

