TITLE Mod file for component: Component(id=D1_speedy_cascade_0 type=D1_speedy_cascade)

COMMENT

    This NEURON file has been generated by org.neuroml.export (see https://github.com/NeuroML/org.neuroml.export)
         org.neuroml.export  v1.4.2
         org.neuroml.model   v1.4.2
         jLEMS               v0.9.7.3

ENDCOMMENT

NEURON {
    POINT_PROCESS D1_speedy_cascade_0
    RANGE krPP2B_CaMCa2: parameter
    RANGE kfPP2B_CaMCa2: parameter
    RANGE krPP2BCaMCa2_2Ca: parameter
    RANGE kfPP2BCaMCa2_2Ca: parameter
    RANGE krPP2BCaM_2Ca: parameter
    RANGE kfPP2BCaM_2Ca: parameter
    RANGE kfPP1_D32p34: parameter
    RANGE krPP1_D32p34: parameter
    RANGE kfPP2B_CaMCa4: parameter
    RANGE krPP2B_CaMCa4: parameter
    RANGE kfB72PP2A_Ca: parameter
    RANGE krB72PP2A_Ca: parameter
    RANGE kfPP2B_CaM: parameter
    RANGE krPP2B_CaM: parameter
    RANGE kcatPKAc_D32: parameter
    RANGE kGaolfGTPase: parameter
    RANGE kfPP2Bc_D32p34: parameter
    RANGE krPP2Bc_D32p34: parameter
    RANGE kfB56PP2A_D32p75: parameter
    RANGE krB56PP2A_D32p75: parameter
    RANGE kfB56PP2Ap_D32p75: parameter
    RANGE krB56PP2Ap_D32p75: parameter
    RANGE kcatB56PP2Ap_D32p75: parameter
    RANGE kcatB56PP2A_D32p75: parameter
    RANGE kcatB72PP2ACa_D32p75: parameter
    RANGE kcatB72PP2A_D32p75: parameter
    RANGE kfB72PP2A_D32p75: parameter
    RANGE krB72PP2A_D32p75: parameter
    RANGE kfB72PP2ACa_D32p75: parameter
    RANGE krB72PP2ACa_D32p75: parameter
    RANGE kcatPP2Bc_D32p34: parameter
    RANGE kcatCDK5_D32: parameter
    RANGE kfPKA_2cAMP: parameter
    RANGE krPKA_2cAMP: parameter
    RANGE krPKAc_PKAr: parameter
    RANGE kfPKAc_PKAr: parameter
    RANGE kfPKA2cAMP_2cAMP: parameter
    RANGE krPKA2cAMP_2cAMP: parameter
    RANGE kfCDK5_D32: parameter
    RANGE krCDK5_D32: parameter
    RANGE kactGolf: parameter
    RANGE kcatPDE4_cAMP: parameter
    RANGE kfPKAc_D32: parameter
    RANGE krPKAc_D32: parameter
    RANGE kfPDE4_cAMP: parameter
    RANGE krPDE4_cAMP: parameter
    RANGE krPDE10_cAMP: parameter
    RANGE kcatPDE10c_cAMP: parameter
    RANGE kfPDE10_cAMP: parameter
    RANGE kfcAMP_PDE10: parameter
    RANGE krcAMP_PDE10: parameter
    RANGE kcatcAMP_PDE10: parameter
    RANGE kcatAC5GaolfGTP_ATP: parameter
    RANGE kicatAC5GaolfGTP_ATP: parameter
    RANGE kcatAC5_ATP: parameter
    RANGE kicatAC5_ATP: parameter
    RANGE kcatAC5Ca_ATP: parameter
    RANGE kicatAC5Ca_ATP: parameter
    RANGE kcatAC5CaGaolfGTP_ATP: parameter
    RANGE kicatAC5CaGaolfGTP_ATP: parameter
    RANGE kfAC5_ATP: parameter
    RANGE kfAC5CaGaolfGTP_ATP: parameter
    RANGE kfCaM_2Ca: parameter
    RANGE kGolfback: parameter
    RANGE krCaM_2Ca: parameter
    RANGE kdpB56PP2Ap: parameter
    RANGE krCaMCa2_2Ca: parameter
    RANGE krPKAc_D32p75: parameter
    RANGE kfPKAc_B56PP2A: parameter
    RANGE krPKAc_B56PP2A: parameter
    RANGE kfCaMCa2_2Ca: parameter
    RANGE kcatPKAc_B56PP2A: parameter
    RANGE kfPKAc_D32p75: parameter
    RANGE kfAC5GaolfGTP_ATP: parameter
    RANGE kfAC5Ca_ATP: parameter
    RANGE kfD1R_Golf: parameter
    RANGE krD1R_Golf: parameter
    RANGE kfD1RDA_Golf: parameter
    RANGE krD1RDA_Golf: parameter
    RANGE kfB72PP2A_D32p34: parameter
    RANGE krB72PP2A_D32p34: parameter
    RANGE krAC5X_ATP: parameter
    RANGE kcatB72PP2A_D32p34: parameter
    RANGE kfAC5XGaolfGTP: parameter
    RANGE kfAC5Ca: parameter
    RANGE krAC5XGaolfGTP: parameter
    RANGE krAC5Ca: parameter
    RANGE krgso: parameter
    RANGE kfPDE10c_cAMP: parameter
    RANGE krPDE10c_cAMP: parameter
    RANGE kfD1R_DA: parameter
    RANGE kfD1RGolf_DA: parameter
    RANGE krD1R_DA: parameter
    RANGE krD1RGolf_DA: parameter
    RANGE kfCaMKII_CaMCa4: parameter
    RANGE krCaMKII_CaMCa4: parameter
    RANGE kfCaMKII_CaMCa2: parameter
    RANGE krCaMKII_CaMCa2: parameter
    RANGE kfCaMKII_CaM: parameter
    RANGE krCaMKII_CaM: parameter
    RANGE kfCaMKIICaM_2Ca: parameter
    RANGE krCaMKIICaM_2Ca: parameter
    RANGE kfCaMKIICaMCa2_2Ca: parameter
    RANGE krCaMKIICaMCa2_2Ca: parameter
    RANGE kfpCaMKII_CaM: parameter
    RANGE krpCaMKII_CaM: parameter
    RANGE kfpCaMKII_CaMCa2: parameter
    RANGE krpCaMKII_CaMCa2: parameter
    RANGE kfpCaMKII_CaMCa4: parameter
    RANGE krpCaMKII_CaMCa4: parameter
    RANGE kfpCaMKIICaM_2Ca: parameter
    RANGE krpCaMKIICaM_2Ca: parameter
    RANGE kfpCaMKIICaMCa2_2Ca: parameter
    RANGE krpCaMKIICaMCa2_2Ca: parameter
    RANGE kpCaMKIIc: parameter
    RANGE kfPP2A_pARPP21: parameter
    RANGE krPP2A_pARPP21: parameter
    RANGE kcatPP2A_pARPP21: parameter
    RANGE kfPP2Ac_pARPP21: parameter
    RANGE krPP2Ac_pARPP21: parameter
    RANGE kcatPP2Ac_pARPP21: parameter
    RANGE kcatPP1_pSubstrate: parameter
    RANGE kfPP1_pSubstrate: parameter
    RANGE krPP1_pSubstrate: parameter
    RANGE kfPKAc_ARPP21: parameter
    RANGE krPKAc_ARPP21: parameter
    RANGE kcatPKAc_ARPP21: parameter
    RANGE kfCaMCa4_pARPP21: parameter
    RANGE krCaMCa4_pARPP21: parameter
    RANGE kdppCaMKII: parameter
    RANGE kfpCaMKII_Substrate: parameter
    RANGE krpCaMKII_Substrate: parameter
    RANGE kcatpCaMKII_Substrate: parameter
    RANGE kftranspCaMKII: parameter
    RANGE krtranspCaMKII: parameter
    RANGE kfPP1_pCaMKIIpsd: parameter
    RANGE krPP1_pCaMKIIpsd: parameter
    RANGE ktransCaMKII: parameter
    RANGE kftransCaMKII: parameter
    RANGE krtransCaMKII: parameter
    RANGE max_CaMKII_phosphorate            : parameter
    RANGE kcatPP1_pCaMKIIpsd                : parameter
    RANGE tscale                            : parameter
    RANGE Spine: parameter
    RANGE init_GaolfGDP: parameter
    RANGE init_Gbgolf: parameter
    RANGE init_GaolfGTP: parameter
    RANGE init_D1RDAGolf: parameter
    RANGE init_Golf: parameter
    RANGE init_D1RGolf: parameter
    RANGE init_D1RDA: parameter
    RANGE init_D1R: parameter
    RANGE init_cAMP: parameter
    RANGE init_Ca: parameter
    RANGE init_AC5: parameter
    RANGE init_AC5GaolfGTP: parameter
    RANGE init_CaM: parameter
    RANGE init_CaMCa2: parameter
    RANGE init_CaMCa4: parameter
    RANGE init_PDE4: parameter
    RANGE init_PKA: parameter
    RANGE init_PKAcAMP2: parameter
    RANGE init_PKAcAMP4: parameter
    RANGE init_PKAreg: parameter
    RANGE init_PKAc: parameter
    RANGE init_PP2B: parameter
    RANGE init_PP2Bc: parameter
    RANGE init_PP2BCaM: parameter
    RANGE init_PP2BCaMCa2: parameter
    RANGE init_DARPP32: parameter
    RANGE init_PKAc_D32: parameter
    RANGE init_D32p34: parameter
    RANGE init_B72PP2A: parameter
    RANGE init_PKAc_B56PP2A: parameter
    RANGE init_B56PP2Ap: parameter
    RANGE init_CDK5: parameter
    RANGE init_PP1: parameter
    RANGE init_CDK5_D32: parameter
    RANGE init_D32p75: parameter
    RANGE init_PKAcD32p75: parameter
    RANGE init_B72PPA2Ca: parameter
    RANGE init_B56PP2Ap_D32p75: parameter
    RANGE init_B72PP2A_D32p75: parameter
    RANGE init_B72PP2ACa_D32p75: parameter
    RANGE init_PP1D32p34: parameter
    RANGE init_PP2Bc_D32p34: parameter
    RANGE init_B72PP2A_D32p34: parameter
    RANGE init_DA: parameter
    RANGE init_AMP: parameter
    RANGE init_AC5Ca: parameter
    RANGE init_AC5CaGaolfGTP: parameter
    RANGE init_B56PP2A: parameter
    RANGE init_B56PP2A_D32p75: parameter
    RANGE init_B72PP2ACa_D32p34: parameter
    RANGE init_PDE4_cAMP: parameter
    RANGE init_PDE10c: parameter
    RANGE init_PDE10: parameter
    RANGE init_PDE10_cAMP: parameter
    RANGE init_PDE10c_cAMP: parameter
    RANGE init_ATP: parameter
    RANGE init_AC5GaolfGTP_ATP: parameter
    RANGE init_AC5_ATP: parameter
    RANGE init_AC5CaGaolfGTP_ATP: parameter
    RANGE init_AC5Ca_ATP: parameter
    RANGE init_PP1_AKAR3p: parameter
    RANGE init_PKAc_AKAR3: parameter
    RANGE init_CaMKII: parameter
    RANGE init_CaMKIIc: parameter
    RANGE init_CaMKIICaMCa2: parameter
    RANGE init_CaMKIICaM: parameter
    RANGE init_pCaMKIIc: parameter
    RANGE init_pCaMKII: parameter
    RANGE init_pCaMKIICaMCa2: parameter
    RANGE init_pCaMKIICaM: parameter
    RANGE init_pARPP21: parameter
    RANGE init_ARPP21: parameter
    RANGE init_pSubstrate: parameter
    RANGE init_Substrate: parameter
    RANGE init_PP1_pSubstrate: parameter
    RANGE init_pCaMKIIcpsd: parameter
    RANGE init_pCaMKIICaMCa2psd: parameter
    RANGE init_pCaMKIICaMpsd: parameter
    RANGE init_pCaMKIIpsd: parameter
    RANGE init_PP1_pCaMKIIpsd: parameter
    RANGE init_CaMKIIpsd: parameter
    RANGE init_totalActCaMKIIpsd: parameter
    RANGE init_CaMKIICaMpsd: parameter
    RANGE init_CaMKIICaMCa2psd: parameter
    RANGE init_CaMKIIcpsd: parameter
    RANGE init_PKAc_ARPP21                  : parameter
    RANGE init_CaMCa4pARPP21                : parameter
    RANGE init_B72PPA2Ca_pARPP21            : parameter
    RANGE init_B72PP2A_pARPP21              : parameter
    RANGE init_B56PP2Ap_pARPP21             : parameter
    RANGE init_B56PP2A_pARPP21              : parameter
    RANGE init_totalpCaMKIIpsd_Substrate    : parameter
    RANGE init_totalCaMKII                  : parameter
    RANGE init_totalActiveFreeCaMKII        : parameter
    RANGE totalActCaMKIIpsd: derived variable
    RANGE totalCaMKII                       : derived variable
    RANGE totalActiveFreeCaMKII             : derived variable
    RANGE r_r_1               : derived variable
    RANGE r_r_2               : derived variable
    RANGE r_r_3               : derived variable
    RANGE r_r_4               : derived variable
    RANGE r_r_5               : derived variable
    RANGE r_r_6               : derived variable
    RANGE r_r_7               : derived variable
    RANGE r_r_8               : derived variable
    RANGE r_r_9               : derived variable
    RANGE r_r_10              : derived variable
    RANGE r_r_11              : derived variable
    RANGE r_r_12              : derived variable
    RANGE r_r_13              : derived variable
    RANGE r_r_14              : derived variable
    RANGE r_r_15              : derived variable
    RANGE r_r_16              : derived variable
    RANGE r_r_17              : derived variable
    RANGE r_r_18              : derived variable
    RANGE r_r_19              : derived variable
    RANGE r_r_20              : derived variable
    RANGE r_r_21              : derived variable
    RANGE r_r_22              : derived variable
    RANGE r_r_23              : derived variable
    RANGE r_r_24              : derived variable
    RANGE r_r_25              : derived variable
    RANGE r_r_26              : derived variable
    RANGE r_r_27              : derived variable
    RANGE r_r_28              : derived variable
    RANGE r_r_29              : derived variable
    RANGE r_r_30              : derived variable
    RANGE r_r_31              : derived variable
    RANGE r_r_32              : derived variable
    RANGE r_r_33              : derived variable
    RANGE r_r_34              : derived variable
    RANGE r_r_35              : derived variable
    RANGE r_r_36              : derived variable
    RANGE r_r_37              : derived variable
    RANGE r_r_38              : derived variable
    RANGE r_r_39              : derived variable
    RANGE r_r_40              : derived variable
    RANGE r_r_41              : derived variable
    RANGE r_r_42              : derived variable
    RANGE r_r_43              : derived variable
    RANGE r_r_44              : derived variable
    RANGE r_r_45              : derived variable
    RANGE r_r_46              : derived variable
    RANGE r_r_47              : derived variable
    RANGE r_r_48              : derived variable
    RANGE r_r_49              : derived variable
    RANGE r_r_50              : derived variable
    RANGE r_r_51              : derived variable
    RANGE r_r_52              : derived variable
    RANGE r_r_53              : derived variable
    RANGE r_r_54              : derived variable
    RANGE r_r_55              : derived variable
    RANGE r_r_56              : derived variable
    RANGE r_r_57              : derived variable
    RANGE r_r_58              : derived variable
    RANGE r_r_59              : derived variable
    RANGE r_r_60              : derived variable
    RANGE r_r_61              : derived variable
    RANGE r_r_62              : derived variable
    RANGE r_r_63              : derived variable
    RANGE r_r_64              : derived variable
    RANGE r_r_65              : derived variable
    RANGE r_r_66              : derived variable
    RANGE r_r_67              : derived variable
    RANGE r_r_68              : derived variable
    RANGE r_r_69              : derived variable
    RANGE r_r_70              : derived variable
    RANGE r_r_71              : derived variable
    RANGE r_r_72              : derived variable
    RANGE r_r_73              : derived variable
    RANGE r_r_74              : derived variable
    RANGE r_r_75              : derived variable
    RANGE r_r_76              : derived variable
    RANGE r_r_77              : derived variable
    RANGE r_ir_1             : derived variable
    RANGE r_ir_2             : derived variable
    RANGE r_ir_3             : derived variable
    RANGE r_ir_4             : derived variable
    RANGE r_ir_5             : derived variable
    RANGE r_ir_6             : derived variable
    RANGE r_ir_7             : derived variable
    RANGE r_ir_8             : derived variable
    RANGE r_ir_9             : derived variable
    RANGE r_ir_10            : derived variable
    RANGE r_ir_11            : derived variable
    RANGE r_ir_12            : derived variable
    RANGE r_ir_13            : derived variable
    RANGE r_ir_14            : derived variable
    RANGE r_ir_15            : derived variable
    RANGE r_ir_16            : derived variable
    RANGE r_ir_17            : derived variable
    RANGE r_ir_18            : derived variable
    RANGE r_ir_19            : derived variable
    RANGE r_ir_20            : derived variable
    RANGE r_ir_21            : derived variable
    RANGE r_ir_22            : derived variable
    RANGE r_ir_23            : derived variable
    RANGE r_ir_24            : derived variable
    RANGE r_ir_25            : derived variable
    RANGE r_ir_26            : derived variable
    RANGE r_ir_27            : derived variable
    RANGE r_ir_28            : derived variable
    RANGE r_ir_29            : derived variable
    RANGE r_ir_30            : derived variable
    RANGE r_ir_31            : derived variable
    RANGE r_ir_32            : derived variable
    RANGE r_ir_33            : derived variable
    RANGE r_ir_34            : derived variable
    RANGE r_ir_35            : derived variable
    RANGE r_ir_36            : derived variable
    RANGE r_ir_37            : derived variable
    RANGE r_ir_38            : derived variable
    RANGE r_ir_39            : derived variable
    RANGE r_ir_40            : derived variable
    RANGE r_ir_41            : derived variable
    
}

UNITS {
    
    (nA) = (nanoamp)
    (uA) = (microamp)
    (mA) = (milliamp)
    (A) = (amp)
    (mV) = (millivolt)
    (mS) = (millisiemens)
    (uS) = (microsiemens)
    (molar) = (1/liter)
    (kHz) = (kilohertz)
    (mM) = (millimolar)
    (um) = (micrometer)
    (umol) = (micromole)
    (S) = (siemens)
    
}

PARAMETER {
    
    krPP2B_CaMCa2 = 0.03 
    kfPP2B_CaMCa2 = 0.1 
    krPP2BCaMCa2_2Ca = 100 
    kfPP2BCaMCa2_2Ca = 0.1 
    krPP2BCaM_2Ca = 2.0E-4 
    kfPP2BCaM_2Ca = 0.006 
    kfPP1_D32p34 = 1 
    krPP1_D32p34 = 1.5 
    kfPP2B_CaMCa4 = 0.1 
    krPP2B_CaMCa4 = 0.003 
    kfB72PP2A_Ca = 0.01 
    krB72PP2A_Ca = 10 
    kfPP2B_CaM = 0.1 
    krPP2B_CaM = 3000 
    kcatPKAc_D32 = 10 
    kGaolfGTPase = 30 
    kfPP2Bc_D32p34 = 1.3 
    krPP2Bc_D32p34 = 0.1 
    kfB56PP2A_D32p75 = 0.008 
    krB56PP2A_D32p75 = 100 
    kfB56PP2Ap_D32p75 = 0.015 
    krB56PP2Ap_D32p75 = 100 
    kcatB56PP2Ap_D32p75 = 8 
    kcatB56PP2A_D32p75 = 1.5 
    kcatB72PP2ACa_D32p75 = 8 
    kcatB72PP2A_D32p75 = 1.5 
    kfB72PP2A_D32p75 = 0.008 
    krB72PP2A_D32p75 = 100 
    kfB72PP2ACa_D32p75 = 0.015 
    krB72PP2ACa_D32p75 = 100 
    kcatPP2Bc_D32p34 = 1.2 
    kcatCDK5_D32 = 10 
    kfPKA_2cAMP = 0.026 
    krPKA_2cAMP = 350 
    krPKAc_PKAr = 50 
    kfPKAc_PKAr = 0.03 
    kfPKA2cAMP_2cAMP = 0.0346 
    krPKA2cAMP_2cAMP = 50 
    kfCDK5_D32 = 0.001 
    krCDK5_D32 = 100 
    kactGolf = 15 
    kcatPDE4_cAMP = 2.5 
    kfPKAc_D32 = 0.01 
    krPKAc_D32 = 200 
    kfPDE4_cAMP = 0.03 
    krPDE4_cAMP = 1 
    krPDE10_cAMP = 1 
    kcatPDE10c_cAMP = 10 
    kfPDE10_cAMP = 1.0E-6 
    kfcAMP_PDE10 = 0.1 
    krcAMP_PDE10 = 2 
    kcatcAMP_PDE10 = 3 
    kcatAC5GaolfGTP_ATP = 50 
    kicatAC5GaolfGTP_ATP = 2.55 
    kcatAC5_ATP = 1 
    kicatAC5_ATP = 0.002 
    kcatAC5Ca_ATP = 0.5 
    kicatAC5Ca_ATP = 7.5E-4 
    kcatAC5CaGaolfGTP_ATP = 25 
    kicatAC5CaGaolfGTP_ATP = 0.65 
    kfAC5_ATP = 1.0E-4 
    kfAC5CaGaolfGTP_ATP = 0.0013 
    kfCaM_2Ca = 0.006 
    kGolfback = 100 
    krCaM_2Ca = 20 
    kdpB56PP2Ap = 0.008 
    krCaMCa2_2Ca = 1000 
    krPKAc_D32p75 = 100 
    kfPKAc_B56PP2A = 0.001 
    krPKAc_B56PP2A = 0.3 
    kfCaMCa2_2Ca = 0.1 
    kcatPKAc_B56PP2A = 0.2 
    kfPKAc_D32p75 = 0.1 
    kfAC5GaolfGTP_ATP = 0.00255 
    kfAC5Ca_ATP = 7.5E-5 
    kfD1R_Golf = 0.06 
    krD1R_Golf = 250 
    kfD1RDA_Golf = 0.06 
    krD1RDA_Golf = 250 
    kfB72PP2A_D32p34 = 5.0E-4 
    krB72PP2A_D32p34 = 1 
    krAC5X_ATP = 1 
    kcatB72PP2A_D32p34 = 3 
    kfAC5XGaolfGTP = 10 
    kfAC5Ca = 0.001 
    krAC5XGaolfGTP = 1 
    krAC5Ca = 10 
    krgso = 1 
    kfPDE10c_cAMP = 0.1 
    krPDE10c_cAMP = 2 
    kfD1R_DA = 0.05 
    kfD1RGolf_DA = 0.05 
    krD1R_DA = 250 
    krD1RGolf_DA = 250 
    kfCaMKII_CaMCa4 = 0.1 
    krCaMKII_CaMCa4 = 40 
    kfCaMKII_CaMCa2 = 0.1 
    krCaMKII_CaMCa2 = 400 
    kfCaMKII_CaM = 0.1 
    krCaMKII_CaM = 4000 
    kfCaMKIICaM_2Ca = 0.006 
    krCaMKIICaM_2Ca = 2 
    kfCaMKIICaMCa2_2Ca = 0.1 
    krCaMKIICaMCa2_2Ca = 100 
    kfpCaMKII_CaM = 0.1 
    krpCaMKII_CaM = 400 
    kfpCaMKII_CaMCa2 = 0.1 
    krpCaMKII_CaMCa2 = 40 
    kfpCaMKII_CaMCa4 = 0.1 
    krpCaMKII_CaMCa4 = 0.4 
    kfpCaMKIICaM_2Ca = 0.006 
    krpCaMKIICaM_2Ca = 2 
    kfpCaMKIICaMCa2_2Ca = 0.1 
    krpCaMKIICaMCa2_2Ca = 10 
    kpCaMKIIc = 0 
    kfPP2A_pARPP21 = 0.004 
    krPP2A_pARPP21 = 100 
    kcatPP2A_pARPP21 = 1 
    kfPP2Ac_pARPP21 = 0.007 
    krPP2Ac_pARPP21 = 100 
    kcatPP2Ac_pARPP21 = 10 
    kcatPP1_pSubstrate = 10 
    kfPP1_pSubstrate = 5.0E-4 
    krPP1_pSubstrate = 1 
    kfPKAc_ARPP21 = 0.045 
    krPKAc_ARPP21 = 200 
    kcatPKAc_ARPP21 = 10 
    kfCaMCa4_pARPP21 = 0.5 
    krCaMCa4_pARPP21 = 10 
    kdppCaMKII = 0.1 
    kfpCaMKII_Substrate = 5.0E-4 
    krpCaMKII_Substrate = 10 
    kcatpCaMKII_Substrate = 10 
    kftranspCaMKII = 0.5 
    krtranspCaMKII = 0.001 
    kfPP1_pCaMKIIpsd = 8.0E-4 
    krPP1_pCaMKIIpsd = 1 
    ktransCaMKII = 0.5 
    kftransCaMKII = 0.5 
    krtransCaMKII = 0.5 
    max_CaMKII_phosphorate = 10 
    kcatPP1_pCaMKIIpsd = 1 
    tscale = 0.001 (kHz)
    Spine = 1.0E-15 
    init_GaolfGDP = 0 
    init_Gbgolf = 0 
    init_GaolfGTP = 0 
    init_D1RDAGolf = 0 
    init_Golf = 2000 
    init_D1RGolf = 0 
    init_D1RDA = 0 
    init_D1R = 2000 
    init_cAMP = 0 
    init_Ca = 60 
    init_AC5 = 700 
    init_AC5GaolfGTP = 0 
    init_CaM = 9000 
    init_CaMCa2 = 0 
    init_CaMCa4 = 0 
    init_PDE4 = 2000 
    init_PKA = 1200 
    init_PKAcAMP2 = 0 
    init_PKAcAMP4 = 0 
    init_PKAreg = 0 
    init_PKAc = 0 
    init_PP2B = 4000 
    init_PP2Bc = 0 
    init_PP2BCaM = 0 
    init_PP2BCaMCa2 = 0 
    init_DARPP32 = 50000 
    init_PKAc_D32 = 0 
    init_D32p34 = 0 
    init_B72PP2A = 2000 
    init_PKAc_B56PP2A = 0 
    init_B56PP2Ap = 0 
    init_CDK5 = 1800 
    init_PP1 = 3000 
    init_CDK5_D32 = 0 
    init_D32p75 = 0 
    init_PKAcD32p75 = 0 
    init_B72PPA2Ca = 0 
    init_B56PP2Ap_D32p75 = 0 
    init_B72PP2A_D32p75 = 0 
    init_B72PP2ACa_D32p75 = 0 
    init_PP1D32p34 = 0 
    init_PP2Bc_D32p34 = 0 
    init_B72PP2A_D32p34 = 0 
    init_DA = 20 
    init_AMP = 0 
    init_AC5Ca = 0 
    init_AC5CaGaolfGTP = 0 
    init_B56PP2A = 2000 
    init_B56PP2A_D32p75 = 0 
    init_B72PP2ACa_D32p34 = 0 
    init_PDE4_cAMP = 0 
    init_PDE10c = 0 
    init_PDE10 = 700 
    init_PDE10_cAMP = 0 
    init_PDE10c_cAMP = 0 
    init_ATP = 5000000 
    init_AC5GaolfGTP_ATP = 0 
    init_AC5_ATP = 0 
    init_AC5CaGaolfGTP_ATP = 0 
    init_AC5Ca_ATP = 0 
    init_PP1_AKAR3p = 0 
    init_PKAc_AKAR3 = 0 
    init_CaMKII = 20000 
    init_CaMKIIc = 0 
    init_CaMKIICaMCa2 = 0 
    init_CaMKIICaM = 0 
    init_pCaMKIIc = 0 
    init_pCaMKII = 0 
    init_pCaMKIICaMCa2 = 0 
    init_pCaMKIICaM = 0 
    init_pARPP21 = 0 
    init_ARPP21 = 20000 
    init_pSubstrate = 0 
    init_Substrate = 3000 
    init_PP1_pSubstrate = 0 
    init_pCaMKIIcpsd = 0 
    init_pCaMKIICaMCa2psd = 0 
    init_pCaMKIICaMpsd = 0 
    init_pCaMKIIpsd = 0 
    init_PP1_pCaMKIIpsd = 0 
    init_CaMKIIpsd = 0 
    init_totalActCaMKIIpsd = 0 
    init_CaMKIICaMpsd = 0 
    init_CaMKIICaMCa2psd = 0 
    init_CaMKIIcpsd = 0 
    init_PKAc_ARPP21 = 0 
    init_CaMCa4pARPP21 = 0 
    init_B72PPA2Ca_pARPP21 = 0 
    init_B72PP2A_pARPP21 = 0 
    init_B56PP2Ap_pARPP21 = 0 
    init_B56PP2A_pARPP21 = 0 
    init_totalpCaMKIIpsd_Substrate = 0 
    init_totalCaMKII = 20000 
    init_totalActiveFreeCaMKII = 0 
}

ASSIGNED {
    
    r_r_1                    : derived variable
    
    r_r_2                    : derived variable
    
    r_r_3                    : derived variable
    
    r_r_4                    : derived variable
    
    r_r_5                    : derived variable
    
    r_r_6                    : derived variable
    
    r_r_7                    : derived variable
    
    r_r_8                    : derived variable
    
    r_r_9                    : derived variable
    
    r_r_10                   : derived variable
    
    r_r_11                   : derived variable
    
    r_r_12                   : derived variable
    
    r_r_13                   : derived variable
    
    r_r_14                   : derived variable
    
    r_r_15                   : derived variable
    
    r_r_16                   : derived variable
    
    r_r_17                   : derived variable
    
    r_r_18                   : derived variable
    
    r_r_19                   : derived variable
    
    r_r_20                   : derived variable
    
    r_r_21                   : derived variable
    
    r_r_22                   : derived variable
    
    r_r_23                   : derived variable
    
    r_r_24                   : derived variable
    
    r_r_25                   : derived variable
    
    r_r_26                   : derived variable
    
    r_r_27                   : derived variable
    
    r_r_28                   : derived variable
    
    r_r_29                   : derived variable
    
    r_r_30                   : derived variable
    
    r_r_31                   : derived variable
    
    r_r_32                   : derived variable
    
    r_r_33                   : derived variable
    
    r_r_34                   : derived variable
    
    r_r_35                   : derived variable
    
    r_r_36                   : derived variable
    
    r_r_37                   : derived variable
    
    r_r_38                   : derived variable
    
    r_r_39                   : derived variable
    
    r_r_40                   : derived variable
    
    r_r_41                   : derived variable
    
    r_r_42                   : derived variable
    
    r_r_43                   : derived variable
    
    r_r_44                   : derived variable
    
    r_r_45                   : derived variable
    
    r_r_46                   : derived variable
    
    r_r_47                   : derived variable
    
    r_r_48                   : derived variable
    
    r_r_49                   : derived variable
    
    r_r_50                   : derived variable
    
    r_r_51                   : derived variable
    
    r_r_52                   : derived variable
    
    r_r_53                   : derived variable
    
    r_r_54                   : derived variable
    
    r_r_55                   : derived variable
    
    r_r_56                   : derived variable
    
    r_r_57                   : derived variable
    
    r_r_58                   : derived variable
    
    r_r_59                   : derived variable
    
    r_r_60                   : derived variable
    
    r_r_61                   : derived variable
    
    r_r_62                   : derived variable
    
    r_r_63                   : derived variable
    
    r_r_64                   : derived variable
    
    r_r_65                   : derived variable
    
    r_r_66                   : derived variable
    
    r_r_67                   : derived variable
    
    r_r_68                   : derived variable
    
    r_r_69                   : derived variable
    
    r_r_70                   : derived variable
    
    r_r_71                   : derived variable
    
    r_r_72                   : derived variable
    
    r_r_73                   : derived variable
    
    r_r_74                   : derived variable
    
    r_r_75                   : derived variable
    
    r_r_76                   : derived variable
    
    r_r_77                   : derived variable
    
    r_ir_1                  : derived variable
    
    r_ir_2                  : derived variable
    
    r_ir_3                  : derived variable
    
    r_ir_4                  : derived variable
    
    r_ir_5                  : derived variable
    
    r_ir_6                  : derived variable
    
    r_ir_7                  : derived variable
    
    r_ir_8                  : derived variable
    
    r_ir_9                  : derived variable
    
    r_ir_10                 : derived variable
    
    r_ir_11                 : derived variable
    
    r_ir_12                 : derived variable
    
    r_ir_13                 : derived variable
    
    r_ir_14                 : derived variable
    
    r_ir_15                 : derived variable
    
    r_ir_16                 : derived variable
    
    r_ir_17                 : derived variable
    
    r_ir_18                 : derived variable
    
    r_ir_19                 : derived variable
    
    r_ir_20                 : derived variable
    
    r_ir_21                 : derived variable
    
    r_ir_22                 : derived variable
    
    r_ir_23                 : derived variable
    
    r_ir_24                 : derived variable
    
    r_ir_25                 : derived variable
    
    r_ir_26                 : derived variable
    
    r_ir_27                 : derived variable
    
    r_ir_28                 : derived variable
    
    r_ir_29                 : derived variable
    
    r_ir_30                 : derived variable
    
    r_ir_31                 : derived variable
    
    r_ir_32                 : derived variable
    
    r_ir_33                 : derived variable
    
    r_ir_34                 : derived variable
    
    r_ir_35                 : derived variable
    
    r_ir_36                 : derived variable
    
    r_ir_37                 : derived variable
    
    r_ir_38                 : derived variable
    
    r_ir_39                 : derived variable
    
    r_ir_40                 : derived variable
    
    r_ir_41                 : derived variable
    rate_ModelValue_140 (/ms)
    rate_PKAreg (/ms)
    rate_AC5_ATP (/ms)
    rate_PP2B (/ms)
    rate_PKAc_ARPP21 (/ms)
    rate_AC5CaGaolfGTP_ATP (/ms)
    rate_PP2Bc (/ms)
    rate_PP1_pSubstrate (/ms)
    rate_B56PP2A_D32p75 (/ms)
    rate_CaMKIICaMCa2 (/ms)
    rate_pCaMKIICaM (/ms)
    rate_PKAcAMP4 (/ms)
    rate_pARPP21 (/ms)
    rate_pCaMKIICaMpsd (/ms)
    rate_AC5GaolfGTP (/ms)
    rate_PP1 (/ms)
    rate_PDE10 (/ms)
    rate_GaolfGTP (/ms)
    rate_CaMKIIcpsd (/ms)
    rate_pCaMKIICaMCa2 (/ms)
    rate_AC5Ca (/ms)
    rate_B72PP2A_D32p75 (/ms)
    rate_AC5 (/ms)
    rate_pCaMKIIcpsd (/ms)
    rate_D1RGolf (/ms)
    rate_CaMKIICaMpsd (/ms)
    rate_PKAcD32p75 (/ms)
    rate_Substrate (/ms)
    rate_CDK5 (/ms)
    rate_B72PP2A_D32p34 (/ms)
    rate_D1R (/ms)
    rate_AC5Ca_ATP (/ms)
    rate_CaMKII (/ms)
    rate_CaMKIIpsd (/ms)
    rate_B56PP2A (/ms)
    rate_Golf (/ms)
    rate_totalpCaMKIIpsd_Substrate (/ms)
    rate_PKAc (/ms)
    rate_PP1D32p34 (/ms)
    rate_CaMKIICaM (/ms)
    rate_CaMCa4 (/ms)
    rate_PP2BCaM (/ms)
    rate_PDE4_cAMP (/ms)
    rate_PKAcAMP2 (/ms)
    rate_PP2Bc_D32p34 (/ms)
    rate_pCaMKIIc (/ms)
    rate_pSubstrate (/ms)
    rate_GaolfGDP (/ms)
    rate_D32p75 (/ms)
    rate_PP2BCaMCa2 (/ms)
    rate_AC5GaolfGTP_ATP (/ms)
    rate_CaMCa2 (/ms)
    rate_PKAc_B56PP2A (/ms)
    rate_B72PP2ACa_D32p34 (/ms)
    rate_pCaMKII (/ms)
    rate_B72PPA2Ca_pARPP21 (/ms)
    rate_CaMKIICaMCa2psd (/ms)
    rate_Gbgolf (/ms)
    rate_PDE10_cAMP (/ms)
    rate_PDE10c (/ms)
    rate_cAMP (/ms)
    rate_DARPP32 (/ms)
    rate_PDE10c_cAMP (/ms)
    rate_D1RDAGolf (/ms)
    rate_B56PP2A_pARPP21 (/ms)
    rate_CDK5_D32 (/ms)
    rate_pCaMKIIpsd (/ms)
    rate_CaMKIIc (/ms)
    rate_D1RDA (/ms)
    rate_CaM (/ms)
    rate_CaMCa4pARPP21 (/ms)
    rate_B72PP2A_pARPP21 (/ms)
    rate_PKA (/ms)
    rate_B72PP2A (/ms)
    rate_B72PPA2Ca (/ms)
    rate_PP1_pCaMKIIpsd (/ms)
    rate_PKAc_D32 (/ms)
    rate_D32p34 (/ms)
    rate_B72PP2ACa_D32p75 (/ms)
    rate_PDE4 (/ms)
    rate_B56PP2Ap_D32p75 (/ms)
    rate_ARPP21 (/ms)
    rate_B56PP2Ap_pARPP21 (/ms)
    rate_pCaMKIICaMCa2psd (/ms)
    rate_AC5CaGaolfGTP (/ms)
    rate_B56PP2Ap (/ms)
    
}

STATE {
    ModelValue_140 
    GaolfGDP 
    Gbgolf 
    GaolfGTP 
    D1RDAGolf 
    Golf 
    D1RGolf 
    D1RDA 
    D1R 
    cAMP 
    Ca 
    AC5 
    AC5GaolfGTP 
    CaM 
    CaMCa2 
    CaMCa4 
    PDE4 
    PKA 
    PKAcAMP2 
    PKAcAMP4 
    PKAreg 
    PKAc 
    PP2B 
    PP2Bc 
    PP2BCaM 
    PP2BCaMCa2 
    DARPP32 
    PKAc_D32 
    D32p34 
    B72PP2A 
    PKAc_B56PP2A 
    B56PP2Ap 
    CDK5 
    PP1 
    CDK5_D32 
    D32p75 
    PKAcD32p75 
    B72PPA2Ca 
    B56PP2Ap_D32p75 
    B72PP2A_D32p75 
    B72PP2ACa_D32p75 
    PP1D32p34 
    PP2Bc_D32p34 
    B72PP2A_D32p34 
    DA 
    AMP 
    AC5Ca 
    AC5CaGaolfGTP 
    B56PP2A 
    B56PP2A_D32p75 
    B72PP2ACa_D32p34 
    PDE4_cAMP 
    PDE10c 
    PDE10 
    PDE10_cAMP 
    PDE10c_cAMP 
    ATP 
    AC5GaolfGTP_ATP 
    AC5_ATP 
    AC5CaGaolfGTP_ATP 
    AC5Ca_ATP 
    PP1_AKAR3p 
    PKAc_AKAR3 
    CaMKII 
    CaMKIIc 
    CaMKIICaMCa2 
    CaMKIICaM 
    pCaMKIIc 
    pCaMKII 
    pCaMKIICaMCa2 
    pCaMKIICaM 
    pARPP21 
    ARPP21 
    pSubstrate 
    Substrate 
    PP1_pSubstrate 
    pCaMKIIcpsd 
    pCaMKIICaMCa2psd 
    pCaMKIICaMpsd 
    pCaMKIIpsd 
    PP1_pCaMKIIpsd 
    CaMKIIpsd 
    totalActCaMKIIpsd 
    CaMKIICaMpsd 
    CaMKIICaMCa2psd 
    CaMKIIcpsd 
    PKAc_ARPP21 
    CaMCa4pARPP21 
    B72PPA2Ca_pARPP21 
    B72PP2A_pARPP21 
    B56PP2Ap_pARPP21 
    B56PP2A_pARPP21 
    totalpCaMKIIpsd_Substrate 
    totalCaMKII 
    totalActiveFreeCaMKII 
    totalActivePKA
    
}

INITIAL {
    rates()
    rates() ? To ensure correct initialisation.
    
    ModelValue_140 = 10.0
    
    GaolfGDP = init_GaolfGDP
    
    Gbgolf = init_Gbgolf
    
    GaolfGTP = init_GaolfGTP
    
    D1RDAGolf = init_D1RDAGolf
    
    Golf = init_Golf
    
    D1RGolf = init_D1RGolf
    
    D1RDA = init_D1RDA
    
    D1R = init_D1R
    
    cAMP = init_cAMP
    
    Ca = init_Ca
    
    AC5 = init_AC5
    
    AC5GaolfGTP = init_AC5GaolfGTP
    
    CaM = init_CaM
    
    CaMCa2 = init_CaMCa2
    
    CaMCa4 = init_CaMCa4
    
    PDE4 = init_PDE4
    
    PKA = init_PKA
    
    PKAcAMP2 = init_PKAcAMP2
    
    PKAcAMP4 = init_PKAcAMP4
    
    PKAreg = init_PKAreg
    
    PKAc = init_PKAc
    
    PP2B = init_PP2B
    
    PP2Bc = init_PP2Bc
    
    PP2BCaM = init_PP2BCaM
    
    PP2BCaMCa2 = init_PP2BCaMCa2
    
    DARPP32 = init_DARPP32
    
    PKAc_D32 = init_PKAc_D32
    
    D32p34 = init_D32p34
    
    B72PP2A = init_B72PP2A
    
    PKAc_B56PP2A = init_PKAc_B56PP2A
    
    B56PP2Ap = init_B56PP2Ap
    
    CDK5 = init_CDK5
    
    PP1 = init_PP1
    
    CDK5_D32 = init_CDK5_D32
    
    D32p75 = init_D32p75
    
    PKAcD32p75 = init_PKAcD32p75
    
    B72PPA2Ca = init_B72PPA2Ca
    
    B56PP2Ap_D32p75 = init_B56PP2Ap_D32p75
    
    B72PP2A_D32p75 = init_B72PP2A_D32p75
    
    B72PP2ACa_D32p75 = init_B72PP2ACa_D32p75
    
    PP1D32p34 = init_PP1D32p34
    
    PP2Bc_D32p34 = init_PP2Bc_D32p34
    
    B72PP2A_D32p34 = init_B72PP2A_D32p34
    
    DA = init_DA
    
    AMP = init_AMP
    
    AC5Ca = init_AC5Ca
    
    AC5CaGaolfGTP = init_AC5CaGaolfGTP
    
    B56PP2A = init_B56PP2A
    
    B56PP2A_D32p75 = init_B56PP2A_D32p75
    
    B72PP2ACa_D32p34 = init_B72PP2ACa_D32p34
    
    PDE4_cAMP = init_PDE4_cAMP
    
    PDE10c = init_PDE10c
    
    PDE10 = init_PDE10
    
    PDE10_cAMP = init_PDE10_cAMP
    
    PDE10c_cAMP = init_PDE10c_cAMP
    
    ATP = init_ATP
    
    AC5GaolfGTP_ATP = init_AC5GaolfGTP_ATP
    
    AC5_ATP = init_AC5_ATP
    
    AC5CaGaolfGTP_ATP = init_AC5CaGaolfGTP_ATP
    
    AC5Ca_ATP = init_AC5Ca_ATP
    
    PP1_AKAR3p = init_PP1_AKAR3p
    
    PKAc_AKAR3 = init_PKAc_AKAR3
    
    CaMKII = init_CaMKII
    
    CaMKIIc = init_CaMKIIc
    
    CaMKIICaMCa2 = init_CaMKIICaMCa2
    
    CaMKIICaM = init_CaMKIICaM
    
    pCaMKIIc = init_pCaMKIIc
    
    pCaMKII = init_pCaMKII
    
    pCaMKIICaMCa2 = init_pCaMKIICaMCa2
    
    pCaMKIICaM = init_pCaMKIICaM
    
    pARPP21 = init_pARPP21
    
    ARPP21 = init_ARPP21
    
    pSubstrate = init_pSubstrate
    
    Substrate = init_Substrate
    
    PP1_pSubstrate = init_PP1_pSubstrate
    
    pCaMKIIcpsd = init_pCaMKIIcpsd
    
    pCaMKIICaMCa2psd = init_pCaMKIICaMCa2psd
    
    pCaMKIICaMpsd = init_pCaMKIICaMpsd
    
    pCaMKIIpsd = init_pCaMKIIpsd
    
    PP1_pCaMKIIpsd = init_PP1_pCaMKIIpsd
    
    CaMKIIpsd = init_CaMKIIpsd
    
    totalActCaMKIIpsd = ((((((  init_pCaMKIIpsd   +   init_pCaMKIICaMpsd  ) +   init_pCaMKIICaMCa2psd  ) +   init_pCaMKIIcpsd  ) +   init_CaMKIIcpsd  ) +   init_CaMKIICaMCa2psd  ) +   init_CaMKIICaMpsd  )
    
    CaMKIICaMpsd = init_CaMKIICaMpsd
    
    CaMKIICaMCa2psd = init_CaMKIICaMCa2psd
    
    CaMKIIcpsd = init_CaMKIIcpsd
    
    PKAc_ARPP21 = init_PKAc_ARPP21
    
    CaMCa4pARPP21 = init_CaMCa4pARPP21
    
    B72PPA2Ca_pARPP21 = init_B72PPA2Ca_pARPP21
    
    B72PP2A_pARPP21 = init_B72PP2A_pARPP21
    
    B56PP2Ap_pARPP21 = init_B56PP2Ap_pARPP21
    
    B56PP2A_pARPP21 = init_B56PP2A_pARPP21
    
    totalpCaMKIIpsd_Substrate = init_totalpCaMKIIpsd_Substrate
    
    totalCaMKII = (((((((((((((((  init_pCaMKII   +   init_pCaMKIIc  ) +   init_pCaMKIICaM  ) +   init_pCaMKIICaMCa2  ) +   init_pCaMKIICaMCa2psd  ) +   init_pCaMKIICaMpsd  ) +   init_pCaMKIIcpsd  ) +   init_pCaMKIIpsd  ) +   init_CaMKIIc  ) +   init_CaMKIICaM  ) +   init_CaMKIICaMCa2  ) +   init_CaMKIICaMCa2psd  ) +   init_CaMKIICaMpsd  ) +   init_CaMKIIcpsd  ) +   init_CaMKII  ) +   init_CaMKIIpsd  )
    
    totalActiveFreeCaMKII = (((((((((((  init_CaMKIIc   +   init_CaMKIICaM  ) +   init_CaMKIICaMCa2  ) +   init_CaMKIICaMCa2psd  ) +   init_CaMKIICaMpsd  ) +   init_CaMKIIcpsd  ) +   init_pCaMKIIc  ) +   init_pCaMKIICaM  ) +   init_pCaMKIICaMCa2  ) +   init_pCaMKIICaMCa2psd  ) +   init_pCaMKIICaMpsd  ) +   init_pCaMKIIcpsd  )
    
    totalActivePKA = ( init_PKAc + init_PKAc_ARPP21 + init_PKAcAMP4 + init_PKAcD32p75 + init_PKAcAMP2 + init_PKAc_B56PP2A + init_PKAc_D32 + init_PKAc_AKAR3 )
    
    ModelValue_140 = max_CaMKII_phosphorate
    
}

BREAKPOINT {
    
    SOLVE states METHOD cnexp
    
    
}

DERIVATIVE states {
    rates()
    ModelValue_140' = rate_ModelValue_140 
    PKAreg' = rate_PKAreg 
    AC5_ATP' = rate_AC5_ATP 
    PP2B' = rate_PP2B 
    PKAc_ARPP21' = rate_PKAc_ARPP21 
    AC5CaGaolfGTP_ATP' = rate_AC5CaGaolfGTP_ATP 
    PP2Bc' = rate_PP2Bc 
    PP1_pSubstrate' = rate_PP1_pSubstrate 
    B56PP2A_D32p75' = rate_B56PP2A_D32p75 
    CaMKIICaMCa2' = rate_CaMKIICaMCa2 
    pCaMKIICaM' = rate_pCaMKIICaM 
    PKAcAMP4' = rate_PKAcAMP4 
    pARPP21' = rate_pARPP21 
    pCaMKIICaMpsd' = rate_pCaMKIICaMpsd 
    AC5GaolfGTP' = rate_AC5GaolfGTP 
    PP1' = rate_PP1 
    PDE10' = rate_PDE10 
    GaolfGTP' = rate_GaolfGTP 
    CaMKIIcpsd' = rate_CaMKIIcpsd 
    pCaMKIICaMCa2' = rate_pCaMKIICaMCa2 
    AC5Ca' = rate_AC5Ca 
    B72PP2A_D32p75' = rate_B72PP2A_D32p75 
    AC5' = rate_AC5 
    pCaMKIIcpsd' = rate_pCaMKIIcpsd 
    D1RGolf' = rate_D1RGolf 
    CaMKIICaMpsd' = rate_CaMKIICaMpsd 
    PKAcD32p75' = rate_PKAcD32p75 
    Substrate' = rate_Substrate 
    CDK5' = rate_CDK5 
    B72PP2A_D32p34' = rate_B72PP2A_D32p34 
    D1R' = rate_D1R 
    AC5Ca_ATP' = rate_AC5Ca_ATP 
    CaMKII' = rate_CaMKII 
    CaMKIIpsd' = rate_CaMKIIpsd 
    B56PP2A' = rate_B56PP2A 
    Golf' = rate_Golf 
    totalpCaMKIIpsd_Substrate' = rate_totalpCaMKIIpsd_Substrate 
    PKAc' = rate_PKAc 
    PP1D32p34' = rate_PP1D32p34 
    CaMKIICaM' = rate_CaMKIICaM 
    CaMCa4' = rate_CaMCa4 
    PP2BCaM' = rate_PP2BCaM 
    PDE4_cAMP' = rate_PDE4_cAMP 
    PKAcAMP2' = rate_PKAcAMP2 
    PP2Bc_D32p34' = rate_PP2Bc_D32p34 
    pCaMKIIc' = rate_pCaMKIIc 
    pSubstrate' = rate_pSubstrate 
    GaolfGDP' = rate_GaolfGDP 
    D32p75' = rate_D32p75 
    PP2BCaMCa2' = rate_PP2BCaMCa2 
    AC5GaolfGTP_ATP' = rate_AC5GaolfGTP_ATP 
    CaMCa2' = rate_CaMCa2 
    PKAc_B56PP2A' = rate_PKAc_B56PP2A 
    B72PP2ACa_D32p34' = rate_B72PP2ACa_D32p34 
    pCaMKII' = rate_pCaMKII 
    B72PPA2Ca_pARPP21' = rate_B72PPA2Ca_pARPP21 
    CaMKIICaMCa2psd' = rate_CaMKIICaMCa2psd 
    Gbgolf' = rate_Gbgolf 
    PDE10_cAMP' = rate_PDE10_cAMP 
    PDE10c' = rate_PDE10c 
    cAMP' = rate_cAMP 
    DARPP32' = rate_DARPP32 
    PDE10c_cAMP' = rate_PDE10c_cAMP 
    D1RDAGolf' = rate_D1RDAGolf 
    B56PP2A_pARPP21' = rate_B56PP2A_pARPP21 
    CDK5_D32' = rate_CDK5_D32 
    pCaMKIIpsd' = rate_pCaMKIIpsd 
    CaMKIIc' = rate_CaMKIIc 
    D1RDA' = rate_D1RDA 
    CaM' = rate_CaM 
    CaMCa4pARPP21' = rate_CaMCa4pARPP21 
    B72PP2A_pARPP21' = rate_B72PP2A_pARPP21 
    PKA' = rate_PKA 
    B72PP2A' = rate_B72PP2A 
    B72PPA2Ca' = rate_B72PPA2Ca 
    PP1_pCaMKIIpsd' = rate_PP1_pCaMKIIpsd 
    PKAc_D32' = rate_PKAc_D32 
    D32p34' = rate_D32p34 
    B72PP2ACa_D32p75' = rate_B72PP2ACa_D32p75 
    PDE4' = rate_PDE4 
    B56PP2Ap_D32p75' = rate_B56PP2Ap_D32p75 
    ARPP21' = rate_ARPP21 
    B56PP2Ap_pARPP21' = rate_B56PP2Ap_pARPP21 
    pCaMKIICaMCa2psd' = rate_pCaMKIICaMCa2psd 
    AC5CaGaolfGTP' = rate_AC5CaGaolfGTP 
    B56PP2Ap' = rate_B56PP2Ap 
    
}

PROCEDURE rates() {
    
    totalActCaMKIIpsd = ((((((  pCaMKIIpsd   +   pCaMKIICaMpsd  ) +   pCaMKIICaMCa2psd  ) +   pCaMKIIcpsd  ) +   CaMKIIcpsd  ) +   CaMKIICaMCa2psd  ) +   CaMKIICaMpsd  ) ? evaluable
    totalCaMKII = (((((((((((((((  pCaMKII   +   pCaMKIIc  ) +   pCaMKIICaM  ) +   pCaMKIICaMCa2  ) +   pCaMKIICaMCa2psd  ) +   pCaMKIICaMpsd  ) +   pCaMKIIcpsd  ) +   pCaMKIIpsd  ) +   CaMKIIc  ) +   CaMKIICaM  ) +   CaMKIICaMCa2  ) +   CaMKIICaMCa2psd  ) +   CaMKIICaMpsd  ) +   CaMKIIcpsd  ) +   CaMKII  ) +   CaMKIIpsd  ) ? evaluable
    totalActiveFreeCaMKII = (((((((((((  CaMKIIc   +   CaMKIICaM  ) +   CaMKIICaMCa2  ) +   CaMKIICaMCa2psd  ) +   CaMKIICaMpsd  ) +   CaMKIIcpsd  ) +   pCaMKIIc  ) +   pCaMKIICaM  ) +   pCaMKIICaMCa2  ) +   pCaMKIICaMCa2psd  ) +   pCaMKIICaMpsd  ) +   pCaMKIIcpsd  ) ? evaluable
    totalActivePKA = ( PKAc + PKAc_ARPP21 + PKAcAMP4 + PKAcD32p75 + PKAcAMP2 + PKAc_B56PP2A + PKAc_D32 + PKAc_AKAR3 )
    r_r_1 = (  Spine   * (((  kfD1RGolf_DA   *    D1RGolf   ) *    DA   ) - (  krD1RGolf_DA   *    D1RDAGolf   ))) ? evaluable
    r_r_2 = (  Spine   * (((  kfD1R_DA   *    D1R   ) *    DA   ) - (  krD1R_DA   *    D1RDA   ))) ? evaluable
    r_r_3 = (  Spine   * (((  kfD1R_Golf   *    D1R   ) *    Golf   ) - (  krD1R_Golf   *    D1RGolf   ))) ? evaluable
    r_r_4 = (  Spine   * (((  kfD1RDA_Golf   *    Golf   ) *    D1RDA   ) - (  krD1RDA_Golf   *    D1RDAGolf   ))) ? evaluable
    r_r_5 = (  Spine   * (((  kfAC5XGaolfGTP   *    AC5   ) *    GaolfGTP   ) - (  krAC5XGaolfGTP   *    AC5GaolfGTP   ))) ? evaluable
    r_r_6 = (  Spine   * (((  kfAC5GaolfGTP_ATP   *    AC5GaolfGTP   ) *    ATP   ) - (  krAC5X_ATP   *    AC5GaolfGTP_ATP   ))) ? evaluable
    r_r_7 = (  Spine   * (((  kfAC5Ca   *    AC5   ) *    Ca   ) - (  krAC5Ca   *    AC5Ca   ))) ? evaluable
    r_r_8 = (  Spine   * (((  kfAC5XGaolfGTP   *    AC5Ca   ) *    GaolfGTP   ) - (  krAC5XGaolfGTP   *    AC5CaGaolfGTP   ))) ? evaluable
    r_r_9 = (  Spine   * (((  kfAC5_ATP   *    AC5   ) *    ATP   ) - (  krAC5X_ATP   *    AC5_ATP   ))) ? evaluable
    r_r_10 = (  Spine   * (((  kfAC5Ca_ATP   *    AC5Ca   ) *    ATP   ) - (  krAC5X_ATP   *    AC5Ca_ATP   ))) ? evaluable
    r_r_11 = (  Spine   * (((  kfAC5CaGaolfGTP_ATP   *    AC5CaGaolfGTP   ) *    ATP   ) - (  krAC5X_ATP   *    AC5CaGaolfGTP_ATP   ))) ? evaluable
    r_r_12 = (  Spine   * (((  kfAC5XGaolfGTP   *    GaolfGTP   ) *    AC5_ATP   ) - (  krAC5XGaolfGTP   *    AC5GaolfGTP_ATP   ))) ? evaluable
    r_r_13 = (  Spine   * (((  kfAC5XGaolfGTP   *    GaolfGTP   ) *    AC5Ca_ATP   ) - (  krAC5XGaolfGTP   *    AC5CaGaolfGTP_ATP   ))) ? evaluable
    r_r_14 = (  Spine   * (((  kfAC5Ca   *    Ca   ) *    AC5_ATP   ) - (  krAC5Ca   *    AC5Ca_ATP   ))) ? evaluable
    r_r_15 = (  Spine   * (((  kfPDE4_cAMP   *    cAMP   ) *    PDE4   ) - (  krPDE4_cAMP   *    PDE4_cAMP   ))) ? evaluable
    r_r_16 = (  Spine   * (((  kfPDE10_cAMP   *    PDE10   ) * (   cAMP    ^ 2.0)) - (  krPDE10_cAMP   *    PDE10c   ))) ? evaluable
    r_r_17 = (  Spine   * (((  kfcAMP_PDE10   *    cAMP   ) *    PDE10   ) - (  krcAMP_PDE10   *    PDE10_cAMP   ))) ? evaluable
    r_r_18 = (  Spine   * (((  kfPDE10c_cAMP   *    cAMP   ) *    PDE10c   ) - (  krPDE10c_cAMP   *    PDE10c_cAMP   ))) ? evaluable
    r_r_19 = (  Spine   * (((  kfPKA_2cAMP   *    cAMP   ) *    PKA   ) - (  krPKA_2cAMP   *    PKAcAMP2   ))) ? evaluable
    r_r_20 = (  Spine   * (((  kfPKA2cAMP_2cAMP   *    cAMP   ) *    PKAcAMP2   ) - (  krPKA2cAMP_2cAMP   *    PKAcAMP4   ))) ? evaluable
    r_r_21 = (  Spine   * ((  krPKAc_PKAr   *    PKAcAMP4   ) - ((  kfPKAc_PKAr   *    PKAc   ) *    PKAreg   ))) ? evaluable
    r_r_22 = (  Spine   * (((  kfCaM_2Ca   *    CaM   ) *    Ca   ) - (  krCaM_2Ca   *    CaMCa2   ))) ? evaluable
    r_r_23 = (  Spine   * (((  kfCaMCa2_2Ca   *    CaMCa2   ) *    Ca   ) - (  krCaMCa2_2Ca   *    CaMCa4   ))) ? evaluable
    r_r_24 = (  Spine   * (((  kfPP2B_CaM   *    PP2B   ) *    CaM   ) - (  krPP2B_CaM   *    PP2BCaM   ))) ? evaluable
    r_r_25 = (  Spine   * (((  kfPP2B_CaMCa4   *    CaMCa4   ) *    PP2B   ) - (  krPP2B_CaMCa4   *    PP2Bc   ))) ? evaluable
    r_r_26 = (  Spine   * (((  kfPP2BCaM_2Ca   *    Ca   ) *    PP2BCaM   ) - (  krPP2BCaM_2Ca   *    PP2BCaMCa2   ))) ? evaluable
    r_r_27 = (  Spine   * (((  kfPP2BCaMCa2_2Ca   *    Ca   ) *    PP2BCaMCa2   ) - (  krPP2BCaMCa2_2Ca   *    PP2Bc   ))) ? evaluable
    r_r_28 = (  Spine   * (((  kfPP2B_CaMCa2   *    CaMCa2   ) *    PP2B   ) - (  krPP2B_CaMCa2   *    PP2BCaMCa2   ))) ? evaluable
    r_r_29 = (  Spine   * (((  kfPKAc_D32   *    PKAc   ) *    DARPP32   ) - (  krPKAc_D32   *    PKAc_D32   ))) ? evaluable
    r_r_30 = (  Spine   * (((  kfPKAc_B56PP2A   *    PKAc   ) *    B56PP2A   ) - (  krPKAc_B56PP2A   *    PKAc_B56PP2A   ))) ? evaluable
    r_r_31 = (  Spine   * (((  kfPP1_D32p34   *    D32p34   ) *    PP1   ) - (  krPP1_D32p34   *    PP1D32p34   ))) ? evaluable
    r_r_32 = (  Spine   * (((  kfCDK5_D32   *    CDK5   ) *    DARPP32   ) - (  krCDK5_D32   *    CDK5_D32   ))) ? evaluable
    r_r_33 = (  Spine   * (((  kfPKAc_D32p75   *    D32p75   ) *    PKAc   ) - (  krPKAc_D32p75   *    PKAcD32p75   ))) ? evaluable
    r_r_34 = (  Spine   * (((  kfB72PP2A_Ca   *    B72PP2A   ) *    Ca   ) - (  krB72PP2A_Ca   *    B72PPA2Ca   ))) ? evaluable
    r_r_35 = (  Spine   * (((  kfB56PP2Ap_D32p75   *    B56PP2Ap   ) *    D32p75   ) - (  krB56PP2Ap_D32p75   *    B56PP2Ap_D32p75   ))) ? evaluable
    r_r_36 = (  Spine   * (((  kfB72PP2A_D32p75   *    B72PP2A   ) *    D32p75   ) - (  krB72PP2A_D32p75   *    B72PP2A_D32p75   ))) ? evaluable
    r_r_37 = (  Spine   * (((  kfB72PP2ACa_D32p75   *    D32p75   ) *    B72PPA2Ca   ) - (  krB72PP2ACa_D32p75   *    B72PP2ACa_D32p75   ))) ? evaluable
    r_r_38 = (  Spine   * (((  kfPP2Bc_D32p34   *    D32p34   ) *    PP2Bc   ) - (  krPP2Bc_D32p34   *    PP2Bc_D32p34   ))) ? evaluable
    r_r_39 = (  Spine   * (((  kfB56PP2A_D32p75   *    D32p75   ) *    B56PP2A   ) - (  krB56PP2A_D32p75   *    B56PP2A_D32p75   ))) ? evaluable
    r_r_40 = (  Spine   * (((  kfB72PP2A_D32p34   *    D32p34   ) *    B72PPA2Ca   ) - (  krB72PP2A_D32p34   *    B72PP2ACa_D32p34   ))) ? evaluable
    r_r_41 = (  Spine   * (((  kfB72PP2A_D32p34   *    D32p34   ) *    B72PP2A   ) - (  krB72PP2A_D32p34   *    B72PP2A_D32p34   ))) ? evaluable
    r_r_42 = (  Spine   * (((  kfPKAc_ARPP21   *    ARPP21   ) *    PKAc   ) - (  krPKAc_ARPP21   *    PKAc_ARPP21   ))) ? evaluable
    r_r_43 = (  Spine   * (((  kfCaMCa4_pARPP21   *    pARPP21   ) *    CaMCa4   ) - (  krCaMCa4_pARPP21   *    CaMCa4pARPP21   ))) ? evaluable
    r_r_44 = (  Spine   * (((  kfPP2Ac_pARPP21   *    pARPP21   ) *    B72PPA2Ca   ) - (  krPP2Ac_pARPP21   *    B72PPA2Ca_pARPP21   ))) ? evaluable
    r_r_45 = (  Spine   * (((  kfPP2A_pARPP21   *    pARPP21   ) *    B72PP2A   ) - (  krPP2A_pARPP21   *    B72PP2A_pARPP21   ))) ? evaluable
    r_r_46 = (  Spine   * (((  kfPP2Ac_pARPP21   *    pARPP21   ) *    B56PP2Ap   ) - (  krPP2Ac_pARPP21   *    B56PP2Ap_pARPP21   ))) ? evaluable
    r_r_47 = (  Spine   * (((  kfPP2A_pARPP21   *    pARPP21   ) *    B56PP2A   ) - (  krPP2A_pARPP21   *    B56PP2A_pARPP21   ))) ? evaluable
    r_r_48 = (  Spine   * (((  kfCaMKII_CaMCa4   *    CaMKII   ) *    CaMCa4   ) - (  krCaMKII_CaMCa4   *    CaMKIIc   ))) ? evaluable
    r_r_49 = (  Spine   * (((  kfCaMKII_CaMCa2   *    CaMCa2   ) *    CaMKII   ) - (  krCaMKII_CaMCa2   *    CaMKIICaMCa2   ))) ? evaluable
    r_r_50 = (  Spine   * (((  kfCaMKII_CaM   *    CaM   ) *    CaMKII   ) - (  krCaMKII_CaM   *    CaMKIICaM   ))) ? evaluable
    r_r_51 = (  Spine   * (((  kfCaMKIICaMCa2_2Ca   *    CaMKIICaMCa2   ) *    Ca   ) - (  krCaMKIICaMCa2_2Ca   *    CaMKIIc   ))) ? evaluable
    r_r_52 = (  Spine   * (((  kfCaMKIICaM_2Ca   *    Ca   ) *    CaMKIICaM   ) - (  krCaMKIICaM_2Ca   *    CaMKIICaMCa2   ))) ? evaluable
    r_r_53 = (  Spine   * (((  kfpCaMKIICaMCa2_2Ca   *    pCaMKIICaMCa2   ) *    Ca   ) - (  krpCaMKIICaMCa2_2Ca   *    pCaMKIIc   ))) ? evaluable
    r_r_54 = (  Spine   * (((  kfpCaMKIICaM_2Ca   *    pCaMKIICaM   ) *    Ca   ) - (  krpCaMKIICaM_2Ca   *    pCaMKIICaMCa2   ))) ? evaluable
    r_r_55 = (  Spine   * (((  kfpCaMKII_CaMCa4   *    pCaMKII   ) *    CaMCa4   ) - (  krpCaMKII_CaMCa4   *    pCaMKIIc   ))) ? evaluable
    r_r_56 = (  Spine   * (((  kfpCaMKII_CaMCa2   *    pCaMKII   ) *    CaMCa2   ) - (  krpCaMKII_CaMCa2   *    pCaMKIICaMCa2   ))) ? evaluable
    r_r_57 = (  Spine   * (((  kfpCaMKII_CaM   *    pCaMKII   ) *    CaM   ) - (  krpCaMKII_CaM   *    pCaMKIICaM   ))) ? evaluable
    r_r_58 = (  Spine   * ((  kftranspCaMKII   *    pCaMKIIc   ) - (  krtranspCaMKII   *    pCaMKIIcpsd   ))) ? evaluable
    r_r_59 = (  Spine   * ((  kftranspCaMKII   *    pCaMKIICaMCa2   ) - (  krtranspCaMKII   *    pCaMKIICaMCa2psd   ))) ? evaluable
    r_r_60 = (  Spine   * ((  kftranspCaMKII   *    pCaMKIICaM   ) - (  krtranspCaMKII   *    pCaMKIICaMpsd   ))) ? evaluable
    r_r_61 = (  Spine   * ((  kftranspCaMKII   *    pCaMKII   ) - (  krtranspCaMKII   *    pCaMKIIpsd   ))) ? evaluable
    r_r_62 = (  Spine   * ((  kftransCaMKII   *    CaMKIICaM   ) - (  krtransCaMKII   *    CaMKIICaMpsd   ))) ? evaluable
    r_r_63 = (  Spine   * ((  kftransCaMKII   *    CaMKIICaMCa2   ) - (  krtransCaMKII   *    CaMKIICaMCa2psd   ))) ? evaluable
    r_r_64 = (  Spine   * ((  kftransCaMKII   *    CaMKIIc   ) - (  krtransCaMKII   *    CaMKIIcpsd   ))) ? evaluable
    r_r_65 = (  Spine   * (((  kfpCaMKII_CaMCa4   *    CaMCa4   ) *    pCaMKIIpsd   ) - (  krpCaMKII_CaMCa4   *    pCaMKIIcpsd   ))) ? evaluable
    r_r_66 = (  Spine   * (((  kfpCaMKII_CaMCa2   *    pCaMKIIpsd   ) *    CaMCa2   ) - (  krpCaMKII_CaMCa2   *    pCaMKIICaMCa2psd   ))) ? evaluable
    r_r_67 = (  Spine   * (((  kfpCaMKII_CaM   *    CaM   ) *    pCaMKIIpsd   ) - (  krpCaMKII_CaM   *    pCaMKIICaMpsd   ))) ? evaluable
    r_r_68 = (  Spine   * (((  kfpCaMKIICaM_2Ca   *    pCaMKIICaMpsd   ) *    Ca   ) - (  krpCaMKIICaM_2Ca   *    pCaMKIICaMCa2psd   ))) ? evaluable
    r_r_69 = (  Spine   * (((  kfpCaMKIICaMCa2_2Ca   *    pCaMKIICaMCa2psd   ) *    Ca   ) - (  krpCaMKIICaMCa2_2Ca   *    pCaMKIIcpsd   ))) ? evaluable
    r_r_70 = (  Spine   * (((  kfCaMKII_CaMCa4   *    CaMCa4   ) *    CaMKIIpsd   ) - (  krCaMKII_CaMCa4   *    CaMKIIcpsd   ))) ? evaluable
    r_r_71 = (  Spine   * (((  kfCaMKII_CaMCa2   *    CaMCa2   ) *    CaMKIIpsd   ) - (  krCaMKII_CaMCa2   *    CaMKIICaMCa2psd   ))) ? evaluable
    r_r_72 = (  Spine   * (((  kfCaMKII_CaM   *    CaM   ) *    CaMKIIpsd   ) - (  krCaMKII_CaM   *    CaMKIICaMpsd   ))) ? evaluable
    r_r_73 = (  Spine   * (((  kfCaMKIICaMCa2_2Ca   *    CaMKIICaMCa2psd   ) *    Ca   ) - (  krCaMKIICaMCa2_2Ca   *    CaMKIIcpsd   ))) ? evaluable
    r_r_74 = (  Spine   * (((  kfCaMKIICaM_2Ca   *    Ca   ) *    CaMKIICaMpsd   ) - (  krCaMKIICaM_2Ca   *    CaMKIICaMCa2psd   ))) ? evaluable
    r_r_75 = (  Spine   * (((  kfPP1_pCaMKIIpsd   *    pCaMKIIpsd   ) *    PP1   ) - (  krPP1_pCaMKIIpsd   *    PP1_pCaMKIIpsd   ))) ? evaluable
    r_r_76 = (  Spine   * (((  kfpCaMKII_Substrate   *    Substrate   ) *    totalActCaMKIIpsd   ) - (  krpCaMKII_Substrate   *    totalpCaMKIIpsd_Substrate   ))) ? evaluable
    r_r_77 = (  Spine   * (((  kfPP1_pSubstrate   *    pSubstrate   ) *    PP1   ) - (  krPP1_pSubstrate   *    PP1_pSubstrate   ))) ? evaluable
    r_ir_1 = ((  Spine   *   kactGolf  ) *    D1RDAGolf   ) ? evaluable
    r_ir_2 = ((  Spine   *   kGaolfGTPase  ) *    GaolfGTP   ) ? evaluable
    r_ir_3 = (((  Spine   *   kGolfback  ) *    GaolfGDP   ) *    Gbgolf   ) ? evaluable
    r_ir_4 = ((  Spine   *   kcatAC5GaolfGTP_ATP  ) *    AC5GaolfGTP_ATP   ) ? evaluable
    r_ir_5 = (((  Spine   *   kicatAC5GaolfGTP_ATP  ) *    cAMP   ) *    AC5GaolfGTP   ) ? evaluable
    r_ir_6 = ((  Spine   *   kcatAC5_ATP  ) *    AC5_ATP   ) ? evaluable
    r_ir_7 = (((  Spine   *   kicatAC5_ATP  ) *    cAMP   ) *    AC5   ) ? evaluable
    r_ir_8 = ((  Spine   *   kcatAC5Ca_ATP  ) *    AC5Ca_ATP   ) ? evaluable
    r_ir_9 = (((  Spine   *   kicatAC5Ca_ATP  ) *    cAMP   ) *    AC5Ca   ) ? evaluable
    r_ir_10 = ((  Spine   *   kcatAC5CaGaolfGTP_ATP  ) *    AC5CaGaolfGTP_ATP   ) ? evaluable
    r_ir_11 = (((  Spine   *   kicatAC5CaGaolfGTP_ATP  ) *    cAMP   ) *    AC5CaGaolfGTP   ) ? evaluable
    r_ir_12 = ((  Spine   *   krgso  ) *    AC5GaolfGTP   ) ? evaluable
    r_ir_13 = ((  Spine   *   krgso  ) *    AC5CaGaolfGTP   ) ? evaluable
    r_ir_14 = ((  Spine   *   krgso  ) *    AC5GaolfGTP_ATP   ) ? evaluable
    r_ir_15 = ((  Spine   *   krgso  ) *    AC5CaGaolfGTP_ATP   ) ? evaluable
    r_ir_16 = ((  Spine   *   kcatPDE4_cAMP  ) *    PDE4_cAMP   ) ? evaluable
    r_ir_17 = ((  Spine   *   kcatcAMP_PDE10  ) *    PDE10_cAMP   ) ? evaluable
    r_ir_18 = ((  Spine   *   kcatPDE10c_cAMP  ) *    PDE10c_cAMP   ) ? evaluable
    r_ir_19 = ((  Spine   *   kcatPKAc_D32  ) *    PKAc_D32   ) ? evaluable
    r_ir_20 = ((  Spine   *   kcatPKAc_B56PP2A  ) *    PKAc_B56PP2A   ) ? evaluable
    r_ir_21 = ((  Spine   *   kcatCDK5_D32  ) *    CDK5_D32   ) ? evaluable
    r_ir_22 = ((  Spine   *   kcatB56PP2Ap_D32p75  ) *    B56PP2Ap_D32p75   ) ? evaluable
    r_ir_23 = ((  Spine   *   kcatB72PP2A_D32p75  ) *    B72PP2A_D32p75   ) ? evaluable
    r_ir_24 = ((  Spine   *   kcatB72PP2ACa_D32p75  ) *    B72PP2ACa_D32p75   ) ? evaluable
    r_ir_25 = ((  Spine   *   kcatB56PP2A_D32p75  ) *    B56PP2A_D32p75   ) ? evaluable
    r_ir_26 = ((  Spine   *   kcatB72PP2A_D32p34  ) *    B72PP2ACa_D32p34   ) ? evaluable
    r_ir_27 = ((  Spine   *   kcatB72PP2A_D32p34  ) *    B72PP2A_D32p34   ) ? evaluable
    r_ir_28 = ((  Spine   *   kcatPP2Bc_D32p34  ) *    PP2Bc_D32p34   ) ? evaluable
    r_ir_29 = ((  Spine   *   kdpB56PP2Ap  ) *    B56PP2Ap   ) ? evaluable
    r_ir_30 = ((  Spine   *   kcatPKAc_ARPP21  ) *    PKAc_ARPP21   ) ? evaluable
    r_ir_31 = ((  Spine   *   kcatPP2Ac_pARPP21  ) *    B72PPA2Ca_pARPP21   ) ? evaluable
    r_ir_32 = ((  Spine   *   kcatPP2A_pARPP21  ) *    B72PP2A_pARPP21   ) ? evaluable
    r_ir_33 = ((  Spine   *   kcatPP2Ac_pARPP21  ) *    B56PP2Ap_pARPP21   ) ? evaluable
    r_ir_34 = ((  Spine   *   kcatPP2A_pARPP21  ) *    B56PP2A_pARPP21   ) ? evaluable
    r_ir_35 = ((  Spine   *   ktransCaMKII  ) *    CaMKIIpsd   ) ? evaluable
    r_ir_36 = ((  Spine   *   kpCaMKIIc  ) *    CaMKIIcpsd   ) ? evaluable
    r_ir_37 = ((  Spine   *   kdppCaMKII  ) *    pCaMKII   ) ? evaluable
    r_ir_38 = ((  Spine   *   kpCaMKIIc  ) *    CaMKIIc   ) ? evaluable
    r_ir_39 = ((  Spine   *   kcatPP1_pCaMKIIpsd  ) *    PP1_pCaMKIIpsd   ) ? evaluable
    r_ir_40 = ((  Spine   *   kcatpCaMKII_Substrate  ) *    totalpCaMKIIpsd_Substrate   ) ? evaluable
    r_ir_41 = ((  Spine   *   kcatPP1_pSubstrate  ) *    PP1_pSubstrate   ) ? evaluable
    rate_PP2Bc = tscale  * (  r_r_25   +  r_r_27  -  r_r_38  +   r_ir_28  ) /  Spine ? Note units of all quantities used here need to be consistent!
    rate_AC5GaolfGTP = tscale  * (  r_r_5   -  r_r_6  +  r_ir_4  -  r_ir_5  -   r_ir_12  ) /  Spine ? Note units of all quantities used here need to be consistent!
    rate_PP2B = tscale  * (-1*  r_r_24   -  r_r_25  -   r_r_28  ) /  Spine ? Note units of all quantities used here need to be consistent!
    rate_B56PP2A_D32p75 = tscale  * (  r_r_39   -   r_ir_25  ) /  Spine ? Note units of all quantities used here need to be consistent!
    rate_pCaMKIICaM = tscale  * (-1*  r_r_54   +  r_r_57  -   r_r_60  ) /  Spine ? Note units of all quantities used here need to be consistent!
    rate_CaMKIICaMCa2 = tscale  * (  r_r_49   -  r_r_51  +  r_r_52  -   r_r_63  ) /  Spine ? Note units of all quantities used here need to be consistent!
    rate_pCaMKIICaMpsd = tscale  * (  r_r_60   +  r_r_67  -   r_r_68  ) /  Spine ? Note units of all quantities used here need to be consistent!
    rate_PP1_pCaMKIIpsd = tscale  * (  r_r_75   -   r_ir_39  ) /  Spine ? Note units of all quantities used here need to be consistent!
    rate_PP1 = tscale  * (-1*  r_r_31   -  r_r_75  -  r_r_77  +  r_ir_39  +   r_ir_41  ) /  Spine ? Note units of all quantities used here need to be consistent!
    rate_totalpCaMKIIpsd_Substrate = tscale  * (  r_r_76   -   r_ir_40  ) /  Spine ? Note units of all quantities used here need to be consistent!
    rate_PDE4 = tscale  * (-1*  r_r_15   +   r_ir_16  ) /  Spine ? Note units of all quantities used here need to be consistent!
    rate_AC5CaGaolfGTP_ATP = tscale  * (  r_r_11   +  r_r_13  -  r_ir_10  +  r_ir_11  -   r_ir_15  ) /  Spine ? Note units of all quantities used here need to be consistent!
    rate_PKAreg = tscale  * (  r_r_21  ) /  Spine ? Note units of all quantities used here need to be consistent!
    rate_AC5 = tscale  * (-1*  r_r_5   -  r_r_7  -  r_r_9  +  r_ir_6  -  r_ir_7  +   r_ir_12  ) /  Spine ? Note units of all quantities used here need to be consistent!
    rate_B72PPA2Ca_pARPP21 = tscale  * (  r_r_44   -   r_ir_31  ) /  Spine ? Note units of all quantities used here need to be consistent!
    rate_B72PP2A_D32p75 = tscale  * (  r_r_36   -   r_ir_23  ) /  Spine ? Note units of all quantities used here need to be consistent!
    rate_GaolfGTP = tscale  * (-1*  r_r_5   -  r_r_8  -  r_r_12  -  r_r_13  +  r_ir_1  -   r_ir_2  ) /  Spine ? Note units of all quantities used here need to be consistent!
    rate_AC5Ca = tscale  * (  r_r_7   -  r_r_8  -  r_r_10  +  r_ir_8  -  r_ir_9  +   r_ir_13  ) /  Spine ? Note units of all quantities used here need to be consistent!
    rate_PKAcAMP4 = tscale  * (  r_r_20   -   r_r_21  ) /  Spine ? Note units of all quantities used here need to be consistent!
    rate_pARPP21 = tscale  * (-1*  r_r_43   -  r_r_44  -  r_r_45  -  r_r_46  -  r_r_47  +   r_ir_30  ) /  Spine ? Note units of all quantities used here need to be consistent!
    rate_pCaMKIIcpsd = tscale  * (  r_r_58   +  r_r_65  +  r_r_69  +   r_ir_36  ) /  Spine ? Note units of all quantities used here need to be consistent!
    rate_CaMKIIc = tscale  * (  r_r_48   +  r_r_51  -  r_r_64  -   r_ir_38  ) /  Spine ? Note units of all quantities used here need to be consistent!
    rate_PP1_pSubstrate = tscale  * (  r_r_77   -   r_ir_41  ) /  Spine ? Note units of all quantities used here need to be consistent!
    rate_PDE10 = tscale  * (-1*  r_r_16   -  r_r_17  +   r_ir_17  ) /  Spine ? Note units of all quantities used here need to be consistent!
    rate_Substrate = tscale  * (-1*  r_r_76   +   r_ir_41  ) /  Spine ? Note units of all quantities used here need to be consistent!
    rate_CDK5 = tscale  * (-1*  r_r_32   +   r_ir_21  ) /  Spine ? Note units of all quantities used here need to be consistent!
    rate_CaMKIICaMpsd = tscale  * (  r_r_62   +  r_r_72  -   r_r_74  ) /  Spine ? Note units of all quantities used here need to be consistent!
    rate_B56PP2A = tscale  * (-1*  r_r_30   -  r_r_39  -  r_r_47  +  r_ir_25  +  r_ir_29  +   r_ir_34  ) /  Spine ? Note units of all quantities used here need to be consistent!
    rate_PKAcD32p75 = tscale  * (  r_r_33  ) /  Spine ? Note units of all quantities used here need to be consistent!
    rate_D1R = tscale  * (-1*  r_r_2   -   r_r_3  ) /  Spine ? Note units of all quantities used here need to be consistent!
    rate_Golf = tscale  * (-1*  r_r_3   -  r_r_4  +   r_ir_3  ) /  Spine ? Note units of all quantities used here need to be consistent!
    rate_CaMKIICaM = tscale  * (  r_r_50   -  r_r_52  -   r_r_62  ) /  Spine ? Note units of all quantities used here need to be consistent!
    rate_CaMKII = tscale  * (-1*  r_r_48   -  r_r_49  -  r_r_50  +  r_ir_35  +   r_ir_37  ) /  Spine ? Note units of all quantities used here need to be consistent!
    rate_CaMKIIpsd = tscale  * (-1*  r_r_70   -  r_r_71  -  r_r_72  -  r_ir_35  +   r_ir_39  ) /  Spine ? Note units of all quantities used here need to be consistent!
    rate_PKAc = tscale  * (  r_r_21   -  r_r_29  -  r_r_30  -  r_r_33  -  r_r_42  +  r_ir_19  +  r_ir_20  +   r_ir_30  ) /  Spine ? Note units of all quantities used here need to be consistent!
    rate_PP1D32p34 = tscale  * (  r_r_31  ) /  Spine ? Note units of all quantities used here need to be consistent!
    rate_AC5Ca_ATP = tscale  * (  r_r_10   -  r_r_13  +  r_r_14  -  r_ir_8  +  r_ir_9  +   r_ir_15  ) /  Spine ? Note units of all quantities used here need to be consistent!
    rate_PKAcAMP2 = tscale  * (  r_r_19   -   r_r_20  ) /  Spine ? Note units of all quantities used here need to be consistent!
    rate_PKAc_ARPP21 = tscale  * (  r_r_42   -   r_ir_30  ) /  Spine ? Note units of all quantities used here need to be consistent!
    rate_CaMCa4 = tscale  * (  r_r_23   -  r_r_25  -  r_r_43  -  r_r_48  -  r_r_55  -  r_r_65  -   r_r_70  ) /  Spine ? Note units of all quantities used here need to be consistent!
    rate_PP2BCaM = tscale  * (  r_r_24   -   r_r_26  ) /  Spine ? Note units of all quantities used here need to be consistent!
    rate_pCaMKII = tscale  * (-1*  r_r_55   -  r_r_56  -  r_r_57  -  r_r_61  -   r_ir_37  ) /  Spine ? Note units of all quantities used here need to be consistent!
    rate_CaMCa4pARPP21 = tscale  * (  r_r_43  ) /  Spine ? Note units of all quantities used here need to be consistent!
    rate_D1RGolf = tscale  * (-1*  r_r_1   +   r_r_3  ) /  Spine ? Note units of all quantities used here need to be consistent!
    rate_B56PP2Ap_pARPP21 = tscale  * (  r_r_46   -   r_ir_33  ) /  Spine ? Note units of all quantities used here need to be consistent!
    rate_AC5_ATP = tscale  * (  r_r_9   -  r_r_12  -  r_r_14  -  r_ir_6  +  r_ir_7  +   r_ir_14  ) /  Spine ? Note units of all quantities used here need to be consistent!
    rate_CaMCa2 = tscale  * (  r_r_22   -  r_r_23  -  r_r_28  -  r_r_49  -  r_r_56  -  r_r_66  -   r_r_71  ) /  Spine ? Note units of all quantities used here need to be consistent!
    rate_Gbgolf = tscale  * (  r_ir_1   -   r_ir_3  ) /  Spine ? Note units of all quantities used here need to be consistent!
    rate_ARPP21 = tscale  * (-1*  r_r_42   +  r_ir_31  +  r_ir_32  +  r_ir_33  +   r_ir_34  ) /  Spine ? Note units of all quantities used here need to be consistent!
    rate_PP2BCaMCa2 = tscale  * (  r_r_26   -  r_r_27  +   r_r_28  ) /  Spine ? Note units of all quantities used here need to be consistent!
    rate_B72PP2ACa_D32p34 = tscale  * (  r_r_40   -   r_ir_26  ) /  Spine ? Note units of all quantities used here need to be consistent!
    rate_PDE4_cAMP = tscale  * (  r_r_15   -   r_ir_16  ) /  Spine ? Note units of all quantities used here need to be consistent!
    rate_D32p75 = tscale  * (-1*  r_r_33   -  r_r_35  -  r_r_36  -  r_r_37  -  r_r_39  +   r_ir_21  ) /  Spine ? Note units of all quantities used here need to be consistent!
    rate_pSubstrate = tscale  * (-1*  r_r_77   +   r_ir_40  ) /  Spine ? Note units of all quantities used here need to be consistent!
    rate_AC5GaolfGTP_ATP = tscale  * (  r_r_6   +  r_r_12  -  r_ir_4  +  r_ir_5  -   r_ir_14  ) /  Spine ? Note units of all quantities used here need to be consistent!
    rate_CaMKIICaMCa2psd = tscale  * (  r_r_63   +  r_r_71  -  r_r_73  +   r_r_74  ) /  Spine ? Note units of all quantities used here need to be consistent!
    rate_PP2Bc_D32p34 = tscale  * (  r_r_38   -   r_ir_28  ) /  Spine ? Note units of all quantities used here need to be consistent!
    rate_PKAc_B56PP2A = tscale  * (  r_r_30   -   r_ir_20  ) /  Spine ? Note units of all quantities used here need to be consistent!
    rate_B72PPA2Ca = tscale  * (  r_r_34   -  r_r_37  -  r_r_40  -  r_r_44  +  r_ir_24  +  r_ir_26  +   r_ir_31  ) /  Spine ? Note units of all quantities used here need to be consistent!
    rate_GaolfGDP = tscale  * (  r_ir_2   -  r_ir_3  +  r_ir_12  +  r_ir_13  +  r_ir_14  +   r_ir_15  ) /  Spine ? Note units of all quantities used here need to be consistent!
    rate_CaM = tscale  * (-1*  r_r_22   -  r_r_24  -  r_r_50  -  r_r_57  -  r_r_67  -   r_r_72  ) /  Spine ? Note units of all quantities used here need to be consistent!
    rate_DARPP32 = tscale  * (-1*  r_r_29   -  r_r_32  +  r_ir_22  +  r_ir_23  +  r_ir_24  +  r_ir_25  +  r_ir_26  +  r_ir_27  +   r_ir_28  ) /  Spine ? Note units of all quantities used here need to be consistent!
    rate_cAMP = tscale  * (-1*  r_r_15   -  r_r_16  * 2.0 -  r_r_17  -  r_r_18  -  r_r_19  -  r_r_20  +  r_ir_4  -  r_ir_5  +  r_ir_6  -  r_ir_7  +  r_ir_8  -  r_ir_9  +  r_ir_10  -   r_ir_11  ) /  Spine ? Note units of all quantities used here need to be consistent!
    rate_PDE10_cAMP = tscale  * (  r_r_17   -   r_ir_17  ) /  Spine ? Note units of all quantities used here need to be consistent!
    rate_PDE10c = tscale  * (  r_r_16   -  r_r_18  +   r_ir_18  ) /  Spine ? Note units of all quantities used here need to be consistent!
    rate_B72PP2A_D32p34 = tscale  * (  r_r_41   -   r_ir_27  ) /  Spine ? Note units of all quantities used here need to be consistent!
    rate_PDE10c_cAMP = tscale  * (  r_r_18   -   r_ir_18  ) /  Spine ? Note units of all quantities used here need to be consistent!
    rate_pCaMKIIc = tscale  * (  r_r_53   +  r_r_55  -  r_r_58  +   r_ir_38  ) /  Spine ? Note units of all quantities used here need to be consistent!
    rate_ModelValue_140 = tscale  * 0 ? Note units of all quantities used here need to be consistent!
    rate_CDK5_D32 = tscale  * (  r_r_32   -   r_ir_21  ) /  Spine ? Note units of all quantities used here need to be consistent!
    rate_pCaMKIIpsd = tscale  * (  r_r_61   -  r_r_65  -  r_r_66  -  r_r_67  -   r_r_75  ) /  Spine ? Note units of all quantities used here need to be consistent!
    rate_B56PP2Ap = tscale  * (-1*  r_r_35   -  r_r_46  +  r_ir_20  +  r_ir_22  -  r_ir_29  +   r_ir_33  ) /  Spine ? Note units of all quantities used here need to be consistent!
    rate_B56PP2A_pARPP21 = tscale  * (  r_r_47   -   r_ir_34  ) /  Spine ? Note units of all quantities used here need to be consistent!
    rate_pCaMKIICaMCa2 = tscale  * (-1*  r_r_53   +  r_r_54  +  r_r_56  -   r_r_59  ) /  Spine ? Note units of all quantities used here need to be consistent!
    rate_B72PP2ACa_D32p75 = tscale  * (  r_r_37   -   r_ir_24  ) /  Spine ? Note units of all quantities used here need to be consistent!
    rate_D1RDA = tscale  * (  r_r_2   -  r_r_4  +   r_ir_1  ) /  Spine ? Note units of all quantities used here need to be consistent!
    rate_CaMKIIcpsd = tscale  * (  r_r_64   +  r_r_70  +  r_r_73  -   r_ir_36  ) /  Spine ? Note units of all quantities used here need to be consistent!
    rate_B72PP2A_pARPP21 = tscale  * (  r_r_45   -   r_ir_32  ) /  Spine ? Note units of all quantities used here need to be consistent!
    rate_PKA = tscale  * (-1*  r_r_19  ) /  Spine ? Note units of all quantities used here need to be consistent!
    rate_PKAc_D32 = tscale  * (  r_r_29   -   r_ir_19  ) /  Spine ? Note units of all quantities used here need to be consistent!
    rate_B72PP2A = tscale  * (-1*  r_r_34   -  r_r_36  -  r_r_41  -  r_r_45  +  r_ir_23  +  r_ir_27  +   r_ir_32  ) /  Spine ? Note units of all quantities used here need to be consistent!
    rate_D32p34 = tscale  * (-1*  r_r_31   -  r_r_38  -  r_r_40  -  r_r_41  +   r_ir_19  ) /  Spine ? Note units of all quantities used here need to be consistent!
    rate_AC5CaGaolfGTP = tscale  * (  r_r_8   -  r_r_11  +  r_ir_10  -  r_ir_11  -   r_ir_13  ) /  Spine ? Note units of all quantities used here need to be consistent!
    rate_D1RDAGolf = tscale  * (  r_r_1   +  r_r_4  -   r_ir_1  ) /  Spine ? Note units of all quantities used here need to be consistent!
    rate_B56PP2Ap_D32p75 = tscale  * (  r_r_35   -   r_ir_22  ) /  Spine ? Note units of all quantities used here need to be consistent!
    rate_pCaMKIICaMCa2psd = tscale  * (  r_r_59   +  r_r_66  +  r_r_68  -   r_r_69  ) /  Spine ? Note units of all quantities used here need to be consistent!
    
     
    
}

