{
    "all": [
        "pas"
    ],
    "somatic": [
        "naf",
        "kaf",
        "kas",
        "kir",
        "can",
        "car",
        "cadyn",
        "sk",
        "bk"
    ],
    "basal": [
        "naf",
        "kaf",
        "kas",
        "kir"
    ]
}
