soma[0]	L : 12.200000
	nseg : 1
	x : 0.500000;	area : 467.594636
			diam : 12.200000
			dist : 0.000000
			naf : 12.000000
			kas : 0.016000
			kir : 0.000434
			kaf : 0.150000
			kdr : 0.000940
			can : 4.000000e-05
			car : 1.340000e-04
			cal12 : 1.340000e-05
			cal13 : 1.340000e-06
			sk : 0.000011
			bk : 0.000130
axon[0]	L : 60.000000
	nseg : 2
	x : 0.250000;	area : 94.247780
			diam : 1.000000
			dist : 15.000000
			naf : 9.900000
			kas : 0.007000
	x : 0.750000;	area : 94.247780
			diam : 1.000000
			dist : 45.000000
			naf : 9.000000
			kas : 0.007000
dend[0]	L : 4.498863
	nseg : 1
	x : 0.500000;	area : 33.276324
			diam : 2.354413
			dist : 2.249431
			naf : 2.233010
			kas : 0.003445
			kir : 0.000434
			kaf : 0.156045
			kdr : 0.000700
			can : 4.334780e-06
			car : 1.000000e-04
			cal12 : 1.000000e-05
			cal13 : 1.000000e-06
			sk : 0.000011
			bk : 0.000100
			cav32 : 8.969780e-10
			cav33 : 2.963380e-09
dend[1]	L : 44.293783
	nseg : 3
	x : 0.166667;	area : 77.400071
			diam : 1.666964
			dist : 11.881160
			naf : 2.221670
			kas : 0.003284
			kir : 0.000434
			kaf : 0.160546
			kdr : 0.000700
			can : 3.723970e-06
			car : 1.000000e-04
			cal12 : 1.000000e-05
			cal13 : 1.000000e-06
			sk : 0.000011
			bk : 0.000100
			cav32 : 1.660940e-09
			cav33 : 3.204360e-09
	x : 0.500000;	area : 63.357987
			diam : 1.365935
			dist : 26.645754
			naf : 2.080100
			kas : 0.003027
			kir : 0.000434
			kaf : 0.167806
			kdr : 0.000700
			can : 2.252510e-06
			car : 1.000000e-04
			cal12 : 1.000000e-05
			cal13 : 1.000000e-06
			sk : 0.000011
			bk : 0.000100
			cav32 : 4.251840e-09
			cav33 : 3.569400e-09
	x : 0.833333;	area : 62.673181
			diam : 1.351171
			dist : 41.410349
			naf : 1.191820
			kas : 0.002764
			kir : 0.000434
			kaf : 0.175233
			kdr : 0.000700
			can : 1.044250e-06
			car : 1.000000e-04
			cal12 : 1.000000e-05
			cal13 : 1.000000e-06
			sk : 0.000011
			bk : 0.000100
			cav32 : 1.074860e-08
			cav33 : 3.920280e-09
dend[2]	L : 28.229803
	nseg : 1
	x : 0.500000;	area : 106.422515
			diam : 1.199965
			dist : 62.907547
			naf : 0.071585
			kas : 0.002384
			kir : 0.000434
			kaf : 0.185673
			kdr : 0.000700
			can : 4.594350e-07
			car : 1.000000e-04
			cal12 : 1.000000e-05
			cal13 : 1.000000e-06
			sk : 0.000011
			bk : 0.000100
			cav32 : 3.887690e-08
			cav33 : 4.388630e-09
dend[3]	L : 148.212005
	nseg : 7
	x : 0.071429;	area : 68.060539
			diam : 1.023164
			dist : 87.609020
			naf : 0.004209
			kas : 0.001975
			kir : 0.000434
			kaf : 0.196141
			kdr : 0.000700
			can : 3.647290e-07
			car : 1.000000e-04
			cal12 : 1.000000e-05
			cal13 : 1.000000e-06
			sk : 0.000011
			bk : 0.000100
			cav32 : 1.292470e-07
			cav33 : 4.845420e-09
	x : 0.214286;	area : 65.616336
			diam : 0.986454
			dist : 108.782164
			naf : 0.003091
			kas : 0.001666
			kir : 0.000434
			kaf : 0.203303
			kdr : 0.000700
			can : 3.556420e-07
			car : 1.000000e-04
			cal12 : 1.000000e-05
			cal13 : 1.000000e-06
			sk : 0.000011
			bk : 0.000100
			cav32 : 2.327500e-07
			cav33 : 5.161400e-09
	x : 0.357143;	area : 64.207940
			diam : 0.965280
			dist : 129.955308
			naf : 0.003058
			kas : 0.001403
			kir : 0.000434
			kaf : 0.208747
			kdr : 0.000700
			can : 3.543990e-07
			car : 1.000000e-04
			cal12 : 1.000000e-05
			cal13 : 1.000000e-06
			sk : 0.000011
			bk : 0.000100
			cav32 : 2.929960e-07
			cav33 : 5.411080e-09
	x : 0.500000;	area : 62.799536
			diam : 0.944107
			dist : 151.128451
			naf : 0.003058
			kas : 0.001187
			kir : 0.000434
			kaf : 0.212693
			kdr : 0.000700
			can : 3.542300e-07
			car : 1.000000e-04
			cal12 : 1.000000e-05
			cal13 : 1.000000e-06
			sk : 0.000011
			bk : 0.000100
			cav32 : 3.138550e-07
			cav33 : 5.602850e-09
	x : 0.642857;	area : 61.391158
			diam : 0.922934
			dist : 172.301595
			naf : 0.003057
			kas : 0.001017
			kir : 0.000434
			kaf : 0.215454
			kdr : 0.000700
			can : 3.542070e-07
			car : 1.000000e-04
			cal12 : 1.000000e-05
			cal13 : 1.000000e-06
			sk : 0.000011
			bk : 0.000100
			cav32 : 3.196980e-07
			cav33 : 5.746950e-09
	x : 0.785714;	area : 59.982717
			diam : 0.901760
			dist : 193.474738
			naf : 0.003057
			kas : 0.000885
			kir : 0.000434
			kaf : 0.217340
			kdr : 0.000700
			can : 3.542030e-07
			car : 1.000000e-04
			cal12 : 1.000000e-05
			cal13 : 1.000000e-06
			sk : 0.000011
			bk : 0.000100
			cav32 : 3.212340e-07
			cav33 : 5.853470e-09
	x : 0.928571;	area : 58.574325
			diam : 0.880587
			dist : 214.647882
			naf : 0.003057
			kas : 0.000784
			kir : 0.000434
			kaf : 0.218607
			kdr : 0.000700
			can : 3.542030e-07
			car : 1.000000e-04
			cal12 : 1.000000e-05
			cal13 : 1.000000e-06
			sk : 0.000011
			bk : 0.000100
			cav32 : 3.216310e-07
			cav33 : 5.931250e-09
dend[4]	L : 149.955647
	nseg : 7
	x : 0.071429;	area : 68.583720
			diam : 1.019024
			dist : 87.733566
			naf : 0.004186
			kas : 0.001973
			kir : 0.000434
			kaf : 0.196188
			kdr : 0.000700
			can : 3.646070e-07
			car : 1.000000e-04
			cal12 : 1.000000e-05
			cal13 : 1.000000e-06
			sk : 0.000011
			bk : 0.000100
			cav32 : 1.298660e-07
			cav33 : 4.847480e-09
	x : 0.214286;	area : 66.480400
			diam : 0.987822
			dist : 109.155802
			naf : 0.003089
			kas : 0.001661
			kir : 0.000434
			kaf : 0.203413
			kdr : 0.000700
			can : 3.555930e-07
			car : 1.000000e-04
			cal12 : 1.000000e-05
			cal13 : 1.000000e-06
			sk : 0.000011
			bk : 0.000100
			cav32 : 2.342870e-07
			cav33 : 5.166370e-09
	x : 0.357143;	area : 65.038679
			diam : 0.966400
			dist : 130.578037
			naf : 0.003058
			kas : 0.001396
			kir : 0.000434
			kaf : 0.208883
			kdr : 0.000700
			can : 3.543880e-07
			car : 1.000000e-04
			cal12 : 1.000000e-05
			cal13 : 1.000000e-06
			sk : 0.000011
			bk : 0.000100
			cav32 : 2.940260e-07
			cav33 : 5.417500e-09
	x : 0.500000;	area : 63.596956
			diam : 0.944978
			dist : 152.000272
			naf : 0.003058
			kas : 0.001180
			kir : 0.000434
			kaf : 0.212828
			kdr : 0.000700
			can : 3.542280e-07
			car : 1.000000e-04
			cal12 : 1.000000e-05
			cal13 : 1.000000e-06
			sk : 0.000011
			bk : 0.000100
			cav32 : 3.142750e-07
			cav33 : 5.609650e-09
	x : 0.642857;	area : 62.155232
			diam : 0.923555
			dist : 173.422507
			naf : 0.003057
			kas : 0.001009
			kir : 0.000434
			kaf : 0.215574
			kdr : 0.000700
			can : 3.542060e-07
			car : 1.000000e-04
			cal12 : 1.000000e-05
			cal13 : 1.000000e-06
			sk : 0.000011
			bk : 0.000100
			cav32 : 3.198410e-07
			cav33 : 5.753450e-09
	x : 0.785714;	area : 60.713505
			diam : 0.902133
			dist : 194.844743
			naf : 0.003057
			kas : 0.000877
			kir : 0.000434
			kaf : 0.217439
			kdr : 0.000700
			can : 3.542030e-07
			car : 1.000000e-04
			cal12 : 1.000000e-05
			cal13 : 1.000000e-06
			sk : 0.000011
			bk : 0.000100
			cav32 : 3.212790e-07
			cav33 : 5.859280e-09
	x : 0.928571;	area : 59.271801
			diam : 0.880711
			dist : 216.266978
			naf : 0.003057
			kas : 0.000778
			kir : 0.000434
			kaf : 0.218684
			kdr : 0.000700
			can : 3.542030e-07
			car : 1.000000e-04
			cal12 : 1.000000e-05
			cal13 : 1.000000e-06
			sk : 0.000011
			bk : 0.000100
			cav32 : 3.216440e-07
			cav33 : 5.936240e-09
dend[5]	L : 147.390957
	nseg : 7
	x : 0.071429;	area : 68.633411
			diam : 1.037365
			dist : 59.320571
			naf : 0.124591
			kas : 0.002447
			kir : 0.000434
			kaf : 0.183995
			kdr : 0.000700
			can : 5.003050e-07
			car : 1.000000e-04
			cal12 : 1.000000e-05
			cal13 : 1.000000e-06
			sk : 0.000011
			bk : 0.000100
			cav32 : 3.166580e-08
			cav33 : 4.314690e-09
	x : 0.214286;	area : 65.210045
			diam : 0.985807
			dist : 80.376422
			naf : 0.006898
			kas : 0.002090
			kir : 0.000434
			kaf : 0.193295
			kdr : 0.000700
			can : 3.749400e-07
			car : 1.000000e-04
			cal12 : 1.000000e-05
			cal13 : 1.000000e-06
			sk : 0.000011
			bk : 0.000100
			cav32 : 9.547840e-08
			cav33 : 4.721430e-09
	x : 0.357143;	area : 63.817249
			diam : 0.964751
			dist : 101.432273
			naf : 0.003173
			kas : 0.001768
			kir : 0.000434
			kaf : 0.201016
			kdr : 0.000700
			can : 3.570760e-07
			car : 1.000000e-04
			cal12 : 1.000000e-05
			cal13 : 1.000000e-06
			sk : 0.000011
			bk : 0.000100
			cav32 : 1.994670e-07
			cav33 : 5.059550e-09
	x : 0.500000;	area : 62.424440
			diam : 0.943696
			dist : 122.488124
			naf : 0.003061
			kas : 0.001490
			kir : 0.000434
			kaf : 0.207013
			kdr : 0.000700
			can : 3.546000e-07
			car : 1.000000e-04
			cal12 : 1.000000e-05
			cal13 : 1.000000e-06
			sk : 0.000011
			bk : 0.000100
			cav32 : 2.777170e-07
			cav33 : 5.330130e-09
	x : 0.642857;	area : 61.031595
			diam : 0.922639
			dist : 143.543975
			naf : 0.003058
			kas : 0.001259
			kir : 0.000434
			kaf : 0.211433
			kdr : 0.000700
			can : 3.542580e-07
			car : 1.000000e-04
			cal12 : 1.000000e-05
			cal13 : 1.000000e-06
			sk : 0.000011
			bk : 0.000100
			cav32 : 3.090850e-07
			cav33 : 5.540180e-09
	x : 0.785714;	area : 59.638778
			diam : 0.901584
			dist : 164.599826
			naf : 0.003057
			kas : 0.001074
			kir : 0.000434
			kaf : 0.214567
			kdr : 0.000700
			can : 3.542100e-07
			car : 1.000000e-04
			cal12 : 1.000000e-05
			cal13 : 1.000000e-06
			sk : 0.000011
			bk : 0.000100
			cav32 : 3.183880e-07
			cav33 : 5.699390e-09
	x : 0.928571;	area : 58.245971
			diam : 0.880528
			dist : 185.655677
			naf : 0.003057
			kas : 0.000929
			kir : 0.000434
			kaf : 0.216728
			kdr : 0.000700
			can : 3.542040e-07
			car : 1.000000e-04
			cal12 : 1.000000e-05
			cal13 : 1.000000e-06
			sk : 0.000011
			bk : 0.000100
			cav32 : 3.208870e-07
			cav33 : 5.817920e-09
dend[6]	L : 6.239830
	nseg : 1
	x : 0.500000;	area : 39.230776
			diam : 1.998327
			dist : 7.618778
			naf : 2.228870
			kas : 0.003356
			kir : 0.000434
			kaf : 0.158525
			kdr : 0.000700
			can : 4.037250e-06
			car : 1.000000e-04
			cal12 : 1.000000e-05
			cal13 : 1.000000e-06
			sk : 0.000011
			bk : 0.000100
			cav32 : 1.264800e-09
			cav33 : 3.097750e-09
dend[7]	L : 4.433097
	nseg : 1
	x : 0.500000;	area : 24.073867
			diam : 1.728140
			dist : 12.955241
			naf : 2.218910
			kas : 0.003266
			kir : 0.000434
			kaf : 0.161061
			kdr : 0.000700
			can : 3.634170e-06
			car : 1.000000e-04
			cal12 : 1.000000e-05
			cal13 : 1.000000e-06
			sk : 0.000011
			bk : 0.000100
			cav32 : 1.778880e-09
			cav33 : 3.231180e-09
dend[8]	L : 234.949779
	nseg : 11
	x : 0.045455;	area : 78.965129
			diam : 1.176382
			dist : 25.851325
			naf : 2.098230
			kas : 0.003041
			kir : 0.000434
			kaf : 0.167408
			kdr : 0.000700
			can : 2.335500e-06
			car : 1.000000e-04
			cal12 : 1.000000e-05
			cal13 : 1.000000e-06
			sk : 0.000011
			bk : 0.000100
			cav32 : 4.043030e-09
			cav33 : 3.550040e-09
	x : 0.136364;	area : 74.026567
			diam : 1.103203
			dist : 47.210396
			naf : 0.677858
			kas : 0.002661
			kir : 0.000434
			kaf : 0.178124
			kdr : 0.000700
			can : 7.814080e-07
			car : 1.000000e-04
			cal12 : 1.000000e-05
			cal13 : 1.000000e-06
			sk : 0.000011
			bk : 0.000100
			cav32 : 1.536750e-08
			cav33 : 4.052290e-09
	x : 0.227273;	area : 72.593301
			diam : 1.081843
			dist : 68.569467
			naf : 0.030241
			kas : 0.002287
			kir : 0.000434
			kaf : 0.188250
			kdr : 0.000700
			can : 4.165820e-07
			car : 1.000000e-04
			cal12 : 1.000000e-05
			cal13 : 1.000000e-06
			sk : 0.000011
			bk : 0.000100
			cav32 : 5.310940e-08
			cav33 : 4.501540e-09
	x : 0.318182;	area : 71.160169
			diam : 1.060485
			dist : 89.928538
			naf : 0.003840
			kas : 0.001939
			kir : 0.000434
			kaf : 0.197011
			kdr : 0.000700
			can : 3.626700e-07
			car : 1.000000e-04
			cal12 : 1.000000e-05
			cal13 : 1.000000e-06
			sk : 0.000011
			bk : 0.000100
			cav32 : 1.409140e-07
			cav33 : 4.883430e-09
	x : 0.409091;	area : 69.726830
			diam : 1.039125
			dist : 111.287609
			naf : 0.003080
			kas : 0.001632
			kir : 0.000434
			kaf : 0.204034
			kdr : 0.000700
			can : 3.553400e-07
			car : 1.000000e-04
			cal12 : 1.000000e-05
			cal13 : 1.000000e-06
			sk : 0.000011
			bk : 0.000100
			cav32 : 2.427300e-07
			cav33 : 5.194280e-09
	x : 0.500000;	area : 68.293675
			diam : 1.017767
			dist : 132.646679
			naf : 0.003058
			kas : 0.001373
			kir : 0.000434
			kaf : 0.209326
			kdr : 0.000700
			can : 3.543550e-07
			car : 1.000000e-04
			cal12 : 1.000000e-05
			cal13 : 1.000000e-06
			sk : 0.000011
			bk : 0.000100
			cav32 : 2.972140e-07
			cav33 : 5.438460e-09
	x : 0.590909;	area : 66.860379
			diam : 0.996406
			dist : 154.005750
			naf : 0.003058
			kas : 0.001162
			kir : 0.000434
			kaf : 0.213130
			kdr : 0.000700
			can : 3.542230e-07
			car : 1.000000e-04
			cal12 : 1.000000e-05
			cal13 : 1.000000e-06
			sk : 0.000011
			bk : 0.000100
			cav32 : 3.151620e-07
			cav33 : 5.624990e-09
	x : 0.681818;	area : 65.427214
			diam : 0.975048
			dist : 175.364821
			naf : 0.003057
			kas : 0.000995
			kir : 0.000434
			kaf : 0.215775
			kdr : 0.000700
			can : 3.542060e-07
			car : 1.000000e-04
			cal12 : 1.000000e-05
			cal13 : 1.000000e-06
			sk : 0.000011
			bk : 0.000100
			cav32 : 3.200660e-07
			cav33 : 5.764460e-09
	x : 0.772727;	area : 63.994021
			diam : 0.953690
			dist : 196.723892
			naf : 0.003057
			kas : 0.000867
			kir : 0.000434
			kaf : 0.217569
			kdr : 0.000700
			can : 3.542030e-07
			car : 1.000000e-04
			cal12 : 1.000000e-05
			cal13 : 1.000000e-06
			sk : 0.000011
			bk : 0.000100
			cav32 : 3.213350e-07
			cav33 : 5.867070e-09
	x : 0.863636;	area : 62.560764
			diam : 0.932330
			dist : 218.082963
			naf : 0.003057
			kas : 0.000771
			kir : 0.000434
			kaf : 0.218768
			kdr : 0.000700
			can : 3.542030e-07
			car : 1.000000e-04
			cal12 : 1.000000e-05
			cal13 : 1.000000e-06
			sk : 0.000011
			bk : 0.000100
			cav32 : 3.216580e-07
			cav33 : 5.941680e-09
	x : 0.954545;	area : 61.127583
			diam : 0.910972
			dist : 239.442033
			naf : 0.003057
			kas : 0.000699
			kir : 0.000434
			kaf : 0.219559
			kdr : 0.000700
			can : 3.542030e-07
			car : 1.000000e-04
			cal12 : 1.000000e-05
			cal13 : 1.000000e-06
			sk : 0.000011
			bk : 0.000100
			cav32 : 3.217400e-07
			cav33 : 5.995460e-09
dend[9]	L : 15.144668
	nseg : 1
	x : 0.500000;	area : 41.941311
			diam : 0.881520
			dist : 257.693903
			naf : 0.003057
			kas : 0.000652
			kir : 0.000434
			kaf : 0.220016
			kdr : 0.000700
			can : 3.542030e-07
			car : 1.000000e-04
			cal12 : 1.000000e-05
			cal13 : 1.000000e-06
			sk : 0.000011
			bk : 0.000100
			cav32 : 3.217590e-07
			cav33 : 6.029150e-09
dend[10]	L : 15.146963
	nseg : 1
	x : 0.500000;	area : 41.859461
			diam : 0.879666
			dist : 257.695050
			naf : 0.003057
			kas : 0.000652
			kir : 0.000434
			kaf : 0.220016
			kdr : 0.000700
			can : 3.542030e-07
			car : 1.000000e-04
			cal12 : 1.000000e-05
			cal13 : 1.000000e-06
			sk : 0.000011
			bk : 0.000100
			cav32 : 3.217590e-07
			cav33 : 6.029150e-09
dend[11]	L : 27.891805
	nseg : 1
	x : 0.500000;	area : 123.514860
			diam : 1.409549
			dist : 29.117693
			naf : 2.008770
			kas : 0.002984
			kir : 0.000434
			kaf : 0.169047
			kdr : 0.000700
			can : 2.001640e-06
			car : 1.000000e-04
			cal12 : 1.000000e-05
			cal13 : 1.000000e-06
			sk : 0.000011
			bk : 0.000100
			cav32 : 4.971960e-09
			cav33 : 3.629390e-09
dend[12]	L : 212.877439
	nseg : 11
	x : 0.045455;	area : 68.476555
			diam : 1.126238
			dist : 52.739843
			naf : 0.331314
			kas : 0.002562
			kir : 0.000434
			kaf : 0.180839
			kdr : 0.000700
			can : 6.182370e-07
			car : 1.000000e-04
			cal12 : 1.000000e-05
			cal13 : 1.000000e-06
			sk : 0.000011
			bk : 0.000100
			cav32 : 2.148100e-08
			cav33 : 4.174450e-09
	x : 0.136364;	area : 64.071397
			diam : 1.053846
			dist : 72.092337
			naf : 0.018253
			kas : 0.002227
			kir : 0.000434
			kaf : 0.189804
			kdr : 0.000700
			can : 3.991620e-07
			car : 1.000000e-04
			cal12 : 1.000000e-05
			cal13 : 1.000000e-06
			sk : 0.000011
			bk : 0.000100
			cav32 : 6.391330e-08
			cav33 : 4.569390e-09
	x : 0.227273;	area : 62.894813
			diam : 1.034494
			dist : 91.444832
			naf : 0.003666
			kas : 0.001916
			kir : 0.000434
			kaf : 0.197569
			kdr : 0.000700
			can : 3.615460e-07
			car : 1.000000e-04
			cal12 : 1.000000e-05
			cal13 : 1.000000e-06
			sk : 0.000011
			bk : 0.000100
			cav32 : 1.486670e-07
			cav33 : 4.907830e-09
	x : 0.318182;	area : 61.718250
			diam : 1.015142
			dist : 110.797326
			naf : 0.003082
			kas : 0.001639
			kir : 0.000434
			kaf : 0.203893
			kdr : 0.000700
			can : 3.553940e-07
			car : 1.000000e-04
			cal12 : 1.000000e-05
			cal13 : 1.000000e-06
			sk : 0.000011
			bk : 0.000100
			cav32 : 2.408380e-07
			cav33 : 5.187920e-09
	x : 0.409091;	area : 60.541717
			diam : 0.995790
			dist : 130.149820
			naf : 0.003058
			kas : 0.001401
			kir : 0.000434
			kaf : 0.208790
			kdr : 0.000700
			can : 3.543960e-07
			car : 1.000000e-04
			cal12 : 1.000000e-05
			cal13 : 1.000000e-06
			sk : 0.000011
			bk : 0.000100
			cav32 : 2.933210e-07
			cav33 : 5.413090e-09
	x : 0.500000;	area : 59.365143
			diam : 0.976438
			dist : 149.502315
			naf : 0.003058
			kas : 0.001202
			kir : 0.000434
			kaf : 0.212436
			kdr : 0.000700
			can : 3.542340e-07
			car : 1.000000e-04
			cal12 : 1.000000e-05
			cal13 : 1.000000e-06
			sk : 0.000011
			bk : 0.000100
			cav32 : 3.130070e-07
			cav33 : 5.589940e-09
	x : 0.590909;	area : 58.188568
			diam : 0.957086
			dist : 168.854809
			naf : 0.003057
			kas : 0.001042
			kir : 0.000434
			kaf : 0.215072
			kdr : 0.000700
			can : 3.542080e-07
			car : 1.000000e-04
			cal12 : 1.000000e-05
			cal13 : 1.000000e-06
			sk : 0.000011
			bk : 0.000100
			cav32 : 3.191900e-07
			cav33 : 5.726310e-09
	x : 0.681818;	area : 57.011997
			diam : 0.937733
			dist : 188.207304
			naf : 0.003057
			kas : 0.000914
			kir : 0.000434
			kaf : 0.216938
			kdr : 0.000700
			can : 3.542040e-07
			car : 1.000000e-04
			cal12 : 1.000000e-05
			cal13 : 1.000000e-06
			sk : 0.000011
			bk : 0.000100
			cav32 : 3.210200e-07
			cav33 : 5.829970e-09
	x : 0.772727;	area : 55.835393
			diam : 0.918381
			dist : 207.559798
			naf : 0.003057
			kas : 0.000815
			kir : 0.000434
			kaf : 0.218238
			kdr : 0.000700
			can : 3.542030e-07
			car : 1.000000e-04
			cal12 : 1.000000e-05
			cal13 : 1.000000e-06
			sk : 0.000011
			bk : 0.000100
			cav32 : 3.215520e-07
			cav33 : 5.907930e-09
	x : 0.863636;	area : 54.658806
			diam : 0.899028
			dist : 226.912293
			naf : 0.003057
			kas : 0.000738
			kir : 0.000434
			kaf : 0.219136
			kdr : 0.000700
			can : 3.542030e-07
			car : 1.000000e-04
			cal12 : 1.000000e-05
			cal13 : 1.000000e-06
			sk : 0.000011
			bk : 0.000100
			cav32 : 3.217060e-07
			cav33 : 5.966080e-09
	x : 0.954545;	area : 53.482278
			diam : 0.879677
			dist : 246.264787
			naf : 0.003057
			kas : 0.000680
			kir : 0.000434
			kaf : 0.219750
			kdr : 0.000700
			can : 3.542030e-07
			car : 1.000000e-04
			cal12 : 1.000000e-05
			cal13 : 1.000000e-06
			sk : 0.000011
			bk : 0.000100
			cav32 : 3.217500e-07
			cav33 : 6.009200e-09
dend[13]	L : 15.493399
	nseg : 1
	x : 0.500000;	area : 55.558796
			diam : 1.141328
			dist : 50.810295
			naf : 0.431899
			kas : 0.002597
			kir : 0.000434
			kaf : 0.179897
			kdr : 0.000700
			can : 6.671590e-07
			car : 1.000000e-04
			cal12 : 1.000000e-05
			cal13 : 1.000000e-06
			sk : 0.000011
			bk : 0.000100
			cav32 : 1.912650e-08
			cav33 : 4.132260e-09
dend[14]	L : 100.952308
	nseg : 5
	x : 0.100000;	area : 63.119554
			diam : 0.995089
			dist : 68.652225
			naf : 0.029873
			kas : 0.002285
			kir : 0.000434
			kaf : 0.188287
			kdr : 0.000700
			can : 4.161050e-07
			car : 1.000000e-04
			cal12 : 1.000000e-05
			cal13 : 1.000000e-06
			sk : 0.000011
			bk : 0.000100
			cav32 : 5.334550e-08
			cav33 : 4.503160e-09
	x : 0.300000;	area : 59.666692
			diam : 0.940667
			dist : 88.842687
			naf : 0.003995
			kas : 0.001956
			kir : 0.000434
			kaf : 0.196606
			kdr : 0.000700
			can : 3.635780e-07
			car : 1.000000e-04
			cal12 : 1.000000e-05
			cal13 : 1.000000e-06
			sk : 0.000011
			bk : 0.000100
			cav32 : 1.354180e-07
			cav33 : 4.865740e-09
	x : 0.500000;	area : 58.386020
			diam : 0.920476
			dist : 109.033149
			naf : 0.003090
			kas : 0.001662
			kir : 0.000434
			kaf : 0.203377
			kdr : 0.000700
			can : 3.556090e-07
			car : 1.000000e-04
			cal12 : 1.000000e-05
			cal13 : 1.000000e-06
			sk : 0.000011
			bk : 0.000100
			cav32 : 2.337840e-07
			cav33 : 5.164740e-09
	x : 0.700000;	area : 57.105312
			diam : 0.900286
			dist : 129.223610
			naf : 0.003059
			kas : 0.001411
			kir : 0.000434
			kaf : 0.208586
			kdr : 0.000700
			can : 3.544130e-07
			car : 1.000000e-04
			cal12 : 1.000000e-05
			cal13 : 1.000000e-06
			sk : 0.000011
			bk : 0.000100
			cav32 : 2.917410e-07
			cav33 : 5.403470e-09
	x : 0.900000;	area : 55.824624
			diam : 0.880095
			dist : 149.414072
			naf : 0.003058
			kas : 0.001203
			kir : 0.000434
			kaf : 0.212422
			kdr : 0.000700
			can : 3.542340e-07
			car : 1.000000e-04
			cal12 : 1.000000e-05
			cal13 : 1.000000e-06
			sk : 0.000011
			bk : 0.000100
			cav32 : 3.129590e-07
			cav33 : 5.589230e-09
dend[15]	L : 135.981791
	nseg : 7
	x : 0.071429;	area : 61.170296
			diam : 1.002292
			dist : 68.269980
			naf : 0.031614
			kas : 0.002292
			kir : 0.000434
			kaf : 0.188116
			kdr : 0.000700
			can : 4.183390e-07
			car : 1.000000e-04
			cal12 : 1.000000e-05
			cal13 : 1.000000e-06
			sk : 0.000011
			bk : 0.000100
			cav32 : 5.226210e-08
			cav33 : 4.495690e-09
	x : 0.214286;	area : 59.615285
			diam : 0.976843
			dist : 87.695950
			naf : 0.004193
			kas : 0.001974
			kir : 0.000434
			kaf : 0.196174
			kdr : 0.000700
			can : 3.646440e-07
			car : 1.000000e-04
			cal12 : 1.000000e-05
			cal13 : 1.000000e-06
			sk : 0.000011
			bk : 0.000100
			cav32 : 1.296790e-07
			cav33 : 4.846860e-09
	x : 0.357143;	area : 58.429767
			diam : 0.957418
			dist : 107.121920
			naf : 0.003102
			kas : 0.001689
			kir : 0.000434
			kaf : 0.202805
			kdr : 0.000700
			can : 3.558860e-07
			car : 1.000000e-04
			cal12 : 1.000000e-05
			cal13 : 1.000000e-06
			sk : 0.000011
			bk : 0.000100
			cav32 : 2.257250e-07
			cav33 : 5.139110e-09
	x : 0.500000;	area : 57.244241
			diam : 0.937992
			dist : 126.547890
			naf : 0.003059
			kas : 0.001442
			kir : 0.000434
			kaf : 0.207980
			kdr : 0.000700
			can : 3.544740e-07
			car : 1.000000e-04
			cal12 : 1.000000e-05
			cal13 : 1.000000e-06
			sk : 0.000011
			bk : 0.000100
			cav32 : 2.867250e-07
			cav33 : 5.375060e-09
	x : 0.642857;	area : 56.058693
			diam : 0.918566
			dist : 145.973860
			naf : 0.003058
			kas : 0.001236
			kir : 0.000434
			kaf : 0.211854
			kdr : 0.000700
			can : 3.542460e-07
			car : 1.000000e-04
			cal12 : 1.000000e-05
			cal13 : 1.000000e-06
			sk : 0.000011
			bk : 0.000100
			cav32 : 3.108550e-07
			cav33 : 5.560950e-09
	x : 0.785714;	area : 54.873131
			diam : 0.899140
			dist : 165.399830
			naf : 0.003057
			kas : 0.001068
			kir : 0.000434
			kaf : 0.214665
			kdr : 0.000700
			can : 3.542100e-07
			car : 1.000000e-04
			cal12 : 1.000000e-05
			cal13 : 1.000000e-06
			sk : 0.000011
			bk : 0.000100
			cav32 : 3.185560e-07
			cav33 : 5.704580e-09
	x : 0.928571;	area : 53.687573
			diam : 0.879713
			dist : 184.825800
			naf : 0.003057
			kas : 0.000934
			kir : 0.000434
			kaf : 0.216658
			kdr : 0.000700
			can : 3.542040e-07
			car : 1.000000e-04
			cal12 : 1.000000e-05
			cal13 : 1.000000e-06
			sk : 0.000011
			bk : 0.000100
			cav32 : 3.208390e-07
			cav33 : 5.813900e-09
dend[16]	L : 16.522763
	nseg : 1
	x : 0.500000;	area : 62.837083
			diam : 1.209621
			dist : 19.000074
			naf : 2.190010
			kas : 0.003162
			kir : 0.000434
			kaf : 0.164005
			kdr : 0.000700
			can : 3.059650e-06
			car : 1.000000e-04
			cal12 : 1.000000e-05
			cal13 : 1.000000e-06
			sk : 0.000011
			bk : 0.000100
			cav32 : 2.615700e-09
			cav33 : 3.381520e-09
dend[17]	L : 78.428916
	nseg : 3
	x : 0.166667;	area : 77.268085
			diam : 0.940778
			dist : 40.332942
			naf : 1.290780
			kas : 0.002783
			kir : 0.000434
			kaf : 0.174693
			kdr : 0.000700
			can : 1.105660e-06
			car : 1.000000e-04
			cal12 : 1.000000e-05
			cal13 : 1.000000e-06
			sk : 0.000011
			bk : 0.000100
			cav32 : 1.005250e-08
			cav33 : 3.895360e-09
	x : 0.500000;	area : 74.674311
			diam : 0.909214
			dist : 66.475914
			naf : 0.041395
			kas : 0.002323
			kir : 0.000434
			kaf : 0.187308
			kdr : 0.000700
			can : 4.299320e-07
			car : 1.000000e-04
			cal12 : 1.000000e-05
			cal13 : 1.000000e-06
			sk : 0.000011
			bk : 0.000100
			cav32 : 4.741310e-08
			cav33 : 4.460340e-09
	x : 0.833333;	area : 72.527172
			diam : 0.883071
			dist : 92.618886
			naf : 0.003558
			kas : 0.001898
			kir : 0.000434
			kaf : 0.197994
			kdr : 0.000700
			can : 3.607790e-07
			car : 1.000000e-04
			cal12 : 1.000000e-05
			cal13 : 1.000000e-06
			sk : 0.000011
			bk : 0.000100
			cav32 : 1.547110e-07
			cav33 : 4.926470e-09
dend[18]	L : 100.018105
	nseg : 5
	x : 0.100000;	area : 61.060988
			diam : 0.971632
			dist : 37.263266
			naf : 1.553590
			kas : 0.002838
			kir : 0.000434
			kaf : 0.173149
			kdr : 0.000700
			can : 1.304530e-06
			car : 1.000000e-04
			cal12 : 1.000000e-05
			cal13 : 1.000000e-06
			sk : 0.000011
			bk : 0.000100
			cav32 : 8.300460e-09
			cav33 : 3.823690e-09
	x : 0.300000;	area : 59.073453
			diam : 0.940013
			dist : 57.266887
			naf : 0.170469
			kas : 0.002483
			kir : 0.000434
			kaf : 0.183020
			kdr : 0.000700
			can : 5.302300e-07
			car : 1.000000e-04
			cal12 : 1.000000e-05
			cal13 : 1.000000e-06
			sk : 0.000011
			bk : 0.000100
			cav32 : 2.809510e-08
			cav33 : 4.271560e-09
	x : 0.500000;	area : 57.816364
			diam : 0.920009
			dist : 77.270508
			naf : 0.009494
			kas : 0.002141
			kir : 0.000434
			kaf : 0.192014
			kdr : 0.000700
			can : 3.819330e-07
			car : 1.000000e-04
			cal12 : 1.000000e-05
			cal13 : 1.000000e-06
			sk : 0.000011
			bk : 0.000100
			cav32 : 8.264900e-08
			cav33 : 4.665670e-09
	x : 0.700000;	area : 56.559250
			diam : 0.900005
			dist : 97.274129
			naf : 0.003288
			kas : 0.001829
			kir : 0.000434
			kaf : 0.199629
			kdr : 0.000700
			can : 3.584500e-07
			car : 1.000000e-04
			cal12 : 1.000000e-05
			cal13 : 1.000000e-06
			sk : 0.000011
			bk : 0.000100
			cav32 : 1.786810e-07
			cav33 : 4.998270e-09
	x : 0.900000;	area : 55.302168
			diam : 0.880002
			dist : 117.277750
			naf : 0.003066
			kas : 0.001555
			kir : 0.000434
			kaf : 0.205685
			kdr : 0.000700
			can : 3.548500e-07
			car : 1.000000e-04
			cal12 : 1.000000e-05
			cal13 : 1.000000e-06
			sk : 0.000011
			bk : 0.000100
			cav32 : 2.633890e-07
			cav33 : 5.269150e-09
dend[19]	L : 18.331652
	nseg : 1
	x : 0.500000;	area : 122.100697
			diam : 2.113757
			dist : 9.165826
			naf : 2.226820
			kas : 0.003330
			kir : 0.000434
			kaf : 0.159253
			kdr : 0.000700
			can : 3.931630e-06
			car : 1.000000e-04
			cal12 : 1.000000e-05
			cal13 : 1.000000e-06
			sk : 0.000011
			bk : 0.000100
			cav32 : 1.396330e-09
			cav33 : 3.136470e-09
dend[20]	L : 56.462904
	nseg : 3
	x : 0.166667;	area : 80.843266
			diam : 1.367084
			dist : 27.742136
			naf : 2.051450
			kas : 0.003008
			kir : 0.000434
			kaf : 0.168356
			kdr : 0.000700
			can : 2.139680e-06
			car : 1.000000e-04
			cal12 : 1.000000e-05
			cal13 : 1.000000e-06
			sk : 0.000011
			bk : 0.000100
			cav32 : 4.557580e-09
			cav33 : 3.596060e-09
	x : 0.500000;	area : 67.595195
			diam : 1.143205
			dist : 46.563104
			naf : 0.729706
			kas : 0.002672
			kir : 0.000434
			kaf : 0.177804
			kdr : 0.000700
			can : 8.055590e-07
			car : 1.000000e-04
			cal12 : 1.000000e-05
			cal13 : 1.000000e-06
			sk : 0.000011
			bk : 0.000100
			cav32 : 1.477050e-08
			cav33 : 4.037750e-09
	x : 0.833333;	area : 66.482435
			diam : 1.124385
			dist : 65.384073
			naf : 0.048889
			kas : 0.002341
			kir : 0.000434
			kaf : 0.186811
			kdr : 0.000700
			can : 4.379710e-07
			car : 1.000000e-04
			cal12 : 1.000000e-05
			cal13 : 1.000000e-06
			sk : 0.000011
			bk : 0.000100
			cav32 : 4.464830e-08
			cav33 : 4.438590e-09
dend[21]	L : 109.160144
	nseg : 5
	x : 0.100000;	area : 68.880397
			diam : 1.004261
			dist : 85.710571
			naf : 0.004638
			kas : 0.002005
			kir : 0.000434
			kaf : 0.195413
			kdr : 0.000700
			can : 3.667810e-07
			car : 1.000000e-04
			cal12 : 1.000000e-05
			cal13 : 1.000000e-06
			sk : 0.000011
			bk : 0.000100
			cav32 : 1.199430e-07
			cav33 : 4.813670e-09
	x : 0.300000;	area : 64.911874
			diam : 0.946412
			dist : 107.542600
			naf : 0.003099
			kas : 0.001683
			kir : 0.000434
			kaf : 0.202932
			kdr : 0.000700
			can : 3.558200e-07
			car : 1.000000e-04
			cal12 : 1.000000e-05
			cal13 : 1.000000e-06
			sk : 0.000011
			bk : 0.000100
			cav32 : 2.275350e-07
			cav33 : 5.144800e-09
	x : 0.500000;	area : 63.414471
			diam : 0.924580
			dist : 129.374629
			naf : 0.003059
			kas : 0.001409
			kir : 0.000434
			kaf : 0.208619
			kdr : 0.000700
			can : 3.544100e-07
			car : 1.000000e-04
			cal12 : 1.000000e-05
			cal13 : 1.000000e-06
			sk : 0.000011
			bk : 0.000100
			cav32 : 2.920040e-07
			cav33 : 5.405050e-09
	x : 0.700000;	area : 61.917093
			diam : 0.902748
			dist : 151.206658
			naf : 0.003058
			kas : 0.001187
			kir : 0.000434
			kaf : 0.212705
			kdr : 0.000700
			can : 3.542290e-07
			car : 1.000000e-04
			cal12 : 1.000000e-05
			cal13 : 1.000000e-06
			sk : 0.000011
			bk : 0.000100
			cav32 : 3.138930e-07
			cav33 : 5.603460e-09
	x : 0.900000;	area : 60.419691
			diam : 0.880916
			dist : 173.038687
			naf : 0.003057
			kas : 0.001011
			kir : 0.000434
			kaf : 0.215533
			kdr : 0.000700
			can : 3.542060e-07
			car : 1.000000e-04
			cal12 : 1.000000e-05
			cal13 : 1.000000e-06
			sk : 0.000011
			bk : 0.000100
			cav32 : 3.197940e-07
			cav33 : 5.751230e-09
dend[22]	L : 135.812578
	nseg : 7
	x : 0.071429;	area : 61.453226
			diam : 1.008194
			dist : 84.495455
			naf : 0.004992
			kas : 0.002024
			kir : 0.000434
			kaf : 0.194940
			kdr : 0.000700
			can : 3.683000e-07
			car : 1.000000e-04
			cal12 : 1.000000e-05
			cal13 : 1.000000e-06
			sk : 0.000011
			bk : 0.000100
			cav32 : 1.141330e-07
			cav33 : 4.793050e-09
	x : 0.214286;	area : 59.533010
			diam : 0.976711
			dist : 103.897252
			naf : 0.003134
			kas : 0.001733
			kir : 0.000434
			kaf : 0.201807
			kdr : 0.000700
			can : 3.564820e-07
			car : 1.000000e-04
			cal12 : 1.000000e-05
			cal13 : 1.000000e-06
			sk : 0.000011
			bk : 0.000100
			cav32 : 2.112200e-07
			cav33 : 5.094620e-09
	x : 0.357143;	area : 58.350406
			diam : 0.957309
			dist : 123.299049
			naf : 0.003060
			kas : 0.001480
			kir : 0.000434
			kaf : 0.207211
			kdr : 0.000700
			can : 3.545700e-07
			car : 1.000000e-04
			cal12 : 1.000000e-05
			cal13 : 1.000000e-06
			sk : 0.000011
			bk : 0.000100
			cav32 : 2.796590e-07
			cav33 : 5.339290e-09
	x : 0.500000;	area : 57.167805
			diam : 0.937907
			dist : 142.700845
			naf : 0.003058
			kas : 0.001268
			kir : 0.000434
			kaf : 0.211282
			kdr : 0.000700
			can : 3.542620e-07
			car : 1.000000e-04
			cal12 : 1.000000e-05
			cal13 : 1.000000e-06
			sk : 0.000011
			bk : 0.000100
			cav32 : 3.084080e-07
			cav33 : 5.532810e-09
	x : 0.642857;	area : 55.985235
			diam : 0.918505
			dist : 162.102642
			naf : 0.003057
			kas : 0.001094
			kir : 0.000434
			kaf : 0.214252
			kdr : 0.000700
			can : 3.542120e-07
			car : 1.000000e-04
			cal12 : 1.000000e-05
			cal13 : 1.000000e-06
			sk : 0.000011
			bk : 0.000100
			cav32 : 3.178080e-07
			cav33 : 5.682830e-09
	x : 0.785714;	area : 54.802646
			diam : 0.899103
			dist : 181.504439
			naf : 0.003057
			kas : 0.000955
			kir : 0.000434
			kaf : 0.216365
			kdr : 0.000700
			can : 3.542040e-07
			car : 1.000000e-04
			cal12 : 1.000000e-05
			cal13 : 1.000000e-06
			sk : 0.000011
			bk : 0.000100
			cav32 : 3.206190e-07
			cav33 : 5.797310e-09
	x : 0.928571;	area : 53.620012
			diam : 0.879701
			dist : 200.906236
			naf : 0.003057
			kas : 0.000846
			kir : 0.000434
			kaf : 0.217844
			kdr : 0.000700
			can : 3.542030e-07
			car : 1.000000e-04
			cal12 : 1.000000e-05
			cal13 : 1.000000e-06
			sk : 0.000011
			bk : 0.000100
			cav32 : 3.214370e-07
			cav33 : 5.883640e-09
dend[23]	L : 24.042341
	nseg : 1
	x : 0.500000;	area : 105.541886
			diam : 1.397123
			dist : 30.352823
			naf : 1.963200
			kas : 0.002962
			kir : 0.000434
			kaf : 0.169668
			kdr : 0.000700
			can : 1.881760e-06
			car : 1.000000e-04
			cal12 : 1.000000e-05
			cal13 : 1.000000e-06
			sk : 0.000011
			bk : 0.000100
			cav32 : 5.375500e-09
			cav33 : 3.659210e-09
dend[24]	L : 122.342943
	nseg : 7
	x : 0.071429;	area : 59.164662
			diam : 1.077400
			dist : 51.112775
			naf : 0.414705
			kas : 0.002591
			kir : 0.000434
			kaf : 0.180046
			kdr : 0.000700
			can : 6.589700e-07
			car : 1.000000e-04
			cal12 : 1.000000e-05
			cal13 : 1.000000e-06
			sk : 0.000011
			bk : 0.000100
			cav32 : 1.947890e-08
			cav33 : 4.138900e-09
	x : 0.214286;	area : 53.047495
			diam : 0.966127
			dist : 68.590339
			naf : 0.030148
			kas : 0.002287
			kir : 0.000434
			kaf : 0.188259
			kdr : 0.000700
			can : 4.164610e-07
			car : 1.000000e-04
			cal12 : 1.000000e-05
			cal13 : 1.000000e-06
			sk : 0.000011
			bk : 0.000100
			cav32 : 5.316890e-08
			cav33 : 4.501950e-09
	x : 0.357143;	area : 52.087834
			diam : 0.948649
			dist : 86.067902
			naf : 0.004547
			kas : 0.001999
			kir : 0.000434
			kaf : 0.195551
			kdr : 0.000700
			can : 3.663670e-07
			car : 1.000000e-04
			cal12 : 1.000000e-05
			cal13 : 1.000000e-06
			sk : 0.000011
			bk : 0.000100
			cav32 : 1.216740e-07
			cav33 : 4.819690e-09
	x : 0.500000;	area : 51.128194
			diam : 0.931171
			dist : 103.545465
			naf : 0.003138
			kas : 0.001738
			kir : 0.000434
			kaf : 0.201696
			kdr : 0.000700
			can : 3.565580e-07
			car : 1.000000e-04
			cal12 : 1.000000e-05
			cal13 : 1.000000e-06
			sk : 0.000011
			bk : 0.000100
			cav32 : 2.095750e-07
			cav33 : 5.089670e-09
	x : 0.642857;	area : 50.168567
			diam : 0.913694
			dist : 121.023029
			naf : 0.003062
			kas : 0.001508
			kir : 0.000434
			kaf : 0.206649
			kdr : 0.000700
			can : 3.546580e-07
			car : 1.000000e-04
			cal12 : 1.000000e-05
			cal13 : 1.000000e-06
			sk : 0.000011
			bk : 0.000100
			cav32 : 2.740160e-07
			cav33 : 5.313370e-09
	x : 0.785714;	area : 49.208917
			diam : 0.896217
			dist : 138.500592
			naf : 0.003058
			kas : 0.001310
			kir : 0.000434
			kaf : 0.210503
			kdr : 0.000700
			can : 3.542910e-07
			car : 1.000000e-04
			cal12 : 1.000000e-05
			cal13 : 1.000000e-06
			sk : 0.000011
			bk : 0.000100
			cav32 : 3.044940e-07
			cav33 : 5.494880e-09
	x : 0.928571;	area : 48.249253
			diam : 0.878739
			dist : 155.978155
			naf : 0.003058
			kas : 0.001145
			kir : 0.000434
			kaf : 0.213418
			kdr : 0.000700
			can : 3.542200e-07
			car : 1.000000e-04
			cal12 : 1.000000e-05
			cal13 : 1.000000e-06
			sk : 0.000011
			bk : 0.000100
			cav32 : 3.159340e-07
			cav33 : 5.639680e-09
dend[25]	L : 11.111580
	nseg : 1
	x : 0.500000;	area : 43.748251
			diam : 1.253174
			dist : 47.929784
			naf : 0.622782
			kas : 0.002648
			kir : 0.000434
			kaf : 0.178480
			kdr : 0.000700
			can : 7.559310e-07
			car : 1.000000e-04
			cal12 : 1.000000e-05
			cal13 : 1.000000e-06
			sk : 0.000011
			bk : 0.000100
			cav32 : 1.605780e-08
			cav33 : 4.068400e-09
dend[26]	L : 182.016649
	nseg : 9
	x : 0.055556;	area : 67.761976
			diam : 1.066475
			dist : 63.597610
			naf : 0.064345
			kas : 0.002372
			kir : 0.000434
			kaf : 0.185992
			kdr : 0.000700
			can : 4.529660e-07
			car : 1.000000e-04
			cal12 : 1.000000e-05
			cal13 : 1.000000e-06
			sk : 0.000011
			bk : 0.000100
			cav32 : 4.041710e-08
			cav33 : 4.402640e-09
	x : 0.166667;	area : 64.913215
			diam : 1.021679
			dist : 83.821682
			naf : 0.005222
			kas : 0.002035
			kir : 0.000434
			kaf : 0.194675
			kdr : 0.000700
			can : 3.692190e-07
			car : 1.000000e-04
			cal12 : 1.000000e-05
			cal13 : 1.000000e-06
			sk : 0.000011
			bk : 0.000100
			cav32 : 1.109670e-07
			cav33 : 4.781520e-09
	x : 0.277778;	area : 63.628367
			diam : 1.001457
			dist : 104.045754
			naf : 0.003132
			kas : 0.001731
			kir : 0.000434
			kaf : 0.201854
			kdr : 0.000700
			can : 3.564500e-07
			car : 1.000000e-04
			cal12 : 1.000000e-05
			cal13 : 1.000000e-06
			sk : 0.000011
			bk : 0.000100
			cav32 : 2.119110e-07
			cav33 : 5.096700e-09
	x : 0.388889;	area : 62.343391
			diam : 0.981232
			dist : 124.269826
			naf : 0.003060
			kas : 0.001469
			kir : 0.000434
			kaf : 0.207444
			kdr : 0.000700
			can : 3.545380e-07
			car : 1.000000e-04
			cal12 : 1.000000e-05
			cal13 : 1.000000e-06
			sk : 0.000011
			bk : 0.000100
			cav32 : 2.818890e-07
			cav33 : 5.350130e-09
	x : 0.500000;	area : 61.058434
			diam : 0.961008
			dist : 144.493898
			naf : 0.003058
			kas : 0.001250
			kir : 0.000434
			kaf : 0.211599
			kdr : 0.000700
			can : 3.542530e-07
			car : 1.000000e-04
			cal12 : 1.000000e-05
			cal13 : 1.000000e-06
			sk : 0.000011
			bk : 0.000100
			cav32 : 3.098070e-07
			cav33 : 5.548380e-09
	x : 0.611111;	area : 59.773460
			diam : 0.940784
			dist : 164.717970
			naf : 0.003057
			kas : 0.001073
			kir : 0.000434
			kaf : 0.214581
			kdr : 0.000700
			can : 3.542100e-07
			car : 1.000000e-04
			cal12 : 1.000000e-05
			cal13 : 1.000000e-06
			sk : 0.000011
			bk : 0.000100
			cav32 : 3.184130e-07
			cav33 : 5.700160e-09
	x : 0.722222;	area : 58.488494
			diam : 0.920560
			dist : 184.942042
			naf : 0.003057
			kas : 0.000934
			kir : 0.000434
			kaf : 0.216668
			kdr : 0.000700
			can : 3.542040e-07
			car : 1.000000e-04
			cal12 : 1.000000e-05
			cal13 : 1.000000e-06
			sk : 0.000011
			bk : 0.000100
			cav32 : 3.208460e-07
			cav33 : 5.814460e-09
	x : 0.833333;	area : 57.203585
			diam : 0.900336
			dist : 205.166114
			naf : 0.003057
			kas : 0.000826
			kir : 0.000434
			kaf : 0.218102
			kdr : 0.000700
			can : 3.542030e-07
			car : 1.000000e-04
			cal12 : 1.000000e-05
			cal13 : 1.000000e-06
			sk : 0.000011
			bk : 0.000100
			cav32 : 3.215160e-07
			cav33 : 5.899470e-09
	x : 0.944444;	area : 55.918610
			diam : 0.880112
			dist : 225.390186
			naf : 0.003057
			kas : 0.000744
			kir : 0.000434
			kaf : 0.219077
			kdr : 0.000700
			can : 3.542030e-07
			car : 1.000000e-04
			cal12 : 1.000000e-05
			cal13 : 1.000000e-06
			sk : 0.000011
			bk : 0.000100
			cav32 : 3.216990e-07
			cav33 : 5.962110e-09
dend[27]	L : 62.930342
	nseg : 3
	x : 0.166667;	area : 69.297766
			diam : 1.051484
			dist : 63.973964
			naf : 0.060715
			kas : 0.002366
			kir : 0.000434
			kaf : 0.186165
			kdr : 0.000700
			can : 4.496030e-07
			car : 1.000000e-04
			cal12 : 1.000000e-05
			cal13 : 1.000000e-06
			sk : 0.000011
			bk : 0.000100
			cav32 : 4.127890e-08
			cav33 : 4.410250e-09
	x : 0.500000;	area : 66.914667
			diam : 1.015389
			dist : 84.950745
			naf : 0.004851
			kas : 0.002017
			kir : 0.000434
			kaf : 0.195118
			kdr : 0.000700
			can : 3.677100e-07
			car : 1.000000e-04
			cal12 : 1.000000e-05
			cal13 : 1.000000e-06
			sk : 0.000011
			bk : 0.000100
			cav32 : 1.162950e-07
			cav33 : 4.800800e-09
	x : 0.833333;	area : 65.532302
			diam : 0.994413
			dist : 105.927525
			naf : 0.003112
			kas : 0.001705
			kir : 0.000434
			kaf : 0.202440
			kdr : 0.000700
			can : 3.560860e-07
			car : 1.000000e-04
			cal12 : 1.000000e-05
			cal13 : 1.000000e-06
			sk : 0.000011
			bk : 0.000100
			cav32 : 2.204790e-07
			cav33 : 5.122810e-09
dend[28]	L : 102.449694
	nseg : 5
	x : 0.100000;	area : 62.032789
			diam : 0.963675
			dist : 126.660885
			naf : 0.003059
			kas : 0.001441
			kir : 0.000434
			kaf : 0.208006
			kdr : 0.000700
			can : 3.544710e-07
			car : 1.000000e-04
			cal12 : 1.000000e-05
			cal13 : 1.000000e-06
			sk : 0.000011
			bk : 0.000100
			cav32 : 2.869510e-07
			cav33 : 5.376280e-09
	x : 0.300000;	area : 60.619150
			diam : 0.941714
			dist : 147.150824
			naf : 0.003058
			kas : 0.001224
			kir : 0.000434
			kaf : 0.212052
			kdr : 0.000700
			can : 3.542420e-07
			car : 1.000000e-04
			cal12 : 1.000000e-05
			cal13 : 1.000000e-06
			sk : 0.000011
			bk : 0.000100
			cav32 : 3.116240e-07
			cav33 : 5.570770e-09
	x : 0.500000;	area : 59.300189
			diam : 0.921225
			dist : 167.640763
			naf : 0.003057
			kas : 0.001051
			kir : 0.000434
			kaf : 0.214932
			kdr : 0.000700
			can : 3.542090e-07
			car : 1.000000e-04
			cal12 : 1.000000e-05
			cal13 : 1.000000e-06
			sk : 0.000011
			bk : 0.000100
			cav32 : 3.189830e-07
			cav33 : 5.718790e-09
	x : 0.700000;	area : 57.981242
			diam : 0.900735
			dist : 188.130701
			naf : 0.003057
			kas : 0.000915
			kir : 0.000434
			kaf : 0.216932
			kdr : 0.000700
			can : 3.542040e-07
			car : 1.000000e-04
			cal12 : 1.000000e-05
			cal13 : 1.000000e-06
			sk : 0.000011
			bk : 0.000100
			cav32 : 3.210160e-07
			cav33 : 5.829620e-09
	x : 0.900000;	area : 56.662280
			diam : 0.880245
			dist : 208.620640
			naf : 0.003057
			kas : 0.000810
			kir : 0.000434
			kaf : 0.218297
			kdr : 0.000700
			can : 3.542030e-07
			car : 1.000000e-04
			cal12 : 1.000000e-05
			cal13 : 1.000000e-06
			sk : 0.000011
			bk : 0.000100
			cav32 : 3.215660e-07
			cav33 : 5.911580e-09
dend[29]	L : 11.473728
	nseg : 1
	x : 0.500000;	area : 31.831521
			diam : 0.883018
			dist : 122.152780
			naf : 0.003061
			kas : 0.001494
			kir : 0.000434
			kaf : 0.206930
			kdr : 0.000700
			can : 3.546120e-07
			car : 1.000000e-04
			cal12 : 1.000000e-05
			cal13 : 1.000000e-06
			sk : 0.000011
			bk : 0.000100
			cav32 : 2.768920e-07
			cav33 : 5.326320e-09
dend[30]	L : 71.833373
	nseg : 3
	x : 0.166667;	area : 86.751920
			diam : 1.152132
			dist : 11.972229
			naf : 2.221460
			kas : 0.003283
			kir : 0.000434
			kaf : 0.160589
			kdr : 0.000700
			can : 3.716520e-06
			car : 1.000000e-04
			cal12 : 1.000000e-05
			cal13 : 1.000000e-06
			sk : 0.000011
			bk : 0.000100
			cav32 : 1.670630e-09
			cav33 : 3.206630e-09
	x : 0.500000;	area : 68.146442
			diam : 0.905917
			dist : 35.916686
			naf : 1.655060
			kas : 0.002862
			kir : 0.000434
			kaf : 0.172471
			kdr : 0.000700
			can : 1.403200e-06
			car : 1.000000e-04
			cal12 : 1.000000e-05
			cal13 : 1.000000e-06
			sk : 0.000011
			bk : 0.000100
			cav32 : 7.629190e-09
			cav33 : 3.791970e-09
	x : 0.833333;	area : 66.345250
			diam : 0.881972
			dist : 59.861144
			naf : 0.114645
			kas : 0.002437
			kir : 0.000434
			kaf : 0.184250
			kdr : 0.000700
			can : 4.932840e-07
			car : 1.000000e-04
			cal12 : 1.000000e-05
			cal13 : 1.000000e-06
			sk : 0.000011
			bk : 0.000100
			cav32 : 3.267070e-08
			cav33 : 4.325950e-09
dend[31]	L : 39.620518
	nseg : 1
	x : 0.500000;	area : 175.541347
			diam : 1.410293
			dist : 19.810259
			naf : 2.183530
			kas : 0.003147
			kir : 0.000434
			kaf : 0.164404
			kdr : 0.000700
			can : 2.975800e-06
			car : 1.000000e-04
			cal12 : 1.000000e-05
			cal13 : 1.000000e-06
			sk : 0.000011
			bk : 0.000100
			cav32 : 2.754190e-09
			cav33 : 3.401570e-09
dend[32]	L : 22.512722
	nseg : 1
	x : 0.500000;	area : 86.145080
			diam : 1.217974
			dist : 50.876879
			naf : 0.428068
			kas : 0.002595
			kir : 0.000434
			kaf : 0.179930
			kdr : 0.000700
			can : 6.653390e-07
			car : 1.000000e-04
			cal12 : 1.000000e-05
			cal13 : 1.000000e-06
			sk : 0.000011
			bk : 0.000100
			cav32 : 1.920350e-08
			cav33 : 4.133720e-09
dend[33]	L : 37.337872
	nseg : 1
	x : 0.500000;	area : 134.598274
			diam : 1.147466
			dist : 80.802176
			naf : 0.006635
			kas : 0.002084
			kir : 0.000434
			kaf : 0.193468
			kdr : 0.000700
			can : 3.741290e-07
			car : 1.000000e-04
			cal12 : 1.000000e-05
			cal13 : 1.000000e-06
			sk : 0.000011
			bk : 0.000100
			cav32 : 9.732430e-08
			cav33 : 4.728960e-09
dend[34]	L : 69.354388
	nseg : 3
	x : 0.166667;	area : 77.108437
			diam : 1.061685
			dist : 111.030176
			naf : 0.003081
			kas : 0.001636
			kir : 0.000434
			kaf : 0.203960
			kdr : 0.000700
			can : 3.553680e-07
			car : 1.000000e-04
			cal12 : 1.000000e-05
			cal13 : 1.000000e-06
			sk : 0.000011
			bk : 0.000100
			cav32 : 2.417400e-07
			cav33 : 5.190940e-09
	x : 0.500000;	area : 75.204344
			diam : 1.035477
			dist : 134.148305
			naf : 0.003058
			kas : 0.001356
			kir : 0.000434
			kaf : 0.209638
			kdr : 0.000700
			can : 3.543350e-07
			car : 1.000000e-04
			cal12 : 1.000000e-05
			cal13 : 1.000000e-06
			sk : 0.000011
			bk : 0.000100
			cav32 : 2.993130e-07
			cav33 : 5.453340e-09
	x : 0.833333;	area : 73.525278
			diam : 1.012358
			dist : 157.266435
			naf : 0.003057
			kas : 0.001134
			kir : 0.000434
			kaf : 0.213601
			kdr : 0.000700
			can : 3.542180e-07
			car : 1.000000e-04
			cal12 : 1.000000e-05
			cal13 : 1.000000e-06
			sk : 0.000011
			bk : 0.000100
			cav32 : 3.163890e-07
			cav33 : 5.649060e-09
dend[35]	L : 77.280903
	nseg : 3
	x : 0.166667;	area : 76.489532
			diam : 0.945149
			dist : 181.705650
			naf : 0.003057
			kas : 0.000954
			kir : 0.000434
			kaf : 0.216383
			kdr : 0.000700
			can : 3.542040e-07
			car : 1.000000e-04
			cal12 : 1.000000e-05
			cal13 : 1.000000e-06
			sk : 0.000011
			bk : 0.000100
			cav32 : 3.206330e-07
			cav33 : 5.798340e-09
	x : 0.500000;	area : 73.534782
			diam : 0.908640
			dist : 207.465951
			naf : 0.003057
			kas : 0.000815
			kir : 0.000434
			kaf : 0.218233
			kdr : 0.000700
			can : 3.542030e-07
			car : 1.000000e-04
			cal12 : 1.000000e-05
			cal13 : 1.000000e-06
			sk : 0.000011
			bk : 0.000100
			cav32 : 3.215500e-07
			cav33 : 5.907610e-09
	x : 0.833333;	area : 71.450046
			diam : 0.882880
			dist : 233.226252
			naf : 0.003057
			kas : 0.000717
			kir : 0.000434
			kaf : 0.219362
			kdr : 0.000700
			can : 3.542030e-07
			car : 1.000000e-04
			cal12 : 1.000000e-05
			cal13 : 1.000000e-06
			sk : 0.000011
			bk : 0.000100
			cav32 : 3.217260e-07
			cav33 : 5.981600e-09
dend[36]	L : 53.517125
	nseg : 3
	x : 0.166667;	area : 51.802924
			diam : 0.924332
			dist : 177.745020
			naf : 0.003057
			kas : 0.000979
			kir : 0.000434
			kaf : 0.216012
			kdr : 0.000700
			can : 3.542050e-07
			car : 1.000000e-04
			cal12 : 1.000000e-05
			cal13 : 1.000000e-06
			sk : 0.000011
			bk : 0.000100
			cav32 : 3.203060e-07
			cav33 : 5.777540e-09
	x : 0.500000;	area : 50.257098
			diam : 0.896759
			dist : 195.584062
			naf : 0.003057
			kas : 0.000873
			kir : 0.000434
			kaf : 0.217491
			kdr : 0.000700
			can : 3.542030e-07
			car : 1.000000e-04
			cal12 : 1.000000e-05
			cal13 : 1.000000e-06
			sk : 0.000011
			bk : 0.000100
			cav32 : 3.213020e-07
			cav33 : 5.862370e-09
	x : 0.833333;	area : 49.257327
			diam : 0.878920
			dist : 213.423104
			naf : 0.003057
			kas : 0.000789
			kir : 0.000434
			kaf : 0.218547
			kdr : 0.000700
			can : 3.542030e-07
			car : 1.000000e-04
			cal12 : 1.000000e-05
			cal13 : 1.000000e-06
			sk : 0.000011
			bk : 0.000100
			cav32 : 3.216200e-07
			cav33 : 5.927400e-09
dend[37]	L : 57.695299
	nseg : 3
	x : 0.166667;	area : 56.806103
			diam : 0.940147
			dist : 109.086995
			naf : 0.003090
			kas : 0.001662
			kir : 0.000434
			kaf : 0.203393
			kdr : 0.000700
			can : 3.556020e-07
			car : 1.000000e-04
			cal12 : 1.000000e-05
			cal13 : 1.000000e-06
			sk : 0.000011
			bk : 0.000100
			cav32 : 2.340050e-07
			cav33 : 5.165450e-09
	x : 0.500000;	area : 54.306926
			diam : 0.898848
			dist : 128.318761
			naf : 0.003059
			kas : 0.001421
			kir : 0.000434
			kaf : 0.208384
			kdr : 0.000700
			can : 3.544320e-07
			car : 1.000000e-04
			cal12 : 1.000000e-05
			cal13 : 1.000000e-06
			sk : 0.000011
			bk : 0.000100
			cav32 : 2.901210e-07
			cav33 : 5.393970e-09
	x : 0.833333;	area : 53.144966
			diam : 0.879616
			dist : 147.550528
			naf : 0.003058
			kas : 0.001221
			kir : 0.000434
			kaf : 0.212118
			kdr : 0.000700
			can : 3.542400e-07
			car : 1.000000e-04
			cal12 : 1.000000e-05
			cal13 : 1.000000e-06
			sk : 0.000011
			bk : 0.000100
			cav32 : 3.118730e-07
			cav33 : 5.574070e-09
dend[38]	L : 12.837904
	nseg : 1
	x : 0.500000;	area : 37.044934
			diam : 0.918277
			dist : 68.552192
			naf : 0.030319
			kas : 0.002287
			kir : 0.000434
			kaf : 0.188242
			kdr : 0.000700
			can : 4.166820e-07
			car : 1.000000e-04
			cal12 : 1.000000e-05
			cal13 : 1.000000e-06
			sk : 0.000011
			bk : 0.000100
			cav32 : 5.306020e-08
			cav33 : 4.501200e-09
dend[39]	L : 6.611286
	nseg : 1
	x : 0.500000;	area : 23.959219
			diam : 1.152870
			dist : 42.926161
			naf : 1.051000
			kas : 0.002737
			kir : 0.000434
			kaf : 0.175992
			kdr : 0.000700
			can : 9.648920e-07
			car : 1.000000e-04
			cal12 : 1.000000e-05
			cal13 : 1.000000e-06
			sk : 0.000011
			bk : 0.000100
			cav32 : 1.180710e-08
			cav33 : 3.955140e-09
dend[40]	L : 64.325996
	nseg : 3
	x : 0.166667;	area : 62.540055
			diam : 0.928368
			dist : 56.952803
			naf : 0.178757
			kas : 0.002488
			kir : 0.000434
			kaf : 0.182871
			kdr : 0.000700
			can : 5.352980e-07
			car : 1.000000e-04
			cal12 : 1.000000e-05
			cal13 : 1.000000e-06
			sk : 0.000011
			bk : 0.000100
			cav32 : 2.758220e-08
			cav33 : 4.264910e-09
	x : 0.500000;	area : 60.771542
			diam : 0.902163
			dist : 78.394801
			naf : 0.008397
			kas : 0.002123
			kir : 0.000434
			kaf : 0.192482
			kdr : 0.000700
			can : 3.791650e-07
			car : 1.000000e-04
			cal12 : 1.000000e-05
			cal13 : 1.000000e-06
			sk : 0.000011
			bk : 0.000100
			cav32 : 8.716050e-08
			cav33 : 4.686030e-09
	x : 0.833333;	area : 59.327148
			diam : 0.880721
			dist : 99.836800
			naf : 0.003208
			kas : 0.001791
			kir : 0.000434
			kaf : 0.200492
			kdr : 0.000700
			can : 3.575410e-07
			car : 1.000000e-04
			cal12 : 1.000000e-05
			cal13 : 1.000000e-06
			sk : 0.000011
			bk : 0.000100
			cav32 : 1.916100e-07
			cav33 : 5.036350e-09
dend[41]	L : 119.008960
	nseg : 5
	x : 0.100000;	area : 73.200741
			diam : 0.978922
			dist : 58.132699
			naf : 0.149451
			kas : 0.002467
			kir : 0.000434
			kaf : 0.183433
			kdr : 0.000700
			can : 5.169570e-07
			car : 1.000000e-04
			cal12 : 1.000000e-05
			cal13 : 1.000000e-06
			sk : 0.000011
			bk : 0.000100
			cav32 : 2.955380e-08
			cav33 : 4.289810e-09
	x : 0.300000;	area : 71.283994
			diam : 0.953306
			dist : 81.934491
			naf : 0.006021
			kas : 0.002065
			kir : 0.000434
			kaf : 0.193925
			kdr : 0.000700
			can : 3.721240e-07
			car : 1.000000e-04
			cal12 : 1.000000e-05
			cal13 : 1.000000e-06
			sk : 0.000011
			bk : 0.000100
			cav32 : 1.023300e-07
			cav33 : 4.748840e-09
	x : 0.500000;	area : 69.504211
			diam : 0.929505
			dist : 105.736283
			naf : 0.003114
			kas : 0.001708
			kir : 0.000434
			kaf : 0.202381
			kdr : 0.000700
			can : 3.561200e-07
			car : 1.000000e-04
			cal12 : 1.000000e-05
			cal13 : 1.000000e-06
			sk : 0.000011
			bk : 0.000100
			cav32 : 2.196250e-07
			cav33 : 5.120180e-09
	x : 0.700000;	area : 67.724424
			diam : 0.905703
			dist : 129.538075
			naf : 0.003059
			kas : 0.001407
			kir : 0.000434
			kaf : 0.208655
			kdr : 0.000700
			can : 3.544070e-07
			car : 1.000000e-04
			cal12 : 1.000000e-05
			cal13 : 1.000000e-06
			sk : 0.000011
			bk : 0.000100
			cav32 : 2.922860e-07
			cav33 : 5.406750e-09
	x : 0.900000;	area : 65.944615
			diam : 0.881901
			dist : 153.339867
			naf : 0.003058
			kas : 0.001168
			kir : 0.000434
			kaf : 0.213031
			kdr : 0.000700
			can : 3.542250e-07
			car : 1.000000e-04
			cal12 : 1.000000e-05
			cal13 : 1.000000e-06
			sk : 0.000011
			bk : 0.000100
			cav32 : 3.148800e-07
			cav33 : 5.619950e-09
dend[42]	L : 40.764644
	nseg : 3
	x : 0.166667;	area : 54.548203
			diam : 1.277815
			dist : 6.794107
			naf : 2.229770
			kas : 0.003370
			kir : 0.000434
			kaf : 0.158139
			kdr : 0.000700
			can : 4.089810e-06
			car : 1.000000e-04
			cal12 : 1.000000e-05
			cal13 : 1.000000e-06
			sk : 0.000011
			bk : 0.000100
			cav32 : 1.199810e-09
			cav33 : 3.077110e-09
	x : 0.500000;	area : 53.968066
			diam : 1.264225
			dist : 20.382322
			naf : 2.178430
			kas : 0.003137
			kir : 0.000434
			kaf : 0.164687
			kdr : 0.000700
			can : 2.915990e-06
			car : 1.000000e-04
			cal12 : 1.000000e-05
			cal13 : 1.000000e-06
			sk : 0.000011
			bk : 0.000100
			cav32 : 2.856330e-09
			cav33 : 3.415710e-09
	x : 0.833333;	area : 53.387904
			diam : 1.250635
			dist : 33.970537
			naf : 1.783330
			kas : 0.002897
			kir : 0.000434
			kaf : 0.171490
			kdr : 0.000700
			can : 1.558030e-06
			car : 1.000000e-04
			cal12 : 1.000000e-05
			cal13 : 1.000000e-06
			sk : 0.000011
			bk : 0.000100
			cav32 : 6.751740e-09
			cav33 : 3.745830e-09
dend[43]	L : 17.020207
	nseg : 1
	x : 0.500000;	area : 62.298887
			diam : 1.165096
			dist : 49.274748
			naf : 0.527578
			kas : 0.002624
			kir : 0.000434
			kaf : 0.179144
			kdr : 0.000700
			can : 7.119550e-07
			car : 1.000000e-04
			cal12 : 1.000000e-05
			cal13 : 1.000000e-06
			sk : 0.000011
			bk : 0.000100
			cav32 : 1.742780e-08
			cav33 : 4.098340e-09
dend[44]	L : 11.356012
	nseg : 1
	x : 0.500000;	area : 36.598903
			diam : 1.025816
			dist : 63.462857
			naf : 0.065698
			kas : 0.002374
			kir : 0.000434
			kaf : 0.185930
			kdr : 0.000700
			can : 4.541980e-07
			car : 1.000000e-04
			cal12 : 1.000000e-05
			cal13 : 1.000000e-06
			sk : 0.000011
			bk : 0.000100
			cav32 : 4.011230e-08
			cav33 : 4.399910e-09
dend[45]	L : 47.124814
	nseg : 3
	x : 0.166667;	area : 45.093994
			diam : 0.913740
			dist : 76.994999
			naf : 0.009796
			kas : 0.002146
			kir : 0.000434
			kaf : 0.191899
			kdr : 0.000700
			can : 3.826560e-07
			car : 1.000000e-04
			cal12 : 1.000000e-05
			cal13 : 1.000000e-06
			sk : 0.000011
			bk : 0.000100
			cav32 : 8.156710e-08
			cav33 : 4.660660e-09
	x : 0.500000;	area : 44.096396
			diam : 0.893562
			dist : 92.703270
			naf : 0.003551
			kas : 0.001897
			kir : 0.000434
			kaf : 0.198025
			kdr : 0.000700
			can : 3.607270e-07
			car : 1.000000e-04
			cal12 : 1.000000e-05
			cal13 : 1.000000e-06
			sk : 0.000011
			bk : 0.000100
			cav32 : 1.551460e-07
			cav33 : 4.927800e-09
	x : 0.833333;	area : 43.321205
			diam : 0.877854
			dist : 108.411542
			naf : 0.003093
			kas : 0.001671
			kir : 0.000434
			kaf : 0.203192
			kdr : 0.000700
			can : 3.556930e-07
			car : 1.000000e-04
			cal12 : 1.000000e-05
			cal13 : 1.000000e-06
			sk : 0.000011
			bk : 0.000100
			cav32 : 2.312100e-07
			cav33 : 5.156460e-09
dend[46]	L : 87.181954
	nseg : 5
	x : 0.100000;	area : 52.359644
			diam : 0.955847
			dist : 77.859059
			naf : 0.008894
			kas : 0.002132
			kir : 0.000434
			kaf : 0.192260
			kdr : 0.000700
			can : 3.804480e-07
			car : 1.000000e-04
			cal12 : 1.000000e-05
			cal13 : 1.000000e-06
			sk : 0.000011
			bk : 0.000100
			cav32 : 8.499150e-08
			cav33 : 4.676360e-09
	x : 0.300000;	area : 50.999782
			diam : 0.931026
			dist : 95.295449
			naf : 0.003378
			kas : 0.001858
			kir : 0.000434
			kaf : 0.198945
			kdr : 0.000700
			can : 3.593170e-07
			car : 1.000000e-04
			cal12 : 1.000000e-05
			cal13 : 1.000000e-06
			sk : 0.000011
			bk : 0.000100
			cav32 : 1.685280e-07
			cav33 : 4.968160e-09
	x : 0.500000;	area : 50.044673
			diam : 0.913590
			dist : 112.731840
			naf : 0.003075
			kas : 0.001613
			kir : 0.000434
			kaf : 0.204444
			kdr : 0.000700
			can : 3.551960e-07
			car : 1.000000e-04
			cal12 : 1.000000e-05
			cal13 : 1.000000e-06
			sk : 0.000011
			bk : 0.000100
			cav32 : 2.481280e-07
			cav33 : 5.212800e-09
	x : 0.700000;	area : 49.089576
			diam : 0.896154
			dist : 130.168231
			naf : 0.003058
			kas : 0.001400
			kir : 0.000434
			kaf : 0.208794
			kdr : 0.000700
			can : 3.543950e-07
			car : 1.000000e-04
			cal12 : 1.000000e-05
			cal13 : 1.000000e-06
			sk : 0.000011
			bk : 0.000100
			cav32 : 2.933520e-07
			cav33 : 5.413280e-09
	x : 0.900000;	area : 48.134449
			diam : 0.878718
			dist : 147.604622
			naf : 0.003058
			kas : 0.001220
			kir : 0.000434
			kaf : 0.212127
			kdr : 0.000700
			can : 3.542400e-07
			car : 1.000000e-04
			cal12 : 1.000000e-05
			cal13 : 1.000000e-06
			sk : 0.000011
			bk : 0.000100
			cav32 : 3.119070e-07
			cav33 : 5.574520e-09
dend[47]	L : 115.791196
	nseg : 5
	x : 0.100000;	area : 71.677264
			diam : 0.985167
			dist : 69.363971
			naf : 0.026906
			kas : 0.002273
			kir : 0.000434
			kaf : 0.188604
			kdr : 0.000700
			can : 4.121470e-07
			car : 1.000000e-04
			cal12 : 1.000000e-05
			cal13 : 1.000000e-06
			sk : 0.000011
			bk : 0.000100
			cav32 : 5.541060e-08
			cav33 : 4.517010e-09
	x : 0.300000;	area : 69.192709
			diam : 0.951053
			dist : 92.522210
			naf : 0.003566
			kas : 0.001900
			kir : 0.000434
			kaf : 0.197960
			kdr : 0.000700
			can : 3.608390e-07
			car : 1.000000e-04
			cal12 : 1.000000e-05
			cal13 : 1.000000e-06
			sk : 0.000011
			bk : 0.000100
			cav32 : 1.542120e-07
			cav33 : 4.924950e-09
	x : 0.500000;	area : 67.507856
			diam : 0.927895
			dist : 115.680449
			naf : 0.003068
			kas : 0.001575
			kir : 0.000434
			kaf : 0.205258
			kdr : 0.000700
			can : 3.549550e-07
			car : 1.000000e-04
			cal12 : 1.000000e-05
			cal13 : 1.000000e-06
			sk : 0.000011
			bk : 0.000100
			cav32 : 2.583260e-07
			cav33 : 5.249690e-09
	x : 0.700000;	area : 65.823002
			diam : 0.904737
			dist : 138.838688
			naf : 0.003058
			kas : 0.001307
			kir : 0.000434
			kaf : 0.210568
			kdr : 0.000700
			can : 3.542880e-07
			car : 1.000000e-04
			cal12 : 1.000000e-05
			cal13 : 1.000000e-06
			sk : 0.000011
			bk : 0.000100
			cav32 : 3.048460e-07
			cav33 : 5.498010e-09
	x : 0.900000;	area : 64.138202
			diam : 0.881579
			dist : 161.996928
			naf : 0.003057
			kas : 0.001094
			kir : 0.000434
			kaf : 0.214238
			kdr : 0.000700
			can : 3.542130e-07
			car : 1.000000e-04
			cal12 : 1.000000e-05
			cal13 : 1.000000e-06
			sk : 0.000011
			bk : 0.000100
			cav32 : 3.177810e-07
			cav33 : 5.682110e-09
dend[48]	L : 95.370664
	nseg : 5
	x : 0.100000;	area : 58.884358
			diam : 0.982506
			dist : 50.301711
			naf : 0.462033
			kas : 0.002606
			kir : 0.000434
			kaf : 0.179648
			kdr : 0.000700
			can : 6.813890e-07
			car : 1.000000e-04
			cal12 : 1.000000e-05
			cal13 : 1.000000e-06
			sk : 0.000011
			bk : 0.000100
			cav32 : 1.854740e-08
			cav33 : 4.121060e-09
	x : 0.300000;	area : 56.133562
			diam : 0.936759
			dist : 69.375844
			naf : 0.026860
			kas : 0.002273
			kir : 0.000434
			kaf : 0.188609
			kdr : 0.000700
			can : 4.120830e-07
			car : 1.000000e-04
			cal12 : 1.000000e-05
			cal13 : 1.000000e-06
			sk : 0.000011
			bk : 0.000100
			cav32 : 5.544550e-08
			cav33 : 4.517240e-09
	x : 0.500000;	area : 54.990555
			diam : 0.917684
			dist : 88.449977
			naf : 0.004059
			kas : 0.001962
			kir : 0.000434
			kaf : 0.196459
			kdr : 0.000700
			can : 3.639300e-07
			car : 1.000000e-04
			cal12 : 1.000000e-05
			cal13 : 1.000000e-06
			sk : 0.000011
			bk : 0.000100
			cav32 : 1.334440e-07
			cav33 : 4.859300e-09
	x : 0.700000;	area : 53.847577
			diam : 0.898610
			dist : 107.524110
			naf : 0.003099
			kas : 0.001683
			kir : 0.000434
			kaf : 0.202926
			kdr : 0.000700
			can : 3.558230e-07
			car : 1.000000e-04
			cal12 : 1.000000e-05
			cal13 : 1.000000e-06
			sk : 0.000011
			bk : 0.000100
			cav32 : 2.274560e-07
			cav33 : 5.144550e-09
	x : 0.900000;	area : 52.704648
			diam : 0.879537
			dist : 126.598242
			naf : 0.003059
			kas : 0.001441
			kir : 0.000434
			kaf : 0.207991
			kdr : 0.000700
			can : 3.544720e-07
			car : 1.000000e-04
			cal12 : 1.000000e-05
			cal13 : 1.000000e-06
			sk : 0.000011
			bk : 0.000100
			cav32 : 2.868260e-07
			cav33 : 5.375610e-09
dend[49]	L : 60.198107
	nseg : 3
	x : 0.166667;	area : 79.988619
			diam : 1.268869
			dist : 10.033018
			naf : 2.225420
			kas : 0.003316
			kir : 0.000434
			kaf : 0.159664
			kdr : 0.000700
			can : 3.868380e-06
			car : 1.000000e-04
			cal12 : 1.000000e-05
			cal13 : 1.000000e-06
			sk : 0.000011
			bk : 0.000100
			cav32 : 1.475930e-09
			cav33 : 3.158160e-09
	x : 0.500000;	area : 78.723670
			diam : 1.248803
			dist : 30.099053
			naf : 1.973170
			kas : 0.002966
			kir : 0.000434
			kaf : 0.169540
			kdr : 0.000700
			can : 1.906040e-06
			car : 1.000000e-04
			cal12 : 1.000000e-05
			cal13 : 1.000000e-06
			sk : 0.000011
			bk : 0.000100
			cav32 : 5.290040e-09
			cav33 : 3.653090e-09
	x : 0.833333;	area : 77.458618
			diam : 1.228735
			dist : 50.165089
			naf : 0.470390
			kas : 0.002608
			kir : 0.000434
			kaf : 0.179581
			kdr : 0.000700
			can : 6.853120e-07
			car : 1.000000e-04
			cal12 : 1.000000e-05
			cal13 : 1.000000e-06
			sk : 0.000011
			bk : 0.000100
			cav32 : 1.839460e-08
			cav33 : 4.118040e-09
dend[50]	L : 46.338905
	nseg : 3
	x : 0.166667;	area : 51.725791
			diam : 1.065890
			dist : 67.921257
			naf : 0.033300
			kas : 0.002298
			kir : 0.000434
			kaf : 0.187959
			kdr : 0.000700
			can : 4.204460e-07
			car : 1.000000e-04
			cal12 : 1.000000e-05
			cal13 : 1.000000e-06
			sk : 0.000011
			bk : 0.000100
			cav32 : 5.128930e-08
			cav33 : 4.488850e-09
	x : 0.500000;	area : 48.980925
			diam : 1.009375
			dist : 83.367559
			naf : 0.005392
			kas : 0.002042
			kir : 0.000434
			kaf : 0.194496
			kdr : 0.000700
			can : 3.698720e-07
			car : 1.000000e-04
			cal12 : 1.000000e-05
			cal13 : 1.000000e-06
			sk : 0.000011
			bk : 0.000100
			cav32 : 1.088570e-07
			cav33 : 4.773700e-09
	x : 0.833333;	area : 48.231464
			diam : 0.993930
			dist : 98.813861
			naf : 0.003236
			kas : 0.001806
			kir : 0.000434
			kaf : 0.200151
			kdr : 0.000700
			can : 3.578770e-07
			car : 1.000000e-04
			cal12 : 1.000000e-05
			cal13 : 1.000000e-06
			sk : 0.000011
			bk : 0.000100
			cav32 : 1.864890e-07
			cav33 : 5.021270e-09
dend[51]	L : 57.819390
	nseg : 3
	x : 0.166667;	area : 56.141723
			diam : 0.927217
			dist : 116.173577
			naf : 0.003067
			kas : 0.001569
			kir : 0.000434
			kaf : 0.205391
			kdr : 0.000700
			can : 3.549210e-07
			car : 1.000000e-04
			cal12 : 1.000000e-05
			cal13 : 1.000000e-06
			sk : 0.000011
			bk : 0.000100
			cav32 : 2.599240e-07
			cav33 : 5.255740e-09
	x : 0.500000;	area : 54.427516
			diam : 0.898910
			dist : 135.446707
			naf : 0.003058
			kas : 0.001342
			kir : 0.000434
			kaf : 0.209902
			kdr : 0.000700
			can : 3.543200e-07
			car : 1.000000e-04
			cal12 : 1.000000e-05
			cal13 : 1.000000e-06
			sk : 0.000011
			bk : 0.000100
			cav32 : 3.009940e-07
			cav33 : 5.465980e-09
	x : 0.833333;	area : 53.260538
			diam : 0.879637
			dist : 154.719837
			naf : 0.003058
			kas : 0.001155
			kir : 0.000434
			kaf : 0.213236
			kdr : 0.000700
			can : 3.542220e-07
			car : 1.000000e-04
			cal12 : 1.000000e-05
			cal13 : 1.000000e-06
			sk : 0.000011
			bk : 0.000100
			cav32 : 3.154520e-07
			cav33 : 5.630360e-09
dend[52]	L : 58.387360
	nseg : 3
	x : 0.166667;	area : 56.457386
			diam : 0.923357
			dist : 116.268239
			naf : 0.003067
			kas : 0.001567
			kir : 0.000434
			kaf : 0.205416
			kdr : 0.000700
			can : 3.549150e-07
			car : 1.000000e-04
			cal12 : 1.000000e-05
			cal13 : 1.000000e-06
			sk : 0.000011
			bk : 0.000100
			cav32 : 2.602270e-07
			cav33 : 5.256900e-09
	x : 0.500000;	area : 54.979515
			diam : 0.899194
			dist : 135.730692
			naf : 0.003058
			kas : 0.001339
			kir : 0.000434
			kaf : 0.209960
			kdr : 0.000700
			can : 3.543170e-07
			car : 1.000000e-04
			cal12 : 1.000000e-05
			cal13 : 1.000000e-06
			sk : 0.000011
			bk : 0.000100
			cav32 : 3.013450e-07
			cav33 : 5.468710e-09
	x : 0.833333;	area : 53.789510
			diam : 0.879731
			dist : 155.193145
			naf : 0.003058
			kas : 0.001151
			kir : 0.000434
			kaf : 0.213305
			kdr : 0.000700
			can : 3.542210e-07
			car : 1.000000e-04
			cal12 : 1.000000e-05
			cal13 : 1.000000e-06
			sk : 0.000011
			bk : 0.000100
			cav32 : 3.156380e-07
			cav33 : 5.633880e-09
dend[53]	L : 186.156656
	nseg : 9
	x : 0.055556;	area : 68.791812
			diam : 1.058588
			dist : 70.540143
			naf : 0.022699
			kas : 0.002253
			kir : 0.000434
			kaf : 0.189124
			kdr : 0.000700
			can : 4.061480e-07
			car : 1.000000e-04
			cal12 : 1.000000e-05
			cal13 : 1.000000e-06
			sk : 0.000011
			bk : 0.000100
			cav32 : 5.896110e-08
			cav33 : 4.539730e-09
	x : 0.166667;	area : 66.613961
			diam : 1.025131
			dist : 91.224216
			naf : 0.003688
			kas : 0.001919
			kir : 0.000434
			kaf : 0.197488
			kdr : 0.000700
			can : 3.617000e-07
			car : 1.000000e-04
			cal12 : 1.000000e-05
			cal13 : 1.000000e-06
			sk : 0.000011
			bk : 0.000100
			cav32 : 1.475340e-07
			cav33 : 4.904300e-09
	x : 0.277778;	area : 65.269834
			diam : 1.004446
			dist : 111.908289
			naf : 0.003078
			kas : 0.001624
			kir : 0.000434
			kaf : 0.204211
			kdr : 0.000700
			can : 3.552760e-07
			car : 1.000000e-04
			cal12 : 1.000000e-05
			cal13 : 1.000000e-06
			sk : 0.000011
			bk : 0.000100
			cav32 : 2.450820e-07
			cav33 : 5.202280e-09
	x : 0.388889;	area : 63.925823
			diam : 0.983763
			dist : 132.592361
			naf : 0.003058
			kas : 0.001373
			kir : 0.000434
			kaf : 0.209314
			kdr : 0.000700
			can : 3.543560e-07
			car : 1.000000e-04
			cal12 : 1.000000e-05
			cal13 : 1.000000e-06
			sk : 0.000011
			bk : 0.000100
			cav32 : 2.971350e-07
			cav33 : 5.437920e-09
	x : 0.500000;	area : 62.581768
			diam : 0.963079
			dist : 153.276434
			naf : 0.003058
			kas : 0.001168
			kir : 0.000434
			kaf : 0.213022
			kdr : 0.000700
			can : 3.542250e-07
			car : 1.000000e-04
			cal12 : 1.000000e-05
			cal13 : 1.000000e-06
			sk : 0.000011
			bk : 0.000100
			cav32 : 3.148520e-07
			cav33 : 5.619460e-09
	x : 0.611111;	area : 61.237659
			diam : 0.942394
			dist : 173.960507
			naf : 0.003057
			kas : 0.001005
			kir : 0.000434
			kaf : 0.215630
			kdr : 0.000700
			can : 3.542060e-07
			car : 1.000000e-04
			cal12 : 1.000000e-05
			cal13 : 1.000000e-06
			sk : 0.000011
			bk : 0.000100
			cav32 : 3.199060e-07
			cav33 : 5.756530e-09
	x : 0.722222;	area : 59.893581
			diam : 0.921710
			dist : 194.644580
			naf : 0.003057
			kas : 0.000878
			kir : 0.000434
			kaf : 0.217424
			kdr : 0.000700
			can : 3.542030e-07
			car : 1.000000e-04
			cal12 : 1.000000e-05
			cal13 : 1.000000e-06
			sk : 0.000011
			bk : 0.000100
			cav32 : 3.212730e-07
			cav33 : 5.858440e-09
	x : 0.833333;	area : 58.549521
			diam : 0.901026
			dist : 215.328653
			naf : 0.003057
			kas : 0.000782
			kir : 0.000434
			kaf : 0.218639
			kdr : 0.000700
			can : 3.542030e-07
			car : 1.000000e-04
			cal12 : 1.000000e-05
			cal13 : 1.000000e-06
			sk : 0.000011
			bk : 0.000100
			cav32 : 3.216370e-07
			cav33 : 5.933360e-09
	x : 0.944444;	area : 57.205464
			diam : 0.880342
			dist : 236.012726
			naf : 0.003057
			kas : 0.000709
			kir : 0.000434
			kaf : 0.219454
			kdr : 0.000700
			can : 3.542030e-07
			car : 1.000000e-04
			cal12 : 1.000000e-05
			cal13 : 1.000000e-06
			sk : 0.000011
			bk : 0.000100
			cav32 : 3.217330e-07
			cav33 : 5.987980e-09
dend[54]	L : 15.030047
	nseg : 1
	x : 0.500000;	area : 59.054305
			diam : 1.248825
			dist : 7.515023
			naf : 2.228990
			kas : 0.003358
			kir : 0.000434
			kaf : 0.158476
			kdr : 0.000700
			can : 4.044010e-06
			car : 1.000000e-04
			cal12 : 1.000000e-05
			cal13 : 1.000000e-06
			sk : 0.000011
			bk : 0.000100
			cav32 : 1.256440e-09
			cav33 : 3.095150e-09
dend[55]	L : 29.236527
	nseg : 1
	x : 0.500000;	area : 100.796754
			diam : 1.097415
			dist : 14.618263
			naf : 2.213540
			kas : 0.003237
			kir : 0.000434
			kaf : 0.161864
			kdr : 0.000700
			can : 3.487060e-06
			car : 1.000000e-04
			cal12 : 1.000000e-05
			cal13 : 1.000000e-06
			sk : 0.000011
			bk : 0.000100
			cav32 : 1.978130e-09
			cav33 : 3.272650e-09
dend[56]	L : 81.019228
	nseg : 5
	x : 0.100000;	area : 48.448479
			diam : 0.951661
			dist : 37.338450
			naf : 1.547640
			kas : 0.002837
			kir : 0.000434
			kaf : 0.173187
			kdr : 0.000700
			can : 1.299230e-06
			car : 1.000000e-04
			cal12 : 1.000000e-05
			cal13 : 1.000000e-06
			sk : 0.000011
			bk : 0.000100
			cav32 : 8.339590e-09
			cav33 : 3.825460e-09
	x : 0.300000;	area : 47.175173
			diam : 0.926713
			dist : 53.542295
			naf : 0.295610
			kas : 0.002548
			kir : 0.000434
			kaf : 0.181229
			kdr : 0.000700
			can : 6.000810e-07
			car : 1.000000e-04
			cal12 : 1.000000e-05
			cal13 : 1.000000e-06
			sk : 0.000011
			bk : 0.000100
			cav32 : 2.253730e-08
			cav33 : 4.191860e-09
	x : 0.500000;	area : 46.350293
			diam : 0.910509
			dist : 69.746141
			naf : 0.025449
			kas : 0.002267
			kir : 0.000434
			kaf : 0.188773
			kdr : 0.000700
			can : 4.101270e-07
			car : 1.000000e-04
			cal12 : 1.000000e-05
			cal13 : 1.000000e-06
			sk : 0.000011
			bk : 0.000100
			cav32 : 5.654530e-08
			cav33 : 4.524410e-09
	x : 0.700000;	area : 45.525430
			diam : 0.894306
			dist : 85.949986
			naf : 0.004576
			kas : 0.002001
			kir : 0.000434
			kaf : 0.195505
			kdr : 0.000700
			can : 3.665020e-07
			car : 1.000000e-04
			cal12 : 1.000000e-05
			cal13 : 1.000000e-06
			sk : 0.000011
			bk : 0.000100
			cav32 : 1.211020e-07
			cav33 : 4.817700e-09
	x : 0.900000;	area : 44.700571
			diam : 0.878102
			dist : 102.153832
			naf : 0.003160
			kas : 0.001758
			kir : 0.000434
			kaf : 0.201250
			kdr : 0.000700
			can : 3.568870e-07
			car : 1.000000e-04
			cal12 : 1.000000e-05
			cal13 : 1.000000e-06
			sk : 0.000011
			bk : 0.000100
			cav32 : 2.029600e-07
			cav33 : 5.069910e-09
dend[57]	L : 131.777193
	nseg : 7
	x : 0.071429;	area : 59.104029
			diam : 0.999352
			dist : 38.649183
			naf : 1.439550
			kas : 0.002814
			kir : 0.000434
			kaf : 0.173847
			kdr : 0.000700
			can : 1.210290e-06
			car : 1.000000e-04
			cal12 : 1.000000e-05
			cal13 : 1.000000e-06
			sk : 0.000011
			bk : 0.000100
			cav32 : 9.051300e-09
			cav33 : 3.856160e-09
	x : 0.214286;	area : 57.576595
			diam : 0.973540
			dist : 57.474497
			naf : 0.165190
			kas : 0.002479
			kir : 0.000434
			kaf : 0.183119
			kdr : 0.000700
			can : 5.269560e-07
			car : 1.000000e-04
			cal12 : 1.000000e-05
			cal13 : 1.000000e-06
			sk : 0.000011
			bk : 0.000100
			cav32 : 2.843880e-08
			cav33 : 4.275940e-09
	x : 0.357143;	area : 56.463209
			diam : 0.954714
			dist : 76.299810
			naf : 0.010620
			kas : 0.002157
			kir : 0.000434
			kaf : 0.191607
			kdr : 0.000700
			can : 3.845660e-07
			car : 1.000000e-04
			cal12 : 1.000000e-05
			cal13 : 1.000000e-06
			sk : 0.000011
			bk : 0.000100
			cav32 : 7.887890e-08
			cav33 : 4.647940e-09
	x : 0.500000;	area : 55.349873
			diam : 0.935889
			dist : 95.125123
			naf : 0.003387
			kas : 0.001861
			kir : 0.000434
			kaf : 0.198885
			kdr : 0.000700
			can : 3.594000e-07
			car : 1.000000e-04
			cal12 : 1.000000e-05
			cal13 : 1.000000e-06
			sk : 0.000011
			bk : 0.000100
			cav32 : 1.676500e-07
			cav33 : 4.965540e-09
	x : 0.642857;	area : 54.236532
			diam : 0.917064
			dist : 113.950436
			naf : 0.003072
			kas : 0.001597
			kir : 0.000434
			kaf : 0.204785
			kdr : 0.000700
			can : 3.550880e-07
			car : 1.000000e-04
			cal12 : 1.000000e-05
			cal13 : 1.000000e-06
			sk : 0.000011
			bk : 0.000100
			cav32 : 2.524770e-07
			cav33 : 5.228200e-09
	x : 0.785714;	area : 53.123153
			diam : 0.898239
			dist : 132.775749
			naf : 0.003058
			kas : 0.001371
			kir : 0.000434
			kaf : 0.209353
			kdr : 0.000700
			can : 3.543540e-07
			car : 1.000000e-04
			cal12 : 1.000000e-05
			cal13 : 1.000000e-06
			sk : 0.000011
			bk : 0.000100
			cav32 : 2.974010e-07
			cav33 : 5.439750e-09
	x : 0.928571;	area : 52.009785
			diam : 0.879413
			dist : 151.601063
			naf : 0.003058
			kas : 0.001183
			kir : 0.000434
			kaf : 0.212766
			kdr : 0.000700
			can : 3.542290e-07
			car : 1.000000e-04
			cal12 : 1.000000e-05
			cal13 : 1.000000e-06
			sk : 0.000011
			bk : 0.000100
			cav32 : 3.140860e-07
			cav33 : 5.606540e-09
